<?xml version="1.0" encoding="UTF-8" standalone="no"?>
<!-- Created with Inkscape (http://www.inkscape.org/) -->

<svg
   xmlns:dc="http://purl.org/dc/elements/1.1/"
   xmlns:cc="http://creativecommons.org/ns#"
   xmlns:rdf="http://www.w3.org/1999/02/22-rdf-syntax-ns#"
   xmlns:svg="http://www.w3.org/2000/svg"
   xmlns="http://www.w3.org/2000/svg"
   xmlns:sodipodi="http://sodipodi.sourceforge.net/DTD/sodipodi-0.dtd"
   xmlns:inkscape="http://www.inkscape.org/namespaces/inkscape"
   width="184.67917mm"
   height="78.845833mm"
   viewBox="0 0 184.67917 78.845833"
   version="1.1"
   id="svg8"
   inkscape:version="0.92.3 (2405546, 2018-03-11)"
   sodipodi:docname="Cauchyintegralsatz_rechtecksbilder.svg">
  <defs
     id="defs2" />
  <sodipodi:namedview
     id="base"
     pagecolor="#ffffff"
     bordercolor="#666666"
     borderopacity="1.0"
     inkscape:pageopacity="0.0"
     inkscape:pageshadow="2"
     inkscape:zoom="0.98994949"
     inkscape:cx="310.10132"
     inkscape:cy="240.84106"
     inkscape:document-units="mm"
     inkscape:current-layer="layer1"
     showgrid="false"
     fit-margin-top="0"
     fit-margin-left="0"
     fit-margin-right="0"
     fit-margin-bottom="0"
     inkscape:window-width="1422"
     inkscape:window-height="1015"
     inkscape:window-x="0"
     inkscape:window-y="0"
     inkscape:window-maximized="0" />
  <metadata
     id="metadata5">
    <rdf:RDF>
      <cc:Work
         rdf:about="">
        <dc:format>image/svg+xml</dc:format>
        <dc:type
           rdf:resource="http://purl.org/dc/dcmitype/StillImage" />
        <dc:title></dc:title>
      </cc:Work>
    </rdf:RDF>
  </metadata>
  <g
     inkscape:label="Layer 1"
     inkscape:groupmode="layer"
     id="layer1"
     transform="translate(-12.737795,-135.67976)" />
  <g
     inkscape:groupmode="layer"
     id="layer2"
     inkscape:label="Layer 2"
     transform="translate(-12.737795,-135.67976)">
    <rect
       style="opacity:1;fill:none;fill-opacity:0.50588223;stroke:#000000;stroke-width:0.50329286;stroke-linecap:round;stroke-linejoin:round;stroke-miterlimit:4;stroke-dasharray:none;stroke-dashoffset:0;stroke-opacity:1;paint-order:stroke markers fill"
       id="rect827"
       width="55.014187"
       height="40.548721"
       x="32.309872"
       y="155.5063" />
    <path
       style="fill:none;stroke:#ed1d1a;stroke-width:0.5;stroke-linecap:round;stroke-linejoin:round;stroke-miterlimit:4;stroke-dasharray:none;stroke-opacity:1"
       d="m 54.756843,197.90982 2.472243,-1.70384 -2.505652,-2.07134"
       id="path829"
       inkscape:connector-curvature="0" />
    <path
       style="fill:none;stroke:#ed1d1a;stroke-width:0.5;stroke-linecap:round;stroke-linejoin:round;stroke-miterlimit:4;stroke-dasharray:none;stroke-opacity:1"
       d="m 54.873773,199.69718 c 0,0 3.591436,3.15713 1.620322,3.32417 -1.971112,0.16704 -0.818513,-2.27179 1.202713,-3.65825"
       id="path831"
       inkscape:connector-curvature="0" />
    <path
       style="fill:none;stroke:#ed1d1a;stroke-width:0.5;stroke-linecap:round;stroke-linejoin:round;stroke-miterlimit:4;stroke-dasharray:none;stroke-opacity:1"
       d="m 59.898838,157.24114 -2.472243,-1.70384 2.505652,-2.07134"
       id="path829-3"
       inkscape:connector-curvature="0" />
    <path
       style="fill:none;stroke:#ed1d1a;stroke-width:0.5;stroke-linecap:round;stroke-linejoin:round;stroke-miterlimit:4;stroke-dasharray:none;stroke-opacity:1"
       d="m 30.71424,173.41091 1.70384,2.47225 2.07134,-2.50566"
       id="path829-6"
       inkscape:connector-curvature="0" />
    <path
       style="fill:none;stroke:#ed1d1a;stroke-width:0.5;stroke-linecap:round;stroke-linejoin:round;stroke-miterlimit:4;stroke-dasharray:none;stroke-opacity:1"
       d="m 89.201474,175.94425 -1.70384,-2.47225 -2.07134,2.50566"
       id="path829-7"
       inkscape:connector-curvature="0" />
    <path
       style="fill:none;stroke:#000000;stroke-width:0.5;stroke-linecap:round;stroke-linejoin:round;stroke-miterlimit:4;stroke-dasharray:none;stroke-opacity:1"
       d="m 85.910448,198.51118 c 0,0 0.05011,4.29301 1.687139,4.17608 1.637025,-0.11693 0.868625,-2.20497 -0.150338,-2.13815 -1.018966,0.0668 -0.952149,1.08578 -0.952149,1.08578"
       id="path860"
       inkscape:connector-curvature="0" />
    <path
       style="fill:none;stroke:#000000;stroke-width:0.5;stroke-linecap:round;stroke-linejoin:round;stroke-miterlimit:4;stroke-dasharray:none;stroke-opacity:1"
       d="m 33.332774,200.00186 c 0,0 -0.48428,2.59858 -1.700892,1.78357 -1.21661,-0.81501 0.283482,-2.8112 1.252045,-2.1143 0.968566,0.69689 -0.236233,1.27567 0.779576,2.46866"
       id="path862"
       inkscape:connector-curvature="0" />
    <path
       style="fill:none;stroke:#000000;stroke-width:0.5;stroke-linecap:round;stroke-linejoin:round;stroke-miterlimit:4;stroke-dasharray:none;stroke-opacity:1"
       d="m 28.489955,193.718 c 0,0 -1.866257,-0.16536 -1.488282,1.22843 0.377976,1.39378 2.173365,1.03943 2.55134,0.85044"
       id="path864"
       inkscape:connector-curvature="0" />
    <path
       style="fill:none;stroke:#000000;stroke-width:0.5;stroke-linecap:round;stroke-linejoin:round;stroke-miterlimit:4;stroke-dasharray:none;stroke-opacity:1"
       d="m 29.635696,154.33761 c 0,0 -1.582775,-0.92132 -2.303293,0.29529 -0.720516,1.21661 0.578776,1.55915 1.192987,1.24024 0.614212,-0.31892 1.240235,-0.56697 1.240235,-2.18518 0,-1.61821 0.224422,-2.13793 0.03543,-2.1143 -0.188989,0.0236 -0.496094,3.10649 0.767763,4.3231"
       id="path866"
       inkscape:connector-curvature="0"
       sodipodi:nodetypes="cccscc" />
    <path
       style="fill:none;stroke:#000000;stroke-width:0.5;stroke-linecap:round;stroke-linejoin:round;stroke-miterlimit:4;stroke-dasharray:none;stroke-opacity:1"
       d="m 76.174014,164.44847 c 0,0 1.570963,-1.5119 2.515904,1.41741 0.590587,2.01981 -2.137929,2.75214 -2.905692,2.04344 -0.673272,-0.63784 -1.122118,-3.6144 0.590589,-3.83882"
       id="path868"
       inkscape:connector-curvature="0"
       sodipodi:nodetypes="cccc" />
    <path
       style="fill:none;stroke:#000000;stroke-width:0.5;stroke-linecap:round;stroke-linejoin:round;stroke-miterlimit:4;stroke-dasharray:none;stroke-opacity:1"
       d="m 77.355188,167.16518 1.252048,1.34654"
       id="path870"
       inkscape:connector-curvature="0"
       sodipodi:nodetypes="cc" />
    <path
       style="fill:none;stroke:#000000;stroke-width:0.5;stroke-linecap:round;stroke-linejoin:round;stroke-miterlimit:4;stroke-dasharray:none;stroke-opacity:1"
       d="m 104.41592,176.09486 c 1.65365,-0.99218 3.6144,-1.44103 6.14211,-1.20479"
       id="path872"
       inkscape:connector-curvature="0" />
    <path
       style="fill:none;stroke:#000000;stroke-width:0.5;stroke-linecap:round;stroke-linejoin:round;stroke-miterlimit:4;stroke-dasharray:none;stroke-opacity:1"
       d="m 110.67615,173.9215 c 0,0 1.13393,-0.0945 1.08668,0.68508 -0.0472,0.77958 -1.2048,1.41741 -1.2048,1.41741"
       id="path874"
       inkscape:connector-curvature="0" />
    <path
       style="fill:none;stroke:#000000;stroke-width:0.5;stroke-linecap:round;stroke-linejoin:round;stroke-miterlimit:4;stroke-dasharray:none;stroke-opacity:1"
       d="m 107.2035,169.95275 c -0.4961,-0.23623 -1.58278,1.53553 0.49609,1.41741 2.07887,-0.11812 1.5119,-2.38597 0.89769,-2.29148 -0.61421,0.0945 -1.96075,0.82682 -0.35435,4.27586"
       id="path876"
       inkscape:connector-curvature="0" />
    <path
       style="fill:none;stroke:#000000;stroke-width:0.5;stroke-linecap:round;stroke-linejoin:round;stroke-miterlimit:4;stroke-dasharray:none;stroke-opacity:1"
       d="m 107.95945,178.50446 c -0.82682,-0.61421 -1.55915,0.66146 -1.13393,1.48828 0.42522,0.82683 1.53553,0.56697 1.53553,0.56697"
       id="path878"
       inkscape:connector-curvature="0" />
    <path
       style="fill:none;stroke:#000000;stroke-width:0.5;stroke-linecap:round;stroke-linejoin:round;stroke-miterlimit:4;stroke-dasharray:none;stroke-opacity:1"
       d="m 109.25874,178.55171 1.03944,-1.25205 0.35435,1.98438"
       id="path880"
       inkscape:connector-curvature="0" />
    <path
       style="fill:none;stroke:#000000;stroke-width:0.5;stroke-linecap:round;stroke-linejoin:round;stroke-miterlimit:4;stroke-dasharray:none;stroke-opacity:1"
       d="m 157.15448,155.84828 c 0.31738,-2.35531 3.62714,-7.25118 7.02893,-10.13325"
       id="path882"
       inkscape:connector-curvature="0" />
    <path
       style="fill:none;stroke:#000000;stroke-width:0.5;stroke-linecap:round;stroke-linejoin:round;stroke-miterlimit:4;stroke-dasharray:none;stroke-opacity:1"
       d="m 162.85066,145.09068 c 0.60136,-0.35079 2.40543,-1.38646 2.70611,-1.20271 0.30067,0.18374 -0.25057,2.95667 -0.40091,3.22394"
       id="path884"
       inkscape:connector-curvature="0" />
    <path
       style="fill:none;stroke:#000000;stroke-width:0.5;stroke-linecap:round;stroke-linejoin:round;stroke-miterlimit:4;stroke-dasharray:none;stroke-opacity:1"
       d="m 157.00186,150.03813 c -0.17718,-1.75995 -1.55915,-2.62221 -0.25986,-4.53571 1.29929,-1.91351 1.41741,1.48828 0.48428,1.86625"
       id="path886"
       inkscape:connector-curvature="0" />
    <path
       style="fill:none;stroke:#000000;stroke-width:0.5;stroke-linecap:round;stroke-linejoin:round;stroke-miterlimit:4;stroke-dasharray:none;stroke-opacity:1"
       d="m 155.26553,148.82152 c 0.42522,-0.28348 1.01581,-0.46066 1.90169,-0.44885"
       id="path888"
       inkscape:connector-curvature="0" />
    <path
       style="fill:none;stroke:#000000;stroke-width:0.5;stroke-linecap:round;stroke-linejoin:round;stroke-miterlimit:4;stroke-dasharray:none;stroke-opacity:1"
       d="m 162.39964,150.08528 0.93545,3.00678 c 0,0 -0.63477,-2.10475 0.63476,-2.02123 1.26953,0.0835 0.30068,1.10249 1.20272,1.85419"
       id="path890"
       inkscape:connector-curvature="0" />
    <path
       style="fill:none;stroke:#000000;stroke-width:0.5;stroke-linecap:round;stroke-linejoin:round;stroke-miterlimit:4;stroke-dasharray:none;stroke-opacity:1"
       d="m 166.50891,151.03743 c 1.06908,0.41761 1.00226,1.60361 0.0334,1.85418 -0.96885,0.25057 -1.01896,-1.60362 0.10023,-1.9043"
       id="path892"
       inkscape:connector-curvature="0" />
    <path
       style="fill:none;stroke:#000000;stroke-width:0.5;stroke-linecap:round;stroke-linejoin:round;stroke-miterlimit:4;stroke-dasharray:none;stroke-opacity:1"
       d="m 167.77844,149.31688 c 0.15034,1.68714 0.41761,3.0903 1.06908,3.842"
       id="path894"
       inkscape:connector-curvature="0" />
    <path
       style="fill:none;stroke:#000000;stroke-width:0.5;stroke-linecap:round;stroke-linejoin:round;stroke-miterlimit:4;stroke-dasharray:none;stroke-opacity:1"
       d="m 169.96671,150.82027 c 1.05238,0.0334 1.62033,1.5368 0.25057,1.9377 -1.36976,0.40091 -1.11919,-1.63702 -0.43431,-1.77066"
       id="path896"
       inkscape:connector-curvature="0" />
    <path
       style="fill:none;stroke:#000000;stroke-width:0.5;stroke-linecap:round;stroke-linejoin:round;stroke-miterlimit:4;stroke-dasharray:none;stroke-opacity:1"
       d="m 171.62044,150.73675 0.68488,1.95441 c 0,0 -0.35079,-2.33861 0.71829,-2.05464 1.06908,0.28398 0.75169,1.46999 0.95215,1.88759 0.20045,0.41761 0.0668,-2.10474 0.91873,-1.5535 0.85193,0.55124 0.0167,1.23612 0.83522,2.02123"
       id="path898"
       inkscape:connector-curvature="0" />
    <path
       style="fill:none;stroke:#000000;stroke-width:0.5;stroke-linecap:round;stroke-linejoin:round;stroke-miterlimit:4;stroke-dasharray:none;stroke-opacity:1"
       d="m 177.29992,151.12095 c 1.25283,0.0167 1.46998,1.38646 0.25057,1.83748 -1.21942,0.45101 -1.40317,-1.9043 -0.18375,-1.70385"
       id="path900"
       inkscape:connector-curvature="0" />
    <path
       style="fill:none;stroke:#000000;stroke-width:0.5;stroke-linecap:round;stroke-linejoin:round;stroke-miterlimit:4;stroke-dasharray:none;stroke-opacity:1"
       d="m 179.12069,151.35481 c 0.26727,0.86863 0.51784,1.46998 0.81852,1.68714 0.30067,0.21716 -0.85192,-0.93544 0.0334,-1.80407 0.88533,-0.86863 0.31738,0.18375 1.15259,0.13364"
       id="path902"
       inkscape:connector-curvature="0" />
    <path
       style="fill:none;stroke:#000000;stroke-width:0.5;stroke-linecap:round;stroke-linejoin:round;stroke-miterlimit:4;stroke-dasharray:none;stroke-opacity:1"
       d="m 181.77669,151.33811 c 0.28397,1.38646 0.55124,2.80633 0.83521,3.15712 0.28398,0.35079 -1.20271,-2.43884 0.18375,-3.14042 1.38646,-0.70158 1.28624,1.33635 0.95215,1.68714 -0.33409,0.35079 -1.5201,-0.0835 -1.5368,-0.50113"
       id="path904"
       inkscape:connector-curvature="0" />
    <path
       style="fill:none;stroke:#000000;stroke-width:0.5;stroke-linecap:round;stroke-linejoin:round;stroke-miterlimit:4;stroke-dasharray:none;stroke-opacity:1"
       d="m 184.19882,149.68438 c 0.70158,0.66817 0.7684,2.77292 0.86862,3.12371 0.10023,0.35079 -0.0167,-1.75396 1.11919,-1.50339 1.1359,0.25056 0.18375,1.01896 0.66818,1.80407"
       id="path906"
       inkscape:connector-curvature="0" />
    <path
       style="fill:none;stroke:#000000;stroke-width:0.5;stroke-linecap:round;stroke-linejoin:round;stroke-miterlimit:4;stroke-dasharray:none;stroke-opacity:1"
       d="m 166.74656,166.09031 c -0.42523,0.29529 -0.8977,2.62221 0.68508,2.95293 1.58277,0.33073 1.83082,-2.52771 1.66546,-2.61039 -0.16537,-0.0827 -0.46066,1.97256 0.27167,2.81119"
       id="path908"
       inkscape:connector-curvature="0" />
    <path
       style="fill:none;stroke:#000000;stroke-width:0.5;stroke-linecap:round;stroke-linejoin:round;stroke-miterlimit:4;stroke-dasharray:none;stroke-opacity:1"
       d="m 172.42801,167.04706 c -0.62602,0 -1.46465,0.0945 -1.21661,0.86226 0.24805,0.76776 0.82682,0.9095 1.48828,0.79138"
       id="path910"
       inkscape:connector-curvature="0" />
    <path
       style="fill:none;stroke:#000000;stroke-width:0.5;stroke-linecap:round;stroke-linejoin:round;stroke-miterlimit:4;stroke-dasharray:none;stroke-opacity:1"
       d="m 176.46763,166.32654 c -0.35435,-0.42522 -2.12611,-0.12993 -1.86625,1.27567 0.25985,1.4056 1.16936,1.84264 2.20879,1.6064 1.03944,-0.23624 1.14574,-0.86226 1.14574,-1.05125"
       id="path912"
       inkscape:connector-curvature="0" />
    <path
       style="fill:none;stroke:#000000;stroke-width:0.5;stroke-linecap:round;stroke-linejoin:round;stroke-miterlimit:4;stroke-dasharray:none;stroke-opacity:1"
       d="m 175.2274,166.50372 1.1103,2.59858"
       id="path914"
       inkscape:connector-curvature="0" />
    <path
       style="fill:none;stroke:#000000;stroke-width:0.5;stroke-linecap:round;stroke-linejoin:round;stroke-miterlimit:4;stroke-dasharray:none;stroke-opacity:1"
       d="m 172.3972,139.6033 c -0.21716,-0.36749 -2.46389,-0.0919 -2.37202,1.62868 0.0919,1.72054 1.57856,1.64537 2.36366,1.50339 0.78511,-0.14199 1.41987,-0.62641 1.41987,-0.69323"
       id="path916"
       inkscape:connector-curvature="0" />
    <path
       style="fill:none;stroke:#000000;stroke-width:0.5;stroke-linecap:round;stroke-linejoin:round;stroke-miterlimit:4;stroke-dasharray:none;stroke-opacity:1"
       d="m 171.22789,139.73694 1.01061,2.8815"
       id="path918"
       inkscape:connector-curvature="0" />
    <path
       style="fill:none;stroke:#771def;stroke-width:0.64999998;stroke-linecap:round;stroke-linejoin:miter;stroke-miterlimit:4;stroke-dasharray:none;stroke-opacity:1"
       d="m 138.09482,184.29578 c 0,0 2.38872,-3.02349 3.20724,-3.62484"
       id="path924"
       inkscape:connector-curvature="0" />
    <path
       style="fill:none;stroke:#771def;stroke-width:0.64999998;stroke-linecap:round;stroke-linejoin:miter;stroke-miterlimit:4;stroke-dasharray:none;stroke-opacity:1"
       d="m 136.107,183.77794 c 0.80181,-1.1693 2.35532,-3.27405 3.77519,-4.12597"
       id="path926"
       inkscape:connector-curvature="0" />
    <path
       style="fill:none;stroke:#771def;stroke-width:0.64999998;stroke-linecap:round;stroke-linejoin:miter;stroke-miterlimit:4;stroke-dasharray:none;stroke-opacity:1"
       d="m 136.77518,180.08628 c 0.33409,-0.53454 1.36976,-1.57021 1.60362,-1.72054"
       id="path928"
       inkscape:connector-curvature="0" />
    <path
       style="fill:none;stroke:#771def;stroke-width:0.64999998;stroke-linecap:round;stroke-linejoin:miter;stroke-miterlimit:4;stroke-dasharray:none;stroke-opacity:1"
       d="m 150.40593,186.48405 c 0,0 0.66817,-0.7684 1.21941,-0.98556"
       id="path930"
       inkscape:connector-curvature="0" />
    <path
       style="fill:none;stroke:#771def;stroke-width:0.64999998;stroke-linecap:round;stroke-linejoin:miter;stroke-miterlimit:4;stroke-dasharray:none;stroke-opacity:1"
       d="m 151.59193,186.80143 c 0,0 0.60136,-0.80181 1.08579,-1.06908"
       id="path932"
       inkscape:connector-curvature="0" />
    <path
       style="fill:none;stroke:#771def;stroke-width:0.64999998;stroke-linecap:round;stroke-linejoin:miter;stroke-miterlimit:4;stroke-dasharray:none;stroke-opacity:1"
       d="m 155.65109,179.66868 c 0,0 0.28397,-0.55125 1.03567,-0.83522"
       id="path934"
       inkscape:connector-curvature="0" />
    <path
       style="fill:none;stroke:#771def;stroke-width:0.64999998;stroke-linecap:round;stroke-linejoin:miter;stroke-miterlimit:4;stroke-dasharray:none;stroke-opacity:1"
       d="m 155.81813,181.77342 c 0.21716,-0.4009 1.01897,-1.43657 1.63703,-1.57021"
       id="path936"
       inkscape:connector-curvature="0" />
    <path
       style="fill:none;stroke:#771def;stroke-width:0.64999998;stroke-linecap:round;stroke-linejoin:miter;stroke-miterlimit:4;stroke-dasharray:none;stroke-opacity:1"
       d="m 155.76802,183.5942 c 0,0 1.30294,-1.67044 1.95441,-1.85419"
       id="path938"
       inkscape:connector-curvature="0" />
    <path
       style="fill:none;stroke:#000000;stroke-width:0.5;stroke-linecap:butt;stroke-linejoin:miter;stroke-miterlimit:4;stroke-dasharray:none;stroke-opacity:1"
       d="m 139.70945,155.77864 c -3.59078,1.67728 -5.10268,7.37054 -6.80357,10.81957 -1.79539,2.97656 -5.00818,5.5279 -7.37054,10.25261 -1.98437,5.95312 -2.92931,15.35528 4.67746,20.31622 7.60677,4.96093 18.23735,9.92187 27.92299,9.59114 9.68564,-0.33073 22.86756,-5.29166 23.90699,-13.74888 1.88989,-9.78014 0.10402,-17.16272 -14.03237,-20.6942 -13.85387,-3.4609 -12.67476,-15.69125 -21.16666,-17.62314 -2.87448,-0.65394 -3.49628,0.56696 -7.1343,1.08668 z"
       id="path920"
       inkscape:connector-curvature="0"
       sodipodi:nodetypes="cccsscssc" />
    <path
       style="fill:none;stroke:#771def;stroke-width:0.64999998;stroke-linecap:round;stroke-linejoin:miter;stroke-miterlimit:4;stroke-dasharray:none;stroke-opacity:1"
       d="m 158.3739,183.41045 c 0.13363,-0.11693 1.06908,-0.86863 1.06908,-0.86863"
       id="path940"
       inkscape:connector-curvature="0" />
    <path
       style="fill:none;stroke:#ed1d1a;stroke-width:0.5;stroke-linecap:butt;stroke-linejoin:miter;stroke-miterlimit:4;stroke-dasharray:none;stroke-opacity:1"
       d="m 134.98474,177.79576 c 2.74033,-1.22843 3.77977,-1.37017 5.29167,-0.37798 1.51191,0.99219 4.86645,7.27604 6.70908,8.26823 1.84263,0.99219 5.10268,2.36235 5.66964,2.3151 0.56697,-0.0472 1.51191,-1.88988 1.7009,-3.1183 0.18898,-1.22842 0.37797,-8.12649 0.7087,-8.97694 0.33073,-0.85044 0.18899,-1.93712 1.51191,0.85045 1.32291,2.78758 4.81919,6.23661 6.37834,6.70908 1.55916,0.47247 3.02381,1.84263 3.02381,1.84263 0,0 -3.77976,-0.75595 -6.47284,-0.75595 -2.69308,0 -8.83519,-0.23623 -9.49665,0.0945 -0.66146,0.33072 -1.22842,0.75595 -2.17336,0.28348 -0.94495,-0.47247 -4.58297,-1.88988 -6.33111,-0.75596 -1.74813,1.13393 -3.73251,1.32292 -5.00818,2.92932 -1.27567,1.6064 -2.26786,2.78758 -2.26786,2.78758 0,0 1.03944,-5.00819 0.94494,-7.65402 -0.0945,-2.64584 -0.18899,-4.44122 -0.18899,-4.44122 z"
       id="path922"
       inkscape:connector-curvature="0" />
    <path
       style="fill:none;stroke:#771def;stroke-width:0.64999998;stroke-linecap:round;stroke-linejoin:miter;stroke-miterlimit:4;stroke-dasharray:none;stroke-opacity:1"
       d="m 160.32831,183.96169 c 0,0 0.4009,-0.75169 0.81851,-0.7851"
       id="path942"
       inkscape:connector-curvature="0" />
    <path
       style="fill:none;stroke:#ed1d1a;stroke-width:0.5;stroke-linecap:round;stroke-linejoin:miter;stroke-miterlimit:4;stroke-dasharray:none;stroke-opacity:1"
       d="m 140.95127,174.49033 c -0.65147,0.0334 -0.90204,1.5368 0.55124,1.35305 1.45328,-0.18375 1.08578,-1.5535 0.56795,-1.5368 -0.51784,0.0167 -1.00226,1.87089 -0.25057,2.87315"
       id="path944"
       inkscape:connector-curvature="0" />
    <path
       style="fill:none;stroke:#ed1d1a;stroke-width:0.5;stroke-linecap:round;stroke-linejoin:miter;stroke-miterlimit:4;stroke-dasharray:none;stroke-opacity:1"
       d="m 144.1418,174.33999 c -0.58466,0.53454 -0.56795,1.40316 0.26727,1.28623 0.83521,-0.11693 0.75169,-1.31964 -0.20046,-1.13589"
       id="path946"
       inkscape:connector-curvature="0" />
    <path
       style="fill:none;stroke:#ed1d1a;stroke-width:0.5;stroke-linecap:round;stroke-linejoin:miter;stroke-miterlimit:4;stroke-dasharray:none;stroke-opacity:1"
       d="m 145.89575,174.22306 c 0.61806,0.53454 1.98782,2.85644 0.71829,2.88985 -1.26953,0.0334 0.0334,-2.47224 0.71829,-2.85644"
       id="path948"
       inkscape:connector-curvature="0" />
    <path
       style="fill:none;stroke:#771def;stroke-width:0.5;stroke-linecap:round;stroke-linejoin:round;stroke-miterlimit:4;stroke-dasharray:none;stroke-opacity:1"
       d="m 141.87,190.05878 c -1.10248,0.35079 -1.50339,2.08804 0.15034,2.28849 1.65373,0.20045 2.00452,-1.52009 1.55351,-1.75395 -0.45102,-0.23386 -2.60588,1.90429 -1.25283,3.50791"
       id="path950"
       inkscape:connector-curvature="0" />
    <path
       style="fill:none;stroke:#771def;stroke-width:0.5;stroke-linecap:round;stroke-linejoin:round;stroke-miterlimit:4;stroke-dasharray:none;stroke-opacity:1"
       d="m 146.29666,190.07548 c -0.63477,0.0334 -2.33861,1.67044 -0.68488,3.57473"
       id="path952"
       inkscape:connector-curvature="0" />
    <path
       style="fill:none;stroke:#771def;stroke-width:0.5;stroke-linecap:round;stroke-linejoin:round;stroke-miterlimit:4;stroke-dasharray:none;stroke-opacity:1"
       d="m 150.58967,190.72695 c -0.23386,-0.41761 1.10249,1.68714 0.10023,3.49121"
       id="path954"
       inkscape:connector-curvature="0" />
    <path
       style="fill:none;stroke:#771def;stroke-width:0.5;stroke-linecap:round;stroke-linejoin:round;stroke-miterlimit:4;stroke-dasharray:none;stroke-opacity:1"
       d="m 148.45152,190.99422 c -1.10249,0.41761 -2.3052,2.43883 -0.18375,2.2885 2.12145,-0.15034 0.71829,-2.72281 0.20045,-2.10475"
       id="path956"
       inkscape:connector-curvature="0" />
    <path
       style="fill:none;stroke:#771def;stroke-width:0.5;stroke-linecap:round;stroke-linejoin:round;stroke-miterlimit:4;stroke-dasharray:none;stroke-opacity:1"
       d="m 149.30344,194.06782 -0.95215,-1.36976"
       id="path958"
       inkscape:connector-curvature="0" />
  </g>
</svg>
