<?xml version="1.0" encoding="UTF-8" standalone="no"?>
<!-- Created with Inkscape (http://www.inkscape.org/) -->

<svg
   xmlns:dc="http://purl.org/dc/elements/1.1/"
   xmlns:cc="http://creativecommons.org/ns#"
   xmlns:rdf="http://www.w3.org/1999/02/22-rdf-syntax-ns#"
   xmlns:svg="http://www.w3.org/2000/svg"
   xmlns="http://www.w3.org/2000/svg"
   xmlns:xlink="http://www.w3.org/1999/xlink"
   xmlns:sodipodi="http://sodipodi.sourceforge.net/DTD/sodipodi-0.dtd"
   xmlns:inkscape="http://www.inkscape.org/namespaces/inkscape"
   width="140mm"
   height="56mm"
   viewBox="0 0 140 56"
   version="1.1"
   id="svg8"
   sodipodi:docname="testbild.svg"
   inkscape:version="0.92.3 (2405546, 2018-03-11)">
  <defs
     id="defs2">
    <linearGradient
       id="linearGradient4843">
      <stop
         id="stop4845"
         offset="0"
         style="stop-color:white;stop-opacity:0.49411765;" />
      <stop
         id="stop4847"
         offset="1"
         style="stop-color:white;stop-opacity:0.25098041;" />
    </linearGradient>
    <linearGradient
       id="linearGradient4825">
      <stop
         style="stop-color:#0084dd;stop-opacity:1"
         offset="0"
         id="stop4827" />
      <stop
         style="stop-color:white;stop-opacity:1"
         offset="1"
         id="stop4829" />
    </linearGradient>
    <linearGradient
       inkscape:collect="always"
       xlink:href="#linearGradient4843"
       id="linearGradient1304-4-5-0"
       gradientUnits="userSpaceOnUse"
       gradientTransform="matrix(1.3278264,0,0,0.27121936,31.740776,190.28662)"
       x1="247"
       y1="441.86218"
       x2="292"
       y2="282.36218" />
    <linearGradient
       inkscape:collect="always"
       xlink:href="#linearGradient2878"
       id="linearGradient3036-3"
       gradientUnits="userSpaceOnUse"
       x1="117.85899"
       y1="98.673531"
       x2="108.49657"
       y2="142.69228"
       gradientTransform="matrix(2.2089177,0,0,2.2089177,136.27363,78.879775)" />
    <linearGradient
       inkscape:collect="always"
       id="linearGradient2878">
      <stop
         style="stop-color:black;stop-opacity:1"
         offset="0"
         id="stop2880" />
      <stop
         style="stop-color:#898989;stop-opacity:1"
         offset="1"
         id="stop2882" />
    </linearGradient>
    <linearGradient
       gradientUnits="userSpaceOnUse"
       y2="7.7507225"
       x2="254.32549"
       y1="7.7507225"
       x1="246.4377"
       gradientTransform="matrix(1.1031634,0,0,4.4230237,153.0967,258.4284)"
       inkscape:collect="always"
       id="linearGradient1102">
      <stop
         style="stop-color:black;stop-opacity:1"
         offset="0"
         id="stop1098" />
      <stop
         style="stop-color:#898989;stop-opacity:1"
         offset="1"
         id="stop1100" />
    </linearGradient>
    <linearGradient
       inkscape:collect="always"
       xlink:href="#linearGradient2878"
       id="linearGradient1154"
       gradientUnits="userSpaceOnUse"
       gradientTransform="translate(-7.6159781,-81.283522)"
       x1="117.85899"
       y1="98.673531"
       x2="108.49657"
       y2="142.69228" />
    <linearGradient
       inkscape:collect="always"
       xlink:href="#linearGradient2878"
       id="linearGradient3014"
       gradientUnits="userSpaceOnUse"
       x1="117.85899"
       y1="98.673531"
       x2="108.49657"
       y2="142.69228"
       gradientTransform="matrix(2.2089177,0,0,2.2089177,136.27364,78.879787)" />
    <linearGradient
       inkscape:collect="always"
       xlink:href="#linearGradient4843"
       id="linearGradient1304-4-3"
       gradientUnits="userSpaceOnUse"
       gradientTransform="matrix(1.3278264,0,0,0.27121936,31.740776,190.28662)"
       x1="247"
       y1="441.86218"
       x2="292"
       y2="282.36218" />
    <linearGradient
       inkscape:collect="always"
       xlink:href="#linearGradient4825"
       id="linearGradient1302-1"
       gradientUnits="userSpaceOnUse"
       x1="253.74718"
       y1="412.82977"
       x2="188.00023"
       y2="542.33295" />
    <linearGradient
       inkscape:collect="always"
       xlink:href="#linearGradient4843"
       id="linearGradient1304-4-5-0-8"
       gradientUnits="userSpaceOnUse"
       gradientTransform="matrix(1.3278264,0,0,0.27121936,31.740786,190.28662)"
       x1="247"
       y1="441.86218"
       x2="292"
       y2="282.36218" />
    <linearGradient
       inkscape:collect="always"
       xlink:href="#linearGradient4843"
       id="linearGradient1776"
       gradientUnits="userSpaceOnUse"
       gradientTransform="matrix(1.3278264,0,0,0.27121936,31.740786,190.28662)"
       x1="247"
       y1="441.86218"
       x2="292"
       y2="282.36218" />
    <linearGradient
       inkscape:collect="always"
       xlink:href="#linearGradient4843"
       id="linearGradient1778"
       gradientUnits="userSpaceOnUse"
       gradientTransform="matrix(1.3278264,0,0,0.27121936,31.740786,190.28662)"
       x1="247"
       y1="441.86218"
       x2="292"
       y2="282.36218" />
    <linearGradient
       inkscape:collect="always"
       xlink:href="#linearGradient4843"
       id="linearGradient1780"
       gradientUnits="userSpaceOnUse"
       gradientTransform="matrix(1.3278264,0,0,0.27121936,31.740786,190.28662)"
       x1="247"
       y1="441.86218"
       x2="292"
       y2="282.36218" />
    <linearGradient
       inkscape:collect="always"
       xlink:href="#linearGradient4843"
       id="linearGradient1782"
       gradientUnits="userSpaceOnUse"
       gradientTransform="matrix(1.3278264,0,0,0.27121936,31.740786,190.28662)"
       x1="247"
       y1="441.86218"
       x2="292"
       y2="282.36218" />
    <linearGradient
       inkscape:collect="always"
       xlink:href="#linearGradient4843"
       id="linearGradient1784"
       gradientUnits="userSpaceOnUse"
       gradientTransform="matrix(1.3278264,0,0,0.27121936,31.740786,190.28662)"
       x1="247"
       y1="441.86218"
       x2="292"
       y2="282.36218" />
    <linearGradient
       inkscape:collect="always"
       xlink:href="#linearGradient4843"
       id="linearGradient1786"
       gradientUnits="userSpaceOnUse"
       gradientTransform="matrix(1.3278264,0,0,0.27121936,31.740786,190.28662)"
       x1="247"
       y1="441.86218"
       x2="292"
       y2="282.36218" />
    <linearGradient
       inkscape:collect="always"
       xlink:href="#linearGradient2878"
       id="linearGradient1788"
       gradientUnits="userSpaceOnUse"
       gradientTransform="matrix(2.2089177,0,0,2.2089177,136.27364,78.879787)"
       x1="117.85899"
       y1="98.673531"
       x2="108.49657"
       y2="142.69228" />
    <linearGradient
       inkscape:collect="always"
       xlink:href="#linearGradient2878"
       id="linearGradient1790"
       gradientUnits="userSpaceOnUse"
       gradientTransform="matrix(2.2089177,0,0,2.2089177,136.27364,78.879787)"
       x1="117.85899"
       y1="98.673531"
       x2="108.49657"
       y2="142.69228" />
    <linearGradient
       inkscape:collect="always"
       xlink:href="#linearGradient2878"
       id="linearGradient1792"
       gradientUnits="userSpaceOnUse"
       gradientTransform="matrix(2.2089177,0,0,2.2089177,136.27364,78.879787)"
       x1="117.85899"
       y1="98.673531"
       x2="108.49657"
       y2="142.69228" />
    <linearGradient
       inkscape:collect="always"
       xlink:href="#linearGradient2878"
       id="linearGradient1794"
       gradientUnits="userSpaceOnUse"
       gradientTransform="matrix(2.2089177,0,0,2.2089177,136.27364,78.879787)"
       x1="117.85899"
       y1="98.673531"
       x2="108.49657"
       y2="142.69228" />
    <linearGradient
       inkscape:collect="always"
       xlink:href="#linearGradient2878"
       id="linearGradient1796"
       gradientUnits="userSpaceOnUse"
       gradientTransform="matrix(2.2089177,0,0,2.2089177,136.27364,78.879787)"
       x1="117.85899"
       y1="98.673531"
       x2="108.49657"
       y2="142.69228" />
    <linearGradient
       inkscape:collect="always"
       xlink:href="#linearGradient2878"
       id="linearGradient1798"
       gradientUnits="userSpaceOnUse"
       gradientTransform="matrix(2.2089177,0,0,2.2089177,136.27364,78.879787)"
       x1="117.85899"
       y1="98.673531"
       x2="108.49657"
       y2="142.69228" />
    <linearGradient
       inkscape:collect="always"
       xlink:href="#linearGradient2878"
       id="linearGradient1800"
       gradientUnits="userSpaceOnUse"
       gradientTransform="matrix(2.2089177,0,0,2.2089177,136.27364,78.879787)"
       x1="117.85899"
       y1="98.673531"
       x2="108.49657"
       y2="142.69228" />
    <linearGradient
       inkscape:collect="always"
       xlink:href="#linearGradient2878"
       id="linearGradient1802"
       gradientUnits="userSpaceOnUse"
       gradientTransform="matrix(2.2089177,0,0,2.2089177,136.27364,78.879787)"
       x1="117.85899"
       y1="98.673531"
       x2="108.49657"
       y2="142.69228" />
    <linearGradient
       inkscape:collect="always"
       xlink:href="#linearGradient2878"
       id="linearGradient1804"
       gradientUnits="userSpaceOnUse"
       gradientTransform="matrix(2.2089177,0,0,2.2089177,136.27364,78.879787)"
       x1="117.85899"
       y1="98.673531"
       x2="108.49657"
       y2="142.69228" />
    <linearGradient
       inkscape:collect="always"
       xlink:href="#linearGradient2878"
       id="linearGradient1806"
       gradientUnits="userSpaceOnUse"
       gradientTransform="matrix(2.2089177,0,0,2.2089177,136.27364,78.879787)"
       x1="117.85899"
       y1="98.673531"
       x2="108.49657"
       y2="142.69228" />
    <linearGradient
       inkscape:collect="always"
       xlink:href="#linearGradient2878"
       id="linearGradient1808"
       gradientUnits="userSpaceOnUse"
       gradientTransform="matrix(2.2089177,0,0,2.2089177,136.27364,78.879787)"
       x1="117.85899"
       y1="98.673531"
       x2="108.49657"
       y2="142.69228" />
    <linearGradient
       inkscape:collect="always"
       xlink:href="#linearGradient2878"
       id="linearGradient1810"
       gradientUnits="userSpaceOnUse"
       gradientTransform="matrix(2.2089177,0,0,2.2089177,136.27364,78.879787)"
       x1="117.85899"
       y1="98.673531"
       x2="108.49657"
       y2="142.69228" />
    <linearGradient
       inkscape:collect="always"
       xlink:href="#linearGradient2878"
       id="linearGradient1812"
       gradientUnits="userSpaceOnUse"
       gradientTransform="matrix(2.2089177,0,0,2.2089177,136.27363,78.879775)"
       x1="117.85899"
       y1="98.673531"
       x2="108.49657"
       y2="142.69228" />
    <linearGradient
       inkscape:collect="always"
       xlink:href="#linearGradient2878"
       id="linearGradient1814"
       gradientUnits="userSpaceOnUse"
       gradientTransform="matrix(2.2089177,0,0,2.2089177,136.27363,78.879775)"
       x1="117.85899"
       y1="98.673531"
       x2="108.49657"
       y2="142.69228" />
    <linearGradient
       inkscape:collect="always"
       xlink:href="#linearGradient2878"
       id="linearGradient1816"
       gradientUnits="userSpaceOnUse"
       gradientTransform="matrix(2.2089177,0,0,2.2089177,136.27363,78.879775)"
       x1="117.85899"
       y1="98.673531"
       x2="108.49657"
       y2="142.69228" />
    <linearGradient
       inkscape:collect="always"
       xlink:href="#linearGradient2878"
       id="linearGradient1818"
       gradientUnits="userSpaceOnUse"
       gradientTransform="matrix(2.2089177,0,0,2.2089177,136.27363,78.879775)"
       x1="117.85899"
       y1="98.673531"
       x2="108.49657"
       y2="142.69228" />
    <linearGradient
       inkscape:collect="always"
       xlink:href="#linearGradient2878"
       id="linearGradient1820"
       gradientUnits="userSpaceOnUse"
       gradientTransform="matrix(2.2089177,0,0,2.2089177,136.27363,78.879775)"
       x1="117.85899"
       y1="98.673531"
       x2="108.49657"
       y2="142.69228" />
    <linearGradient
       inkscape:collect="always"
       xlink:href="#linearGradient2878"
       id="linearGradient1822"
       gradientUnits="userSpaceOnUse"
       gradientTransform="matrix(2.2089177,0,0,2.2089177,136.27363,78.879775)"
       x1="117.85899"
       y1="98.673531"
       x2="108.49657"
       y2="142.69228" />
    <linearGradient
       inkscape:collect="always"
       xlink:href="#linearGradient2878"
       id="linearGradient1824"
       gradientUnits="userSpaceOnUse"
       gradientTransform="matrix(2.2089177,0,0,2.2089177,136.27363,78.879775)"
       x1="117.85899"
       y1="98.673531"
       x2="108.49657"
       y2="142.69228" />
    <linearGradient
       inkscape:collect="always"
       xlink:href="#linearGradient2878"
       id="linearGradient1826"
       gradientUnits="userSpaceOnUse"
       gradientTransform="matrix(2.2089177,0,0,2.2089177,136.27363,78.879775)"
       x1="117.85899"
       y1="98.673531"
       x2="108.49657"
       y2="142.69228" />
    <linearGradient
       inkscape:collect="always"
       xlink:href="#linearGradient2878"
       id="linearGradient1828"
       gradientUnits="userSpaceOnUse"
       gradientTransform="matrix(2.2089177,0,0,2.2089177,136.27363,78.879775)"
       x1="117.85899"
       y1="98.673531"
       x2="108.49657"
       y2="142.69228" />
    <linearGradient
       inkscape:collect="always"
       xlink:href="#linearGradient2878"
       id="linearGradient1830"
       gradientUnits="userSpaceOnUse"
       gradientTransform="matrix(2.2089177,0,0,2.2089177,136.27363,78.879775)"
       x1="117.85899"
       y1="98.673531"
       x2="108.49657"
       y2="142.69228" />
    <linearGradient
       inkscape:collect="always"
       xlink:href="#linearGradient2878"
       id="linearGradient1832"
       gradientUnits="userSpaceOnUse"
       gradientTransform="matrix(2.2089177,0,0,2.2089177,136.27363,78.879775)"
       x1="117.85899"
       y1="98.673531"
       x2="108.49657"
       y2="142.69228" />
    <linearGradient
       inkscape:collect="always"
       xlink:href="#linearGradient4843"
       id="linearGradient1834"
       gradientUnits="userSpaceOnUse"
       gradientTransform="matrix(1.3278264,0,0,0.27121936,31.740776,190.28662)"
       x1="247"
       y1="441.86218"
       x2="292"
       y2="282.36218" />
    <linearGradient
       inkscape:collect="always"
       xlink:href="#linearGradient4843"
       id="linearGradient1836"
       gradientUnits="userSpaceOnUse"
       gradientTransform="matrix(1.3278264,0,0,0.27121936,31.740776,190.28662)"
       x1="247"
       y1="441.86218"
       x2="292"
       y2="282.36218" />
    <linearGradient
       inkscape:collect="always"
       xlink:href="#linearGradient4843"
       id="linearGradient1838"
       gradientUnits="userSpaceOnUse"
       gradientTransform="matrix(1.3278264,0,0,0.27121936,31.740776,190.28662)"
       x1="247"
       y1="441.86218"
       x2="292"
       y2="282.36218" />
    <linearGradient
       inkscape:collect="always"
       xlink:href="#linearGradient4843"
       id="linearGradient1840"
       gradientUnits="userSpaceOnUse"
       gradientTransform="matrix(1.3278264,0,0,0.27121936,31.740776,190.28662)"
       x1="247"
       y1="441.86218"
       x2="292"
       y2="282.36218" />
    <linearGradient
       inkscape:collect="always"
       xlink:href="#linearGradient4843"
       id="linearGradient1842"
       gradientUnits="userSpaceOnUse"
       gradientTransform="matrix(1.3278264,0,0,0.27121936,31.740776,190.28662)"
       x1="247"
       y1="441.86218"
       x2="292"
       y2="282.36218" />
    <linearGradient
       inkscape:collect="always"
       xlink:href="#linearGradient4843"
       id="linearGradient1844"
       gradientUnits="userSpaceOnUse"
       gradientTransform="matrix(1.3278264,0,0,0.27121936,31.740776,190.28662)"
       x1="247"
       y1="441.86218"
       x2="292"
       y2="282.36218" />
  </defs>
  <sodipodi:namedview
     id="base"
     pagecolor="#ffffff"
     bordercolor="#666666"
     borderopacity="1.0"
     inkscape:pageopacity="0.0"
     inkscape:pageshadow="2"
     inkscape:zoom="2"
     inkscape:cx="246.85298"
     inkscape:cy="116.72173"
     inkscape:document-units="mm"
     inkscape:current-layer="flowRoot815"
     showgrid="false"
     fit-margin-top="15"
     fit-margin-left="10"
     fit-margin-right="15"
     fit-margin-bottom="20"
     inkscape:snap-global="false"
     inkscape:window-width="1920"
     inkscape:window-height="1015"
     inkscape:window-x="0"
     inkscape:window-y="0"
     inkscape:window-maximized="1" />
  <metadata
     id="metadata5">
    <rdf:RDF>
      <cc:Work
         rdf:about="">
        <dc:format>image/svg+xml</dc:format>
        <dc:type
           rdf:resource="http://purl.org/dc/dcmitype/StillImage" />
        <dc:title />
      </cc:Work>
    </rdf:RDF>
  </metadata>
  <g
     inkscape:label="Layer 1"
     inkscape:groupmode="layer"
     id="layer1"
     transform="translate(-6.5679807,-47.129808)">
    <flowRoot
       xml:space="preserve"
       id="flowRoot825"
       style="font-style:normal;font-weight:normal;font-size:40px;line-height:1.25;font-family:sans-serif;letter-spacing:0px;word-spacing:0px;fill:#000000;fill-opacity:1;stroke:none"
       transform="scale(0.26458333)"><flowRegion
         id="flowRegion827"><rect
           id="rect829"
           width="288.57144"
           height="70"
           x="218.57143"
           y="229.66254" /></flowRegion><flowPara
         id="flowPara831" /></flowRoot>    <text
       xml:space="preserve"
       style="font-style:normal;font-weight:normal;font-size:10.58333302px;line-height:1.25;font-family:sans-serif;letter-spacing:0px;word-spacing:0px;fill:#000000;fill-opacity:1;stroke:none;stroke-width:0.26458332"
       x="66.374527"
       y="95.570282"
       id="text835"><tspan
         sodipodi:role="line"
         id="tspan833"
         x="66.374527"
         y="104.93405"
         style="stroke-width:0.26458332" /></text>
    <path
       sodipodi:type="star"
       style="opacity:1;fill:#ff00bf;fill-opacity:0.39215686;stroke:none;stroke-width:0.39687499;stroke-miterlimit:4;stroke-dasharray:none;stroke-opacity:1"
       id="path843"
       sodipodi:sides="5"
       sodipodi:cx="47.011433"
       sodipodi:cy="55.126831"
       sodipodi:r1="35.156872"
       sodipodi:r2="18.281572"
       sodipodi:arg1="0.96154555"
       sodipodi:arg2="1.5898641"
       inkscape:flatsided="false"
       inkscape:rounded="0.08"
       inkscape:randomized="9.7838404e-16"
       d="M 67.130065,83.958173 C 65.619307,85.012386 48.504744,73.440205 46.662865,73.40508 44.820985,73.369955 27.277662,84.281208 25.808197,83.170162 24.338731,82.059116 30.055838,62.206199 29.520071,60.443613 28.984305,58.681027 13.185902,45.368098 13.78848,43.627221 c 0.602577,-1.740877 21.250507,-2.438474 22.761265,-3.492687 1.510757,-1.054213 9.29013,-20.193309 11.13201,-20.158184 1.841879,0.03513 8.885894,19.456904 10.35536,20.56795 1.469466,1.111046 22.075786,2.595364 22.611552,4.357949 0.535767,1.762586 -15.758722,14.463502 -16.3613,16.204379 -0.602578,1.740878 4.353456,21.797332 2.842698,22.851545 z"
       inkscape:transform-center-x="1.6350275"
       inkscape:transform-center-y="1.862765"
       transform="matrix(0.50613098,-0.19123764,0.18156807,0.48053941,-5.7400083,66.222772)" />
    <path
       sodipodi:type="star"
       style="opacity:1;fill:#faff00;fill-opacity:0.39215686;stroke:none;stroke-width:0.39687499;stroke-miterlimit:4;stroke-dasharray:none;stroke-opacity:1"
       id="path843-5"
       sodipodi:sides="5"
       sodipodi:cx="47.011433"
       sodipodi:cy="55.126831"
       sodipodi:r1="35.156872"
       sodipodi:r2="18.281572"
       sodipodi:arg1="0.96154555"
       sodipodi:arg2="1.5898641"
       inkscape:flatsided="false"
       inkscape:rounded="0.08"
       inkscape:randomized="9.7838404e-16"
       d="M 67.130065,83.958173 C 65.619307,85.012386 48.504744,73.440205 46.662865,73.40508 44.820985,73.369955 27.277662,84.281208 25.808197,83.170162 24.338731,82.059116 30.055838,62.206199 29.520071,60.443613 28.984305,58.681027 13.185902,45.368098 13.78848,43.627221 c 0.602577,-1.740877 21.250507,-2.438474 22.761265,-3.492687 1.510757,-1.054213 9.29013,-20.193309 11.13201,-20.158184 1.841879,0.03513 8.885894,19.456904 10.35536,20.56795 1.469466,1.111046 22.075786,2.595364 22.611552,4.357949 0.535767,1.762586 -15.758722,14.463502 -16.3613,16.204379 -0.602578,1.740878 4.353456,21.797332 2.842698,22.851545 z"
       inkscape:transform-center-x="-0.3559619"
       inkscape:transform-center-y="1.2597916"
       transform="matrix(1.0710003,0.14889254,-0.14136406,1.0168471,68.525934,17.010301)" />
    <path
       sodipodi:type="star"
       style="opacity:1;fill:#12ffff;fill-opacity:0.39215686;stroke:none;stroke-width:0.39687499;stroke-miterlimit:4;stroke-dasharray:none;stroke-opacity:1"
       id="path843-9"
       sodipodi:sides="5"
       sodipodi:cx="47.011433"
       sodipodi:cy="55.126831"
       sodipodi:r1="35.156872"
       sodipodi:r2="18.281572"
       sodipodi:arg1="0.96154555"
       sodipodi:arg2="1.5898641"
       inkscape:flatsided="false"
       inkscape:rounded="0.08"
       inkscape:randomized="9.7838404e-16"
       d="M 67.130065,83.958173 C 65.619307,85.012386 48.504744,73.440205 46.662865,73.40508 44.820985,73.369955 27.277662,84.281208 25.808197,83.170162 24.338731,82.059116 30.055838,62.206199 29.520071,60.443613 28.984305,58.681027 13.185902,45.368098 13.78848,43.627221 c 0.602577,-1.740877 21.250507,-2.438474 22.761265,-3.492687 1.510757,-1.054213 9.29013,-20.193309 11.13201,-20.158184 1.841879,0.03513 8.885894,19.456904 10.35536,20.56795 1.469466,1.111046 22.075786,2.595364 22.611552,4.357949 0.535767,1.762586 -15.758722,14.463502 -16.3613,16.204379 -0.602578,1.740878 4.353456,21.797332 2.842698,22.851545 z"
       inkscape:transform-center-x="-1.2501055"
       inkscape:transform-center-y="0.95920189"
       transform="matrix(0.20273817,-0.25006272,0.23741877,0.19248711,35.82827,59.769131)" />
  </g>
  <g
     inkscape:groupmode="layer"
     id="layer2"
     inkscape:label="Layer 2"
     transform="translate(5,-0.41987991)">
    <g
       aria-label="Willkommen bei Mathe-Maister ~~~"
       transform="matrix(0.26458333,0,0,0.26458333,-11.567981,-46.709928)"
       style="font-style:normal;font-weight:normal;font-size:40px;line-height:1.25;font-family:sans-serif;letter-spacing:0px;word-spacing:0px;fill:#000000;fill-opacity:1;stroke:#ffffff;stroke-opacity:1;stroke-width:1.13385828;stroke-miterlimit:4;stroke-dasharray:none;paint-order:stroke fill markers"
       id="flowRoot815">
      <path
         sodipodi:type="star"
         style="display:inline;fill:url(#linearGradient1302-1);fill-opacity:1;stroke:#ffffff;stroke-width:15.98176479;stroke-miterlimit:4;stroke-dasharray:none;stroke-opacity:1;paint-order:normal"
         id="path1920-0"
         sodipodi:sides="5"
         sodipodi:cx="229"
         sodipodi:cy="456"
         sodipodi:r1="94"
         sodipodi:r2="52"
         sodipodi:arg1="0.80032243"
         sodipodi:arg2="1.428641"
         inkscape:flatsided="false"
         inkscape:rounded="0.21"
         inkscape:randomized="0"
         d="m 294.46869,523.45259 c -9.08043,8.81335 -45.57491,-17.76993 -58.10148,-15.97712 -12.52658,1.79282 -40.09949,37.54547 -51.28749,31.63294 -11.18801,-5.91252 2.81678,-48.83551 -2.75921,-60.19499 -5.57599,-11.35947 -48.09928,-26.53469 -45.93342,-39.00218 2.16586,-12.46749 47.31577,-12.41208 56.39619,-21.22544 9.08043,-8.81335 10.3725,-53.9448 22.89908,-55.73762 12.52657,-1.79281 26.42597,41.16443 37.61397,47.07695 11.188,5.91252 54.50984,-6.80503 60.08583,4.55445 5.57599,11.35947 -30.98363,37.85309 -33.14948,50.32059 -2.16586,12.46749 23.31643,49.73906 14.23601,58.55242 z"
         transform="matrix(0.52719313,-0.09976716,0.09976716,0.52719313,41.593474,93.040542)" />
      <path
         inkscape:connector-curvature="0"
         style="display:inline;opacity:1;fill:url(#linearGradient1776);fill-opacity:1;stroke:none;stroke-width:19.48215103;stroke-miterlimit:4;stroke-opacity:1"
         d="m 487.85905,302.47585 c -3.43696,-0.0728 -6.38244,1.12709 -8.83741,3.60026 -2.43678,2.47316 -3.65505,5.45548 -3.65505,8.94701 0,0.36917 0.0177,0.73117 0.0467,1.08897 3.39321,0.41037 6.69518,0.82026 9.90585,1.22938 h 12.49704 c 1.45479,0 2.1814,-0.76343 2.1814,-2.29097 v -0.0275 c 0.0177,-3.65519 -1.20015,-6.64672 -3.65505,-8.9744 -2.43677,-2.32768 -5.26481,-3.51831 -8.48356,-3.57286 z m 0.0548,4.85475 c 1.34569,0 2.56396,0.30054 3.65505,0.90064 1.27295,0.70922 2.21025,2.11862 2.81034,4.22809 h -11.94796 c 0.30914,-1.58212 0.86415,-2.73703 1.66429,-3.46443 1.23659,-1.10928 2.50896,-1.6643 3.81829,-1.6643 z"
         id="path1924-4-2-0-0" />
      <path
         inkscape:connector-curvature="0"
         style="display:inline;opacity:1;fill:url(#linearGradient1778);fill-opacity:1;stroke:none;stroke-width:19.48215103;stroke-miterlimit:4;stroke-opacity:1"
         d="m 517.78322,302.44845 c -2.7823,0 -4.70066,0.37194 -5.75539,1.11752 -0.54557,0.36371 -1.09138,0.97284 -1.6369,1.82753 -1.23657,-1.89125 -2.51817,-2.8366 -3.84569,-2.8366 h -0.13695 c -1.03653,0 -1.95542,0.38228 -2.75556,1.14606 -0.72739,0.72741 -1.09012,1.62784 -1.09012,2.70076 v 13.25498 c 2.67365,0.38032 5.23888,0.75813 7.71875,1.13349 v -7.624 h 0.0548 v -0.0548 c 0,-0.18185 0.0177,-0.38221 0.0548,-0.60041 0.21824,-0.96382 0.92753,-1.87233 2.12774,-2.72703 1.18202,-0.83651 2.60871,-1.11861 4.28174,-0.84585 1.00016,0.14551 1.62774,-0.59144 1.88232,-2.20992 l 0.54562,-2.53638 c 0.0908,-0.43645 -0.008,-0.84523 -0.3002,-1.22711 -0.2546,-0.34551 -0.63572,-0.51823 -1.14492,-0.51823 z"
         id="path1924-4-2-5" />
      <path
         inkscape:connector-curvature="0"
         style="display:inline;opacity:1;fill:url(#linearGradient1780);fill-opacity:1;stroke:none;stroke-width:19.48215103;stroke-miterlimit:4;stroke-opacity:1"
         d="m 362.62848,293.55511 c -1.87305,0 -3.45516,0.64598 -4.74633,1.93711 -1.2911,1.29114 -1.93596,2.87326 -1.93596,4.74631 v 4.4461 c 2.45246,0.18545 4.88475,0.37447 7.31924,0.5639 l -0.0638,-2.63685 0.76707,2.69165 c 2.44308,0.1906 4.87463,0.38204 7.29756,0.57645 l -2.17228,-7.55097 c -0.41823,-1.4366 -1.21852,-2.58231 -2.40055,-3.43701 -1.18203,-0.89107 -2.50967,-1.33669 -3.98265,-1.33669 z m 24.19503,0 c -1.49118,0 -2.8361,0.44562 -4.0363,1.33669 -1.18202,0.90924 -1.9823,2.07338 -2.40058,3.49181 l -2.3001,8.04979 c 2.32046,0.19101 4.62269,0.38348 6.92086,0.57759 l 1.24309,-4.39931 -0.10275,4.49748 c 2.48564,0.21083 4.98438,0.41935 7.44137,0.63353 v -7.50416 c 0,-1.87305 -0.6644,-3.45517 -1.99188,-4.74631 -1.29115,-1.29113 -2.85486,-1.93711 -4.69152,-1.93711 z"
         id="path1924-4-2-2-7" />
      <path
         inkscape:connector-curvature="0"
         style="display:inline;opacity:1;fill:url(#linearGradient1782);fill-opacity:1;stroke:none;stroke-width:19.48215103;stroke-miterlimit:4;stroke-opacity:1"
         d="m 408.53693,302.42106 c -3.30967,0 -6.12846,1.22748 -8.45616,3.68245 -0.62038,0.65429 -1.15561,1.34617 -1.61065,2.07408 2.26183,0.20072 4.52812,0.40178 6.76221,0.60499 0.40241,-0.57127 0.87548,-0.9854 1.42228,-1.23395 1.65482,-0.80012 3.31872,-0.88189 4.99172,-0.24542 1.42966,0.55398 2.31202,1.32876 2.65284,2.3218 2.65647,0.24984 5.29432,0.49953 7.90368,0.75224 v -4.27374 c 0,-0.80015 -0.28213,-1.50024 -0.84585,-2.10034 -0.58193,-0.52737 -1.26359,-0.79106 -2.04554,-0.79106 h -2.10035 c -0.80013,0 -1.46454,0.26369 -1.99189,0.79106 -0.60013,0.6001 -0.8995,1.30019 -0.8995,2.10034 -1.05474,-2.45497 -2.9823,-3.68245 -5.78279,-3.68245 z"
         id="path1924-4-2-1-4" />
      <path
         inkscape:connector-curvature="0"
         style="display:inline;opacity:1;fill:url(#linearGradient1784);fill-opacity:1;stroke:none;stroke-width:19.48215103;stroke-miterlimit:4;stroke-opacity:1"
         d="m 429.13168,292.71041 c -1.16384,0 -2.15528,0.40878 -2.97357,1.2271 -0.80014,0.81832 -1.20086,1.80054 -1.20086,2.94618 0,1.18204 0.40072,2.17345 1.20086,2.97358 0.81829,0.83652 1.80973,1.25449 2.97357,1.25449 1.14566,0 2.14514,-0.41797 2.99985,-1.25449 0.78199,-0.80013 1.18272,-1.79154 1.20084,-2.97358 -0.0177,-1.2002 -0.4189,-2.1824 -1.20084,-2.94618 -0.87287,-0.81832 -1.87236,-1.2271 -2.99985,-1.2271 z m 0.43605,10.63754 c -1.1093,0 -2.06386,0.4007 -2.864,1.20084 -0.80013,0.80015 -1.20082,1.76393 -1.20082,2.89141 v 3.26008 c 2.7436,0.26903 5.47037,0.53887 8.15593,0.81046 v -4.07054 c 0,-1.12748 -0.39957,-2.09126 -1.19971,-2.89141 -0.80013,-0.78203 -1.74551,-1.18273 -2.8366,-1.20084 z"
         id="path1924-4-2-12-2" />
      <path
         inkscape:connector-curvature="0"
         style="display:inline;opacity:1;fill:url(#linearGradient1786);fill-opacity:1;stroke:none;stroke-width:19.48215103;stroke-miterlimit:4;stroke-opacity:1"
         d="m 447.24372,301.95762 c -3.03687,0.0181 -5.45616,0.78162 -7.25646,2.29096 -1.7822,1.4548 -2.69994,3.37316 -2.75442,5.7554 -0.007,0.66852 0.0854,1.30104 0.27053,1.90058 4.68326,0.48074 9.27951,0.96361 13.76066,1.44969 -0.78598,-0.46904 -1.68658,-0.8871 -2.71103,-1.24993 -1.54573,-0.52735 -2.57283,-0.99141 -3.08204,-1.39147 -0.6001,-0.43646 -0.90061,-0.93619 -0.90061,-1.49992 0,-1.3275 0.97298,-1.97348 2.91879,-1.93711 0.83649,0.0365 1.75423,0.19065 2.75441,0.46344 0.7274,0.20002 1.41827,0.10096 2.07293,-0.29906 0.67293,-0.41825 1.07362,-0.97327 1.20086,-1.6643 v -0.0275 c 0.20013,-0.69103 0.0998,-1.35429 -0.30021,-1.99076 -0.3819,-0.61829 -0.90928,-1.019 -1.58212,-1.20085 -1.50935,-0.41832 -2.97284,-0.61755 -4.39129,-0.59928 z"
         id="path1924-4-2-9-0" />
      <path
         inkscape:connector-curvature="0"
         style="display:inline;opacity:1;fill:url(#linearGradient1304-4-5-0-8);fill-opacity:1;stroke:none;stroke-width:19.48215103;stroke-miterlimit:4;stroke-opacity:1"
         d="m 465.0829,296.93849 c -1.00015,-0.0185 -1.77281,0.19937 -2.31837,0.65407 -1.00015,0.74558 -1.49989,1.75541 -1.49989,3.02837 v 2.78181 h -0.98284 c -0.72737,0 -1.34574,0.2637 -1.85492,0.79106 -0.49097,0.49099 -0.73624,1.09091 -0.73624,1.80012 v 0.0548 c 0,0.76376 0.24527,1.37289 0.73624,1.82752 0.491,0.47282 1.10937,0.70886 1.85492,0.70886 h 0.98284 v 5.87753 c 2.2876,0.259 4.54244,0.51797 6.76446,0.77736 v -6.65489 h 2.29098 c 0.70918,0 1.29992,-0.23604 1.77272,-0.70885 0.50917,-0.45464 0.76367,-1.06377 0.76367,-1.82753 v -0.0548 c 0,-0.67285 -0.2545,-1.27275 -0.76367,-1.80012 -0.50916,-0.52737 -1.0999,-0.79107 -1.77272,-0.79107 h -2.29098 v -2.78181 c -0.0177,-0.85469 -0.29103,-1.61927 -0.81846,-2.29212 -0.7274,-0.92742 -1.39987,-1.39032 -2.01814,-1.39032 z"
         id="path1924-4-2-4-0" />
      <path
         inkscape:connector-curvature="0"
         id="path829"
         style="font-style:normal;font-variant:normal;font-weight:normal;font-stretch:normal;font-size:medium;line-height:1.25;font-family:Dyuthi;-inkscape-font-specification:Dyuthi;letter-spacing:0px;word-spacing:0px;display:inline;fill:url(#linearGradient1788);fill-opacity:1;stroke:#ffffff;stroke-width:4.28750944;stroke-linecap:round;stroke-linejoin:round;stroke-miterlimit:4;stroke-dasharray:none;stroke-opacity:1;paint-order:stroke markers fill"
         d="m 351.85408,314.12286 q 0,1.03654 -0.87287,1.82759 -0.81835,0.79104 -1.99128,0.79104 h -10.47452 q -1.17294,0 -2.01857,-0.79104 -0.84559,-0.79105 -0.84559,-1.82759 v -0.0546 q 0,-1.09108 0.84559,-1.88215 0.84563,-0.81831 2.01857,-0.76378 h 10.47452 q 1.17293,-0.0546 1.99128,0.76378 0.87287,0.79107 0.87287,1.88215 z" />
      <path
         inkscape:connector-curvature="0"
         id="path831"
         style="font-style:normal;font-variant:normal;font-weight:normal;font-stretch:normal;font-size:medium;line-height:1.25;font-family:Dyuthi;-inkscape-font-specification:Dyuthi;letter-spacing:0px;word-spacing:0px;display:inline;fill:url(#linearGradient1790);fill-opacity:1;stroke:#ffffff;stroke-width:4.28750944;stroke-linecap:round;stroke-linejoin:round;stroke-miterlimit:4;stroke-dasharray:none;stroke-opacity:1;paint-order:stroke markers fill"
         d="m 363.20151,302.61176 5.97377,20.94911 q 0.51827,1.8003 2.04582,3.00052 1.55482,1.17294 3.43697,1.17294 h 0.10912 q 1.82759,0 3.49151,-1.17294 1.55483,-1.14565 2.0731,-3.00052 l 5.91921,-20.94911 -0.49099,21.54919 q -0.0272,1.47301 1.06381,2.53682 1.06383,1.03656 2.56409,1.03656 h 0.0546 q 1.90941,0 3.05507,-1.09112 1.09109,-1.03654 1.09109,-2.48226 v -23.92233 q 0,-2.80958 -1.99125,-4.7463 -1.93668,-1.93669 -4.69172,-1.93669 h -0.082 q -2.23675,0 -4.03707,1.3366 -1.77304,1.36387 -2.40044,3.49153 l -5.61914,19.66704 -5.67372,-19.72161 q -0.62738,-2.15492 -2.40042,-3.43696 -1.77304,-1.3366 -3.98252,-1.3366 h -0.0817 q -2.80959,0 -4.7463,1.93669 -1.9367,1.93672 -1.9367,4.7463 v 23.92233 q 0,1.39117 1.09108,2.48226 1.09111,1.09112 2.48226,1.09112 h 0.60012 q 1.52753,0 2.59135,-1.09112 1.03656,-1.00925 1.00928,-2.48226 z" />
      <path
         inkscape:connector-curvature="0"
         id="path833"
         style="font-style:normal;font-variant:normal;font-weight:normal;font-stretch:normal;font-size:medium;line-height:1.25;font-family:Dyuthi;-inkscape-font-specification:Dyuthi;letter-spacing:0px;word-spacing:0px;display:inline;fill:url(#linearGradient1792);fill-opacity:1;stroke:#ffffff;stroke-width:4.28750944;stroke-linecap:round;stroke-linejoin:round;stroke-miterlimit:4;stroke-dasharray:none;stroke-opacity:1;paint-order:stroke markers fill"
         d="m 404.06318,314.50474 q 0,-3.32784 0.65465,-4.82813 0.7365,-1.58208 1.93672,-2.12763 2.48225,-1.20019 4.99178,-0.24549 2.18219,0.84559 2.67319,2.37312 v 9.21982 q 0,3.02778 -2.59138,3.92793 -1.28203,0.40917 -2.53678,0.2455 -2.12765,0.0546 -3.62793,-1.93669 -1.50025,-1.99127 -1.50025,-4.82811 z m -3.9825,9.41072 q 3.4915,3.68247 8.456,3.68247 1.41843,0 4.09162,-1.74576 0.65468,-0.43643 1.39115,-0.32733 0.76378,0.0817 1.30934,0.68194 1.28203,1.39115 1.99126,1.39115 h 3.27327 q 0.65467,0 1.14566,-0.491 0.46373,-0.40916 0.46373,-1.0911 v -19.91255 q 0,-1.20022 -0.8456,-2.10037 -0.87288,-0.79103 -2.04582,-0.79103 h -2.10037 q -1.2002,0 -1.99125,0.79103 -0.90015,0.90015 -0.90015,2.10037 v 0 q -1.5821,-3.68246 -5.78284,-3.68246 -4.9645,0 -8.456,3.68246 -3.49153,3.68247 -3.49153,8.91974 0,5.21 3.49153,8.89244 z" />
      <path
         inkscape:connector-curvature="0"
         id="path835"
         style="font-style:normal;font-variant:normal;font-weight:normal;font-stretch:normal;font-size:medium;line-height:1.25;font-family:Dyuthi;-inkscape-font-specification:Dyuthi;letter-spacing:0px;word-spacing:0px;display:inline;fill:url(#linearGradient1794);fill-opacity:1;stroke:#ffffff;stroke-width:4.28750944;stroke-linecap:round;stroke-linejoin:round;stroke-miterlimit:4;stroke-dasharray:none;stroke-opacity:1;paint-order:stroke markers fill"
         d="m 429.56766,327.59793 q -1.69122,0 -2.89143,-1.17293 -1.17294,-1.2002 -1.17294,-2.89141 v -16.09372 q 0,-1.6912 1.20022,-2.8914 1.2002,-1.20022 2.86415,-1.20022 h 0.0544 q 1.63665,0.0272 2.83688,1.20022 1.2002,1.2002 1.2002,2.8914 v 16.09372 q 0,1.69121 -1.2002,2.89141 -1.17294,1.17293 -2.83688,1.17293 z m 2.56406,-27.7412 q -1.28204,1.25477 -3.00053,1.25477 -1.74575,0 -2.97322,-1.25477 -1.20022,-1.2002 -1.20022,-2.97325 0,-1.71847 1.20022,-2.94597 1.22747,-1.22747 2.97322,-1.22747 1.69121,0 3.00053,1.22747 1.17294,1.14565 1.20022,2.94597 -0.0273,1.77305 -1.20022,2.97325 z" />
      <path
         inkscape:connector-curvature="0"
         id="path837"
         style="font-style:normal;font-variant:normal;font-weight:normal;font-stretch:normal;font-size:medium;line-height:1.25;font-family:Dyuthi;-inkscape-font-specification:Dyuthi;letter-spacing:0px;word-spacing:0px;display:inline;fill:url(#linearGradient1796);fill-opacity:1;stroke:#ffffff;stroke-width:4.28750944;stroke-linecap:round;stroke-linejoin:round;stroke-miterlimit:4;stroke-dasharray:none;stroke-opacity:1;paint-order:stroke markers fill"
         d="m 437.20534,323.53359 q 0.2455,-1.03655 1.3366,-1.6912 0.98197,-0.60012 2.12763,-0.21824 2.20948,0.70919 3.90068,0.65466 3.27331,-0.0546 3.27331,-2.04582 0,-0.90016 -0.7365,-1.52754 -0.65465,-0.51827 -2.83685,-1.28204 -7.09216,-2.42768 -7.03758,-7.41947 0.0817,-3.57337 2.755,-5.75556 2.70049,-2.26402 7.25581,-2.29131 2.12765,-0.0274 4.39167,0.60011 1.00929,0.27277 1.5821,1.2002 0.60013,0.95473 0.30006,1.99126 v 0.0272 q -0.19085,1.03655 -1.20022,1.66393 -0.98199,0.6001 -2.0731,0.30006 -1.50024,-0.40917 -2.75502,-0.46371 -2.91868,-0.0546 -2.91868,1.93668 0,0.8456 0.90015,1.50028 0.76377,0.6001 3.08237,1.39113 6.54659,2.31859 6.60115,7.52858 0.0546,3.57338 -2.61865,5.78284 -2.70046,2.23674 -7.96502,2.23674 -2.75503,0 -5.48279,-0.73649 -0.95468,-0.27277 -1.58208,-1.30931 -0.6001,-0.95471 -0.30004,-1.99126 z" />
      <path
         inkscape:connector-curvature="0"
         id="path841"
         style="font-style:normal;font-variant:normal;font-weight:normal;font-stretch:normal;font-size:medium;line-height:1.25;font-family:Dyuthi;-inkscape-font-specification:Dyuthi;letter-spacing:0px;word-spacing:0px;display:inline;fill:url(#linearGradient1798);fill-opacity:1;stroke:#ffffff;stroke-width:4.28750944;stroke-linecap:round;stroke-linejoin:round;stroke-miterlimit:4;stroke-dasharray:none;stroke-opacity:1;paint-order:stroke markers fill"
         d="m 487.91418,307.33075 q 2.01853,0 3.65517,0.90015 1.90943,1.06384 2.80959,4.22803 h -11.94753 q 0.46372,-2.37315 1.66392,-3.46423 1.85485,-1.66395 3.81885,-1.66395 z m -0.0544,-4.85538 q -5.15546,-0.10913 -8.83791,3.60063 -3.65517,3.70975 -3.65517,8.94702 0,5.23728 3.8734,8.947 3.73699,3.57337 7.82862,3.57337 5.701,0.0272 8.94702,-1.74578 2.23675,-1.22747 2.50954,-2.45497 l 0.0545,-0.0272 q 0.3546,-1.47297 -0.51828,-2.72775 -1.11838,-1.52753 -2.94596,-0.70921 l -2.8096,1.25477 q -5.04634,2.23676 -8.07412,-0.51827 -0.81834,-0.79105 -1.60937,-3.27331 h 15.19356 q 2.18218,0 2.18218,-2.29131 v -0.0272 q 0.0272,-5.48279 -3.65519,-8.97431 -3.65515,-3.49153 -8.48327,-3.57334 z" />
      <path
         inkscape:connector-curvature="0"
         id="path843-6"
         style="font-style:normal;font-variant:normal;font-weight:normal;font-stretch:normal;font-size:medium;line-height:1.25;font-family:Dyuthi;-inkscape-font-specification:Dyuthi;letter-spacing:0px;word-spacing:0px;display:inline;fill:url(#linearGradient1800);fill-opacity:1;stroke:#ffffff;stroke-width:4.28750944;stroke-linecap:round;stroke-linejoin:round;stroke-miterlimit:4;stroke-dasharray:none;stroke-opacity:1;paint-order:stroke markers fill"
         d="m 517.78302,302.4481 q -4.17345,0 -5.75554,1.11837 -0.81833,0.54556 -1.63664,1.82759 -1.85489,-2.83686 -3.84613,-2.83686 h -0.13653 q -1.5548,0 -2.755,1.14564 -1.0911,1.09112 -1.0911,2.70051 v 17.32117 q 0,1.60937 1.0911,2.70048 1.0911,1.11839 2.70048,1.11839 h 0.0817 q 1.60937,0 2.70047,-1.11839 1.14564,-1.17292 1.14564,-2.70048 v -10.55637 q 0,0 0.0544,0 0,0 0,-0.0546 0,-0.27278 0.0546,-0.6001 0.32735,-1.44571 2.12766,-2.72774 1.77303,-1.25478 4.28256,-0.84561 1.50025,0.21823 1.88213,-2.20948 l 0.54556,-2.53681 q 0.13629,-0.65466 -0.30006,-1.22747 -0.38187,-0.51827 -1.14565,-0.51827 z" />
      <path
         inkscape:connector-curvature="0"
         id="path839"
         style="font-style:normal;font-variant:normal;font-weight:normal;font-stretch:normal;font-size:medium;line-height:1.25;font-family:Dyuthi;-inkscape-font-specification:Dyuthi;letter-spacing:0px;word-spacing:0px;display:inline;fill:url(#linearGradient1802);fill-opacity:1;stroke:#ffffff;stroke-width:4.28750944;stroke-linecap:round;stroke-linejoin:round;stroke-miterlimit:4;stroke-dasharray:none;stroke-opacity:1;paint-order:stroke markers fill"
         d="m 470.3202,321.13317 q -2.3186,-1.20021 -2.29132,-5.37367 v -7.17397 h 2.29132 q 1.0638,0 1.77304,-0.70922 0.76377,-0.68193 0.76377,-1.82759 v -0.0546 q 0,-1.00925 -0.76377,-1.80031 -0.76377,-0.79105 -1.77304,-0.79105 h -2.29132 v -2.7823 q -0.0272,-1.28203 -0.81831,-2.29131 -1.09108,-1.39116 -2.01853,-1.39116 h -0.10912 q -1.50025,-0.0274 -2.3186,0.65466 -1.50024,1.11838 -1.50024,3.02781 v 2.7823 h -0.98201 q -1.09108,0 -1.85486,0.79105 -0.73648,0.73649 -0.73648,1.80031 v 0.0546 q 0,1.14566 0.73648,1.82759 0.73649,0.70922 1.85486,0.70922 h 0.98201 v 6.68299 0 q 0,5.10089 1.6912,8.45601 1.99127,3.90067 5.26455,3.8734 2.01853,0.0272 2.94596,-2.78228 0.38191,-1.20023 0.2455,-2.10039 -0.19085,-1.06383 -1.09109,-1.58209 z" />
      <path
         inkscape:connector-curvature="0"
         style="display:inline;opacity:1;fill:url(#linearGradient1304-4-3);fill-opacity:1;stroke:none;stroke-width:19.48215103;stroke-miterlimit:4;stroke-opacity:1"
         d="m 188.62091,266.86822 c -2.25232,7.58916 -0.54972,23.30243 -3.62194,27.66743 -0.48954,0.69552 -1.29151,1.37372 -2.31952,2.04213 18.84951,0.20544 38.56595,0.71798 58.69428,1.4885 4.34192,-6.99652 9.21149,-14.50318 6.79414,-17.72733 -4.07292,-5.43235 -25.64368,5.59424 -32.13178,3.59339 -4.33682,-1.3374 -10.96163,-11.27344 -16.79819,-17.06412 z"
         id="path1924-4-4" />
      <path
         inkscape:connector-curvature="0"
         id="path819"
         style="font-style:normal;font-variant:normal;font-weight:normal;font-stretch:normal;font-size:medium;line-height:1.25;font-family:Dyuthi;-inkscape-font-specification:Dyuthi;letter-spacing:0px;word-spacing:0px;display:inline;fill:url(#linearGradient1804);fill-opacity:1;stroke:#ffffff;stroke-width:4.28750944;stroke-linecap:round;stroke-linejoin:round;stroke-miterlimit:4;stroke-dasharray:none;stroke-opacity:1;paint-order:stroke markers fill"
         d="m 199.64573,302.61176 5.97376,20.94911 q 0.51828,1.8003 2.04581,3.00052 1.55482,1.17294 3.43697,1.17294 h 0.10912 q 1.82759,0 3.49152,-1.17294 1.55482,-1.14565 2.07309,-3.00052 l 5.91921,-20.94911 -0.491,21.54919 q -0.0274,1.47301 1.06383,2.53682 1.06382,1.03656 2.56408,1.03656 h 0.0546 q 1.90942,0 3.05507,-1.09112 1.0911,-1.03654 1.0911,-2.48226 v -23.92233 q 0,-2.80958 -1.99126,-4.7463 -1.9367,-1.93669 -4.69172,-1.93669 h -0.0818 q -2.23676,0 -4.03708,1.3366 -1.77303,1.36387 -2.4004,3.49153 l -5.61919,19.66704 -5.67373,-19.72161 q -0.62738,-2.15492 -2.40041,-3.43696 -1.77304,-1.3366 -3.98251,-1.3366 h -0.0819 q -2.80958,0 -4.74628,1.93669 -1.93671,1.93672 -1.93671,4.7463 v 23.92233 q 0,1.39117 1.09111,2.48226 1.09111,1.09112 2.48226,1.09112 h 0.6001 q 1.52753,0 2.59137,-1.09112 1.03653,-1.00925 1.00925,-2.48226 z" />
      <path
         inkscape:connector-curvature="0"
         id="path823"
         style="font-style:normal;font-variant:normal;font-weight:normal;font-stretch:normal;font-size:medium;line-height:1.25;font-family:Dyuthi;-inkscape-font-specification:Dyuthi;letter-spacing:0px;word-spacing:0px;display:inline;fill:url(#linearGradient1806);fill-opacity:1;stroke:#ffffff;stroke-width:4.28750944;stroke-linecap:round;stroke-linejoin:round;stroke-miterlimit:4;stroke-dasharray:none;stroke-opacity:1;paint-order:stroke markers fill"
         d="m 274.03142,321.13317 q -2.31858,-1.20021 -2.29131,-5.37367 v -7.17397 h 2.29131 q 1.06382,0 1.77303,-0.70922 0.76379,-0.68193 0.76379,-1.82759 v -0.0546 q 0,-1.00925 -0.76379,-1.80031 -0.76376,-0.79105 -1.77303,-0.79105 h -2.29131 v -2.7823 q -0.0273,-1.28203 -0.81832,-2.29131 -1.0911,-1.39116 -2.01853,-1.39116 h -0.10912 q -1.50027,-0.0274 -2.31859,0.65466 -1.50026,1.11838 -1.50026,3.02781 v 2.7823 h -0.98199 q -1.09109,0 -1.85486,0.79105 -0.7365,0.73649 -0.7365,1.80031 v 0.0546 q 0,1.14566 0.7365,1.82759 0.73649,0.70922 1.85486,0.70922 h 0.98199 v 6.68299 0 q 0,5.10089 1.6912,8.45601 1.99125,3.90067 5.26455,3.8734 2.01854,0.0272 2.94598,-2.78228 0.38188,-1.20023 0.24549,-2.10039 -0.19094,-1.06383 -1.09109,-1.58209 z" />
      <path
         inkscape:connector-curvature="0"
         id="path825"
         style="font-style:normal;font-variant:normal;font-weight:normal;font-stretch:normal;font-size:medium;line-height:1.25;font-family:Dyuthi;-inkscape-font-specification:Dyuthi;letter-spacing:0px;word-spacing:0px;display:inline;fill:url(#linearGradient1808);fill-opacity:1;stroke:#ffffff;stroke-width:4.28750944;stroke-linecap:round;stroke-linejoin:round;stroke-miterlimit:4;stroke-dasharray:none;stroke-opacity:1;paint-order:stroke markers fill"
         d="m 305.34598,315.13212 q 0,-5.8101 -2.89143,-9.49257 -2.86413,-3.70974 -9.05611,-3.05508 -2.72776,0.30006 -5.78283,3.00053 l -0.0817,-9.65622 q 0,-1.60937 -1.09108,-2.70048 -1.14566,-1.0911 -2.75503,-1.0911 h -0.0545 q -1.58209,0 -2.78231,1.0911 -1.0911,1.14565 -1.0911,2.75502 v 27.95942 q 0,1.63666 1.0911,2.75503 1.0911,1.0911 2.75504,1.0911 h 0.0274 q 1.60938,0 2.75503,-1.0911 1.14566,-1.11837 1.14566,-2.75503 v -11.53836 q 0,0 0,-0.0546 0,-0.40916 0.0817,-0.6001 0.30004,-1.69122 2.59135,-3.08235 2.64593,-1.58209 5.12817,-0.40919 2.34585,1.14566 2.34585,5.34641 v 10.39271 q 0,1.5821 1.09112,2.70047 1.09108,1.0911 2.70047,1.0911 h 0.0819 q 1.60934,0 2.70046,-1.0911 1.14565,-1.11837 1.14565,-2.70047 z" />
      <path
         inkscape:connector-curvature="0"
         id="path827"
         style="font-style:normal;font-variant:normal;font-weight:normal;font-stretch:normal;font-size:medium;line-height:1.25;font-family:Dyuthi;-inkscape-font-specification:Dyuthi;letter-spacing:0px;word-spacing:0px;display:inline;fill:url(#linearGradient1810);fill-opacity:1;stroke:#ffffff;stroke-width:4.28750944;stroke-linecap:round;stroke-linejoin:round;stroke-miterlimit:4;stroke-dasharray:none;stroke-opacity:1;paint-order:stroke markers fill"
         d="m 320.64862,307.33075 q 2.01854,0 3.65519,0.90015 1.90944,1.06384 2.8096,4.22803 h -11.94756 q 0.46373,-2.37315 1.66395,-3.46423 1.85486,-1.66395 3.81882,-1.66395 z m -0.0546,-4.85538 q -5.15545,-0.10913 -8.8379,3.60063 -3.6552,3.70975 -3.6552,8.94702 0,5.23728 3.87341,8.947 3.73703,3.57337 7.82864,3.57337 5.701,0.0272 8.947,-1.74578 2.23676,-1.22747 2.50953,-2.45497 l 0.0546,-0.0272 q 0.35462,-1.47297 -0.51825,-2.72775 -1.1184,-1.52753 -2.94598,-0.70921 l -2.80958,1.25477 q -5.04634,2.23676 -8.07416,-0.51827 -0.81831,-0.79105 -1.60936,-3.27331 h 15.19358 q 2.18218,0 2.18218,-2.29131 v -0.0272 q 0.0272,-5.48279 -3.65518,-8.97431 -3.65519,-3.49153 -8.4833,-3.57334 z" />
      <path
         inkscape:connector-curvature="0"
         id="path821"
         style="font-style:normal;font-variant:normal;font-weight:normal;font-stretch:normal;font-size:medium;line-height:1.25;font-family:Dyuthi;-inkscape-font-specification:Dyuthi;letter-spacing:0px;word-spacing:0px;display:inline;fill:url(#linearGradient3014);fill-opacity:1;stroke:#ffffff;stroke-width:4.28750944;stroke-linecap:round;stroke-linejoin:round;stroke-miterlimit:4;stroke-dasharray:none;stroke-opacity:1;paint-order:stroke markers fill"
         d="m 240.5074,314.50474 q 0,-3.32784 0.65466,-4.82813 0.73649,-1.58208 1.9367,-2.12763 2.48224,-1.20019 4.99177,-0.24549 2.18221,0.84559 2.6732,2.37312 v 9.21982 q 0,3.02778 -2.59136,3.92793 -1.28203,0.40917 -2.5368,0.2455 -2.12766,0.0546 -3.62791,-1.93669 -1.50026,-1.99127 -1.50026,-4.82811 z m -3.98251,9.41072 q 3.49151,3.68247 8.45602,3.68247 1.41842,0 4.09162,-1.74576 0.65466,-0.43643 1.39115,-0.32733 0.76376,0.0817 1.30932,0.68194 1.28204,1.39115 1.99125,1.39115 h 3.2733 q 0.65466,0 1.14566,-0.491 0.46371,-0.40916 0.46371,-1.0911 v -19.91255 q 0,-1.20022 -0.84561,-2.10037 -0.87287,-0.79103 -2.0458,-0.79103 h -2.10036 q -1.20022,0 -1.99126,0.79103 -0.90016,0.90015 -0.90016,2.10037 v 0 q -1.58209,-3.68246 -5.78282,-3.68246 -4.96451,0 -8.45602,3.68246 -3.49153,3.68247 -3.49153,8.91974 0,5.21 3.49153,8.89244 z" />
      <path
         inkscape:connector-curvature="0"
         id="path829-6"
         style="font-style:normal;font-variant:normal;font-weight:normal;font-stretch:normal;font-size:medium;line-height:1.25;font-family:Dyuthi;-inkscape-font-specification:Dyuthi;letter-spacing:0px;word-spacing:0px;display:inline;fill:url(#linearGradient1812);fill-opacity:1;stroke:none;stroke-width:4.28750944;stroke-linecap:round;stroke-linejoin:round;stroke-miterlimit:4;stroke-dasharray:none;stroke-opacity:1;paint-order:stroke markers fill"
         d="m 351.85408,314.12286 q 0,1.03654 -0.87287,1.82759 -0.81835,0.79103 -1.99128,0.79103 H 338.5154 q -1.17294,0 -2.01856,-0.79103 -0.84559,-0.79105 -0.84559,-1.82759 v -0.0546 q 0,-1.09108 0.84559,-1.88215 0.84562,-0.81832 2.01856,-0.76378 h 10.47453 q 1.17293,-0.0544 1.99128,0.76378 0.87287,0.79107 0.87287,1.88215 z" />
      <path
         inkscape:connector-curvature="0"
         id="path831-0"
         style="font-style:normal;font-variant:normal;font-weight:normal;font-stretch:normal;font-size:medium;line-height:1.25;font-family:Dyuthi;-inkscape-font-specification:Dyuthi;letter-spacing:0px;word-spacing:0px;display:inline;fill:url(#linearGradient1814);fill-opacity:1;stroke:none;stroke-width:4.28750944;stroke-linecap:round;stroke-linejoin:round;stroke-miterlimit:4;stroke-dasharray:none;stroke-opacity:1;paint-order:stroke markers fill"
         d="m 363.20151,302.61175 5.97377,20.94911 q 0.51827,1.8003 2.04581,3.00052 1.55483,1.17294 3.43696,1.17294 h 0.10913 q 1.82758,0 3.49152,-1.17294 1.55481,-1.14564 2.07309,-3.00052 l 5.91921,-20.94911 -0.491,21.5492 q -0.0272,1.473 1.06382,2.53682 1.06383,1.03655 2.56409,1.03655 h 0.0545 q 1.90941,0 3.05506,-1.09112 1.09109,-1.03653 1.09109,-2.48225 v -23.92234 q 0,-2.80958 -1.99124,-4.74629 -1.93669,-1.93669 -4.69172,-1.93669 h -0.082 q -2.23676,0 -4.03706,1.33659 -1.77303,1.36387 -2.40043,3.49154 l -5.61913,19.66704 -5.67374,-19.72162 q -0.62736,-2.15491 -2.4004,-3.43696 -1.77306,-1.33659 -3.98253,-1.33659 h -0.0817 q -2.80958,0 -4.74629,1.93669 -1.93669,1.93671 -1.93669,4.74629 v 23.92234 q 0,1.39117 1.0911,2.48225 1.09109,1.09112 2.48224,1.09112 h 0.60012 q 1.52754,0 2.59135,-1.09112 1.03656,-1.00925 1.00928,-2.48225 z" />
      <path
         inkscape:connector-curvature="0"
         id="path833-6"
         style="font-style:normal;font-variant:normal;font-weight:normal;font-stretch:normal;font-size:medium;line-height:1.25;font-family:Dyuthi;-inkscape-font-specification:Dyuthi;letter-spacing:0px;word-spacing:0px;display:inline;fill:url(#linearGradient1816);fill-opacity:1;stroke:none;stroke-width:4.28750944;stroke-linecap:round;stroke-linejoin:round;stroke-miterlimit:4;stroke-dasharray:none;stroke-opacity:1;paint-order:stroke markers fill"
         d="m 404.06317,314.50474 q 0,-3.32785 0.65466,-4.82813 0.73649,-1.58209 1.93671,-2.12765 2.48225,-1.20018 4.99178,-0.24547 2.18221,0.84559 2.67321,2.37312 v 9.21981 q 0,3.02778 -2.59137,3.92793 -1.28205,0.40917 -2.53681,0.24551 -2.12764,0.0546 -3.62793,-1.93669 -1.50025,-1.99127 -1.50025,-4.82812 z m -3.98251,9.41071 q 3.49151,3.68247 8.45602,3.68247 1.41843,0 4.09163,-1.74575 0.65468,-0.43643 1.39115,-0.32733 0.76379,0.0817 1.30934,0.68193 1.28203,1.39115 1.99127,1.39115 h 3.27327 q 0.65466,0 1.14565,-0.491 0.46373,-0.40915 0.46373,-1.0911 v -19.91254 q 0,-1.20023 -0.84561,-2.10038 -0.87287,-0.79103 -2.0458,-0.79103 h -2.10038 q -1.20018,0 -1.99125,0.79103 -0.90015,0.90015 -0.90015,2.10038 v 0 q -1.5821,-3.68246 -5.78285,-3.68246 -4.96451,0 -8.45602,3.68246 -3.49152,3.68246 -3.49152,8.91974 0,5.21 3.49152,8.89243 z" />
      <path
         inkscape:connector-curvature="0"
         id="path835-2"
         style="font-style:normal;font-variant:normal;font-weight:normal;font-stretch:normal;font-size:medium;line-height:1.25;font-family:Dyuthi;-inkscape-font-specification:Dyuthi;letter-spacing:0px;word-spacing:0px;display:inline;fill:url(#linearGradient1102);fill-opacity:1;stroke:none;stroke-width:4.28750944;stroke-linecap:round;stroke-linejoin:round;stroke-miterlimit:4;stroke-dasharray:none;stroke-opacity:1;paint-order:stroke markers fill"
         d="m 429.56764,327.59792 q -1.69118,0 -2.8914,-1.17293 -1.17293,-1.2002 -1.17293,-2.8914 v -16.09373 q 0,-1.6912 1.20021,-2.8914 1.20021,-1.20022 2.86412,-1.20022 h 0.0546 q 1.63666,0.0272 2.83686,1.20022 1.20024,1.2002 1.20024,2.8914 v 16.09373 q 0,1.6912 -1.20024,2.8914 -1.17292,1.17293 -2.83686,1.17293 z m 2.56407,-27.74119 q -1.28204,1.25477 -3.00051,1.25477 -1.74575,0 -2.97323,-1.25477 -1.2002,-1.2002 -1.2002,-2.97326 0,-1.71848 1.2002,-2.94596 1.22748,-1.22747 2.97323,-1.22747 1.69121,0 3.00051,1.22747 1.17296,1.14564 1.20024,2.94596 -0.0272,1.77306 -1.20024,2.97326 z" />
      <path
         inkscape:connector-curvature="0"
         id="path837-6"
         style="font-style:normal;font-variant:normal;font-weight:normal;font-stretch:normal;font-size:medium;line-height:1.25;font-family:Dyuthi;-inkscape-font-specification:Dyuthi;letter-spacing:0px;word-spacing:0px;display:inline;fill:url(#linearGradient1818);fill-opacity:1;stroke:none;stroke-width:4.28750944;stroke-linecap:round;stroke-linejoin:round;stroke-miterlimit:4;stroke-dasharray:none;stroke-opacity:1;paint-order:stroke markers fill"
         d="m 437.20535,323.53359 q 0.2455,-1.03655 1.3366,-1.6912 0.98197,-0.60012 2.12763,-0.21824 2.20949,0.70918 3.90068,0.65466 3.27331,-0.0546 3.27331,-2.04583 0,-0.90015 -0.7365,-1.52754 -0.65466,-0.51826 -2.83684,-1.28204 -7.09215,-2.42769 -7.03759,-7.41947 0.0817,-3.57336 2.755,-5.75555 2.70049,-2.26403 7.25581,-2.29131 2.12765,-0.0274 4.39167,0.60009 1.00929,0.27278 1.58211,1.20022 0.60012,0.95472 0.30005,1.99125 v 0.0272 q -0.19085,1.03656 -1.20021,1.66394 -0.982,0.60009 -2.0731,0.30005 -1.50025,-0.40918 -2.75502,-0.46371 -2.91869,-0.0546 -2.91869,1.93668 0,0.8456 0.90016,1.50029 0.76376,0.60009 3.08236,1.39113 6.5466,2.31859 6.60115,7.52858 0.0546,3.57337 -2.61865,5.78283 -2.70046,2.23675 -7.96502,2.23675 -2.75502,0 -5.48278,-0.73649 -0.95469,-0.27278 -1.58209,-1.30932 -0.6001,-0.95471 -0.30004,-1.99125 z" />
      <path
         inkscape:connector-curvature="0"
         id="path841-1"
         style="font-style:normal;font-variant:normal;font-weight:normal;font-stretch:normal;font-size:medium;line-height:1.25;font-family:Dyuthi;-inkscape-font-specification:Dyuthi;letter-spacing:0px;word-spacing:0px;display:inline;fill:url(#linearGradient1820);fill-opacity:1;stroke:none;stroke-width:4.28750944;stroke-linecap:round;stroke-linejoin:round;stroke-miterlimit:4;stroke-dasharray:none;stroke-opacity:1;paint-order:stroke markers fill"
         d="m 487.9142,307.33074 q 2.01853,0 3.65516,0.90016 1.90943,1.06384 2.8096,4.22802 h -11.94755 q 0.46373,-2.37314 1.66393,-3.46423 1.85486,-1.66395 3.81886,-1.66395 z m -0.0546,-4.85537 q -5.15544,-0.10913 -8.83789,3.60062 -3.65518,3.70975 -3.65518,8.94703 0,5.23727 3.87341,8.94699 3.737,3.57338 7.82861,3.57338 5.701,0.0272 8.94703,-1.74578 2.23676,-1.22748 2.50953,-2.45498 l 0.0544,-0.0272 q 0.35461,-1.47297 -0.51827,-2.72775 -1.11837,-1.52753 -2.94596,-0.70921 l -2.80961,1.25477 q -5.04632,2.23675 -8.07411,-0.51827 -0.81833,-0.79106 -1.60938,-3.27332 h 15.19348 q 2.18218,0 2.18218,-2.2913 v -0.0272 q 0.0272,-5.48278 -3.65518,-8.9743 -3.65516,-3.49153 -8.48328,-3.57334 z" />
      <path
         inkscape:connector-curvature="0"
         id="path843-8"
         style="font-style:normal;font-variant:normal;font-weight:normal;font-stretch:normal;font-size:medium;line-height:1.25;font-family:Dyuthi;-inkscape-font-specification:Dyuthi;letter-spacing:0px;word-spacing:0px;display:inline;fill:url(#linearGradient1822);fill-opacity:1;stroke:none;stroke-width:4.28750944;stroke-linecap:round;stroke-linejoin:round;stroke-miterlimit:4;stroke-dasharray:none;stroke-opacity:1;paint-order:stroke markers fill"
         d="m 517.78303,302.44809 q -4.17344,0 -5.75554,1.11838 -0.81833,0.54556 -1.63665,1.82759 -1.85487,-2.83687 -3.84612,-2.83687 h -0.13651 q -1.55482,0 -2.75501,1.14565 -1.09111,1.09111 -1.09111,2.7005 v 17.32118 q 0,1.60937 1.09111,2.70047 1.09109,1.1184 2.70047,1.1184 h 0.0817 q 1.60937,0 2.70047,-1.1184 1.14564,-1.17292 1.14564,-2.70047 v -10.55638 q 0,0 0.0546,0 0,0 0,-0.0546 0,-0.27279 0.0546,-0.6001 0.32733,-1.44571 2.12765,-2.72774 1.77303,-1.25478 4.28255,-0.84563 1.50026,0.21824 1.88214,-2.20946 l 0.54556,-2.53681 q 0.13628,-0.65466 -0.30005,-1.22748 -0.38189,-0.51827 -1.14567,-0.51827 z" />
      <path
         inkscape:connector-curvature="0"
         id="path839-7"
         style="font-style:normal;font-variant:normal;font-weight:normal;font-stretch:normal;font-size:medium;line-height:1.25;font-family:Dyuthi;-inkscape-font-specification:Dyuthi;letter-spacing:0px;word-spacing:0px;display:inline;fill:url(#linearGradient1824);fill-opacity:1;stroke:none;stroke-width:4.28750944;stroke-linecap:round;stroke-linejoin:round;stroke-miterlimit:4;stroke-dasharray:none;stroke-opacity:1;paint-order:stroke markers fill"
         d="m 470.32021,321.13317 q -2.3186,-1.20022 -2.2913,-5.37368 v -7.17396 h 2.2913 q 1.06381,0 1.77304,-0.70922 0.76377,-0.68194 0.76377,-1.8276 v -0.0546 q 0,-1.00924 -0.76377,-1.80031 -0.76376,-0.79104 -1.77304,-0.79104 h -2.2913 v -2.7823 q -0.0272,-1.28204 -0.81832,-2.29131 -1.09109,-1.39116 -2.01854,-1.39116 h -0.10912 q -1.50025,-0.0274 -2.31859,0.65466 -1.50025,1.11838 -1.50025,3.02781 v 2.7823 h -0.98199 q -1.0911,0 -1.85487,0.79104 -0.73649,0.73649 -0.73649,1.80031 v 0.0546 q 0,1.14566 0.73649,1.8276 0.73649,0.70922 1.85487,0.70922 h 0.98199 v 6.68299 0 q 0,5.10087 1.6912,8.456 1.99127,3.90068 5.26455,3.8734 2.01853,0.0272 2.94597,-2.78229 0.3819,-1.20021 0.2455,-2.10037 -0.19086,-1.06384 -1.0911,-1.58209 z" />
      <path
         inkscape:connector-curvature="0"
         id="path819-9"
         style="font-style:normal;font-variant:normal;font-weight:normal;font-stretch:normal;font-size:medium;line-height:1.25;font-family:Dyuthi;-inkscape-font-specification:Dyuthi;letter-spacing:0px;word-spacing:0px;display:inline;fill:url(#linearGradient1826);fill-opacity:1;stroke:none;stroke-width:4.28750944;stroke-linecap:round;stroke-linejoin:round;stroke-miterlimit:4;stroke-dasharray:none;stroke-opacity:1;paint-order:stroke markers fill"
         d="m 199.64573,302.61175 5.97376,20.94911 q 0.51828,1.8003 2.04581,3.00052 1.55482,1.17294 3.43696,1.17294 h 0.10912 q 1.82759,0 3.49153,-1.17294 1.55481,-1.14564 2.07309,-3.00052 l 5.9192,-20.94911 -0.49099,21.5492 q -0.0274,1.473 1.06383,2.53682 1.06382,1.03655 2.56408,1.03655 h 0.0546 q 1.90943,0 3.05507,-1.09112 1.0911,-1.03653 1.0911,-2.48225 v -23.92234 q 0,-2.80958 -1.99125,-4.74629 -1.93671,-1.93669 -4.69172,-1.93669 h -0.0818 q -2.23676,0 -4.03708,1.33659 -1.77303,1.36387 -2.40041,3.49154 l -5.61914,19.66704 -5.67372,-19.72162 q -0.62738,-2.15491 -2.40042,-3.43696 -1.77302,-1.33659 -3.98252,-1.33659 h -0.0818 q -2.80958,0 -4.74628,1.93669 -1.9367,1.93671 -1.9367,4.74629 v 23.92234 q 0,1.39117 1.09109,2.48225 1.0911,1.09112 2.48225,1.09112 h 0.60011 q 1.52754,0 2.59136,-1.09112 1.03655,-1.00925 1.00928,-2.48225 z" />
      <path
         inkscape:connector-curvature="0"
         id="path823-2"
         style="font-style:normal;font-variant:normal;font-weight:normal;font-stretch:normal;font-size:medium;line-height:1.25;font-family:Dyuthi;-inkscape-font-specification:Dyuthi;letter-spacing:0px;word-spacing:0px;display:inline;fill:url(#linearGradient1828);fill-opacity:1;stroke:none;stroke-width:4.28750944;stroke-linecap:round;stroke-linejoin:round;stroke-miterlimit:4;stroke-dasharray:none;stroke-opacity:1;paint-order:stroke markers fill"
         d="m 274.03142,321.13317 q -2.31858,-1.20022 -2.29131,-5.37368 v -7.17396 h 2.29131 q 1.06382,0 1.77303,-0.70922 0.76379,-0.68194 0.76379,-1.8276 v -0.0546 q 0,-1.00924 -0.76379,-1.80031 -0.76376,-0.79104 -1.77303,-0.79104 h -2.29131 v -2.7823 q -0.0273,-1.28204 -0.81832,-2.29131 -1.09111,-1.39116 -2.01853,-1.39116 h -0.10912 q -1.50027,-0.0274 -2.31859,0.65466 -1.50026,1.11838 -1.50026,3.02781 v 2.7823 h -0.98199 q -1.09109,0 -1.85486,0.79104 -0.7365,0.73649 -0.7365,1.80031 v 0.0546 q 0,1.14566 0.7365,1.8276 0.7365,0.70922 1.85486,0.70922 h 0.98199 v 6.68299 0 q 0,5.10087 1.6912,8.456 1.99125,3.90068 5.26456,3.8734 2.01855,0.0272 2.94598,-2.78229 0.38187,-1.20021 0.24549,-2.10037 -0.19095,-1.06384 -1.0911,-1.58209 z" />
      <path
         inkscape:connector-curvature="0"
         id="path825-0"
         style="font-style:normal;font-variant:normal;font-weight:normal;font-stretch:normal;font-size:medium;line-height:1.25;font-family:Dyuthi;-inkscape-font-specification:Dyuthi;letter-spacing:0px;word-spacing:0px;display:inline;fill:url(#linearGradient1830);fill-opacity:1;stroke:none;stroke-width:4.28750944;stroke-linecap:round;stroke-linejoin:round;stroke-miterlimit:4;stroke-dasharray:none;stroke-opacity:1;paint-order:stroke markers fill"
         d="m 305.34598,315.13212 q 0,-5.8101 -2.89143,-9.49257 -2.86414,-3.70974 -9.05612,-3.05508 -2.72775,0.30005 -5.78282,3.00053 l -0.0817,-9.65622 q 0,-1.60938 -1.09108,-2.7005 -1.14566,-1.09109 -2.75503,-1.09109 h -0.0546 q -1.58208,0 -2.7823,1.09109 -1.09109,1.14566 -1.09109,2.75503 v 27.95942 q 0,1.63667 1.09109,2.75504 1.0911,1.09109 2.75503,1.09109 h 0.0274 q 1.60936,0 2.75502,-1.09109 1.14566,-1.11837 1.14566,-2.75504 v -11.53835 q 0,0 0,-0.0546 0,-0.40916 0.0817,-0.6001 0.30002,-1.69121 2.59133,-3.08234 2.64593,-1.5821 5.12818,-0.40919 2.34583,1.14565 2.34583,5.3464 v 10.39271 q 0,1.5821 1.09113,2.70049 1.09109,1.09109 2.70046,1.09109 h 0.082 q 1.60934,0 2.70046,-1.09109 1.14566,-1.11838 1.14566,-2.70048 z" />
      <path
         inkscape:connector-curvature="0"
         id="path827-2"
         style="font-style:normal;font-variant:normal;font-weight:normal;font-stretch:normal;font-size:medium;line-height:1.25;font-family:Dyuthi;-inkscape-font-specification:Dyuthi;letter-spacing:0px;word-spacing:0px;display:inline;fill:url(#linearGradient1832);fill-opacity:1;stroke:none;stroke-width:4.28750944;stroke-linecap:round;stroke-linejoin:round;stroke-miterlimit:4;stroke-dasharray:none;stroke-opacity:1;paint-order:stroke markers fill"
         d="m 320.64862,307.33074 q 2.01854,0 3.65519,0.90016 1.90944,1.06384 2.8096,4.22802 h -11.94756 q 0.46372,-2.37314 1.66395,-3.46423 1.85485,-1.66395 3.81882,-1.66395 z m -0.0546,-4.85537 q -5.15544,-0.10913 -8.8379,3.60062 -3.6552,3.70975 -3.6552,8.94703 0,5.23727 3.87342,8.94699 3.73702,3.57338 7.82864,3.57338 5.701,0.0272 8.947,-1.74578 2.23675,-1.22748 2.50953,-2.45498 l 0.0544,-0.0272 q 0.35462,-1.47297 -0.51827,-2.72775 -1.11839,-1.52753 -2.94596,-0.70921 l -2.80958,1.25477 q -5.04635,2.23675 -8.07415,-0.51827 -0.81832,-0.79106 -1.60937,-3.27332 h 15.19357 q 2.18219,0 2.18219,-2.2913 v -0.0272 q 0.0272,-5.48278 -3.65519,-8.9743 -3.65519,-3.49153 -8.4833,-3.57334 z" />
      <path
         inkscape:connector-curvature="0"
         id="path821-3"
         style="font-style:normal;font-variant:normal;font-weight:normal;font-stretch:normal;font-size:medium;line-height:1.25;font-family:Dyuthi;-inkscape-font-specification:Dyuthi;letter-spacing:0px;word-spacing:0px;display:inline;fill:url(#linearGradient3036-3);fill-opacity:1;stroke:none;stroke-width:4.28750944;stroke-linecap:round;stroke-linejoin:round;stroke-miterlimit:4;stroke-dasharray:none;stroke-opacity:1;paint-order:stroke markers fill"
         d="m 240.50739,314.50474 q 0,-3.32785 0.65467,-4.82813 0.73649,-1.58209 1.9367,-2.12765 2.48224,-1.20018 4.99177,-0.24547 2.18221,0.84559 2.67319,2.37312 v 9.21981 q 0,3.02778 -2.59136,3.92793 -1.28202,0.40917 -2.53679,0.24551 -2.12766,0.0546 -3.62791,-1.93669 -1.50027,-1.99127 -1.50027,-4.82812 z m -3.9825,9.41071 q 3.49151,3.68247 8.456,3.68247 1.41844,0 4.09164,-1.74575 0.65466,-0.43643 1.39114,-0.32733 0.76377,0.0817 1.30932,0.68193 1.28205,1.39115 1.99126,1.39115 h 3.2733 q 0.65466,0 1.14566,-0.491 0.4637,-0.40915 0.4637,-1.0911 v -19.91254 q 0,-1.20023 -0.8456,-2.10038 -0.87287,-0.79103 -2.0458,-0.79103 h -2.10037 q -1.20021,0 -1.99125,0.79103 -0.90017,0.90015 -0.90017,2.10038 v 0 q -1.58208,-3.68246 -5.78283,-3.68246 -4.96449,0 -8.456,3.68246 -3.49153,3.68246 -3.49153,8.91974 0,5.21 3.49153,8.89243 z" />
      <path
         style="display:inline;opacity:1;fill:url(#linearGradient1834);fill-opacity:1;stroke:none;stroke-width:19.48215103;stroke-miterlimit:4;stroke-opacity:1"
         d="m 487.85905,302.47585 c -3.43697,-0.0728 -6.38245,1.12709 -8.83741,3.60026 -2.43678,2.47316 -3.65505,5.45548 -3.65505,8.94701 0,0.36917 0.018,0.73117 0.0467,1.08897 3.3932,0.41037 6.69516,0.82026 9.90585,1.22938 h 12.49703 c 1.4548,0 2.18139,-0.76343 2.18139,-2.29097 v -0.0275 c 0.0181,-3.65519 -1.20015,-6.64672 -3.65506,-8.9744 -2.43676,-2.32768 -5.2648,-3.51831 -8.48355,-3.57286 z m 0.0548,4.85475 c 1.34569,0 2.56397,0.30054 3.65505,0.90064 1.27295,0.70922 2.21025,2.11862 2.81036,4.22809 h -11.94798 c 0.30913,-1.58212 0.86414,-2.73703 1.66428,-3.46443 1.23658,-1.10928 2.50896,-1.6643 3.81829,-1.6643 z"
         id="path1924-4-2-0"
         inkscape:connector-curvature="0" />
      <path
         style="display:inline;opacity:1;fill:url(#linearGradient1836);fill-opacity:1;stroke:none;stroke-width:19.48215103;stroke-miterlimit:4;stroke-opacity:1"
         d="m 517.78322,302.44845 c -2.7823,0 -4.70066,0.37194 -5.75539,1.11752 -0.54557,0.36371 -1.09135,0.97284 -1.6369,1.82753 -1.23658,-1.89125 -2.51816,-2.8366 -3.84568,-2.8366 h -0.13698 c -1.03654,0 -1.95542,0.38228 -2.75556,1.14606 -0.72741,0.72741 -1.09012,1.62784 -1.09012,2.70076 v 13.25498 c 2.67365,0.38032 5.23889,0.75813 7.71876,1.13349 v -7.624 h 0.0548 v -0.0548 c 0,-0.18184 0.0185,-0.38221 0.0548,-0.60041 0.21822,-0.96382 0.92752,-1.87233 2.12773,-2.72703 1.18202,-0.83651 2.60871,-1.11861 4.28172,-0.84585 1.00017,0.14551 1.62774,-0.59144 1.88233,-2.20992 l 0.54562,-2.53638 c 0.0909,-0.43645 -0.009,-0.84522 -0.30021,-1.22711 -0.25458,-0.34551 -0.63572,-0.51823 -1.14491,-0.51823 z"
         id="path1924-4-2"
         inkscape:connector-curvature="0" />
      <path
         style="display:inline;opacity:1;fill:url(#linearGradient1838);fill-opacity:1;stroke:none;stroke-width:19.48215103;stroke-miterlimit:4;stroke-opacity:1"
         d="m 362.62849,293.55511 c -1.87307,0 -3.45517,0.64598 -4.74633,1.93711 -1.29112,1.29114 -1.93596,2.87326 -1.93596,4.74631 v 4.4461 c 2.45245,0.18544 4.88472,0.37447 7.31924,0.5639 l -0.064,-2.63685 0.76708,2.69165 c 2.44309,0.19061 4.87464,0.38204 7.29755,0.57645 l -2.17226,-7.55097 c -0.41825,-1.4366 -1.21853,-2.58231 -2.40056,-3.43701 -1.18203,-0.89107 -2.50966,-1.33669 -3.98265,-1.33669 z m 24.19502,0 c -1.49118,0 -2.83611,0.44562 -4.03631,1.33669 -1.18202,0.90924 -1.98229,2.07338 -2.40055,3.49181 l -2.30011,8.04979 c 2.32045,0.19101 4.62268,0.38348 6.92085,0.57759 l 1.24309,-4.39931 -0.10275,4.49748 c 2.48564,0.21084 4.98436,0.41935 7.44137,0.63353 v -7.50416 c 0,-1.87305 -0.6644,-3.45517 -1.9919,-4.74631 -1.29113,-1.29113 -2.85483,-1.93711 -4.69152,-1.93711 z"
         id="path1924-4-2-2"
         inkscape:connector-curvature="0" />
      <path
         style="display:inline;opacity:1;fill:url(#linearGradient1840);fill-opacity:1;stroke:none;stroke-width:19.48215103;stroke-miterlimit:4;stroke-opacity:1"
         d="m 408.53692,302.42106 c -3.30966,0 -6.12846,1.22748 -8.45615,3.68245 -0.62037,0.65429 -1.15561,1.34617 -1.61064,2.07408 2.26182,0.20074 4.52811,0.40178 6.76219,0.60499 0.40242,-0.57127 0.87549,-0.9854 1.42229,-1.23395 1.65481,-0.80012 3.3187,-0.88189 4.99173,-0.24542 1.42964,0.55398 2.31202,1.32876 2.65283,2.3218 2.65648,0.24984 5.29431,0.49953 7.90368,0.75224 v -4.27374 c 0,-0.80015 -0.28213,-1.50024 -0.84585,-2.10034 -0.58193,-0.52737 -1.2636,-0.79106 -2.04554,-0.79106 h -2.10035 c -0.80013,0 -1.46454,0.26369 -1.99191,0.79106 -0.60012,0.6001 -0.89948,1.30019 -0.89948,2.10034 -1.05474,-2.45497 -2.98231,-3.68245 -5.7828,-3.68245 z"
         id="path1924-4-2-1"
         inkscape:connector-curvature="0" />
      <path
         style="display:inline;opacity:1;fill:url(#linearGradient1842);fill-opacity:1;stroke:none;stroke-width:19.48215103;stroke-miterlimit:4;stroke-opacity:1"
         d="m 429.13168,292.71041 c -1.16383,0 -2.15527,0.40878 -2.97357,1.2271 -0.80015,0.81832 -1.20085,1.80054 -1.20085,2.94618 0,1.18204 0.4007,2.17345 1.20085,2.97358 0.8183,0.83652 1.80974,1.25449 2.97357,1.25449 1.14567,0 2.14514,-0.41797 2.99984,-1.25449 0.78202,-0.80013 1.18274,-1.79154 1.20085,-2.97358 -0.0182,-1.2002 -0.4189,-2.1824 -1.20085,-2.94618 -0.87288,-0.81832 -1.87235,-1.2271 -2.99984,-1.2271 z m 0.43605,10.63754 c -1.1093,0 -2.06386,0.4007 -2.864,1.20084 -0.80014,0.80015 -1.20083,1.76393 -1.20083,2.89141 v 3.26008 c 2.7436,0.26903 5.47039,0.53887 8.15594,0.81046 v -4.07054 c 0,-1.12748 -0.39957,-2.09126 -1.19971,-2.89141 -0.80014,-0.78203 -1.74551,-1.18273 -2.8366,-1.20084 z"
         id="path1924-4-2-12"
         inkscape:connector-curvature="0" />
      <path
         style="display:inline;opacity:1;fill:url(#linearGradient1844);fill-opacity:1;stroke:none;stroke-width:19.48215103;stroke-miterlimit:4;stroke-opacity:1"
         d="m 447.2437,301.95762 c -3.03686,0.0182 -5.45612,0.78162 -7.25644,2.29096 -1.7822,1.4548 -2.69993,3.37316 -2.75442,5.7554 -0.008,0.66852 0.0855,1.30104 0.27053,1.90058 4.68325,0.48074 9.27951,0.96361 13.76067,1.44969 -0.786,-0.46904 -1.68658,-0.8871 -2.71104,-1.24993 -1.54573,-0.52735 -2.57284,-0.99141 -3.08203,-1.39147 -0.60012,-0.43646 -0.90063,-0.93619 -0.90063,-1.49992 1e-5,-1.3275 0.97298,-1.97348 2.91879,-1.93711 0.83651,0.0365 1.75424,0.19065 2.75441,0.46344 0.7274,0.20003 1.4183,0.10096 2.07294,-0.29906 0.67293,-0.41825 1.07362,-0.97327 1.20085,-1.6643 v -0.0275 c 0.20004,-0.69103 0.0999,-1.35429 -0.3002,-1.99076 -0.3819,-0.61829 -0.90928,-1.019 -1.58211,-1.20085 -1.50936,-0.41832 -2.97286,-0.61755 -4.39132,-0.59928 z"
         id="path1924-4-2-9"
         inkscape:connector-curvature="0" />
      <path
         style="display:inline;opacity:1;fill:url(#linearGradient1304-4-5-0);fill-opacity:1;stroke:none;stroke-width:19.48215103;stroke-miterlimit:4;stroke-opacity:1"
         d="m 465.08291,296.93849 c -1.00017,-0.0182 -1.77281,0.19936 -2.31836,0.65407 -1.00018,0.74558 -1.49992,1.75541 -1.49992,3.02837 v 2.78181 h -0.98282 c -0.72739,0 -1.34575,0.2637 -1.85493,0.79106 -0.49097,0.49099 -0.73625,1.09091 -0.73625,1.80012 v 0.0548 c 0,0.76376 0.24528,1.37289 0.73625,1.82752 0.491,0.47282 1.10936,0.70886 1.85493,0.70886 h 0.98282 v 5.87753 c 2.28761,0.259 4.54244,0.51797 6.76448,0.77736 v -6.65489 h 2.29095 c 0.70921,0 1.29993,-0.23604 1.77274,-0.70886 0.50918,-0.45463 0.76366,-1.06376 0.76366,-1.82752 v -0.0548 c 0,-0.67284 -0.25448,-1.27275 -0.76366,-1.80012 -0.50917,-0.52736 -1.09987,-0.79106 -1.77274,-0.79106 h -2.29095 v -2.78181 c -0.0181,-0.85469 -0.29105,-1.61927 -0.81846,-2.29212 -0.72741,-0.92742 -1.39988,-1.39032 -2.01815,-1.39032 z"
         id="path1924-4-2-4"
         inkscape:connector-curvature="0" />
      <path
         id="path955"
         style="font-style:normal;font-variant:normal;font-weight:bold;font-stretch:normal;font-family:sans-serif;-inkscape-font-specification:'sans-serif Bold';fill:#000000;fill-opacity:1;stroke:#ffffff;stroke-width:1.13385832;stroke-miterlimit:4;stroke-dasharray:none;stroke-opacity:1;paint-order:stroke fill markers"
         d="m 411.97461,241.75 h 6.99219 v 21.875 h -6.99219 z m 0,-8.51563 h 6.99219 v 5.70313 h -6.99219 z m -5.27344,19.39454 v 1.99218 h -16.34765 c 0.16927,1.64063 0.76171,2.8711 1.77734,3.69141 1.01563,0.82031 2.4349,1.23047 4.25781,1.23047 1.47135,0 2.97526,-0.21484 4.51172,-0.64453 1.54948,-0.44271 3.13802,-1.10678 4.76563,-1.99219 v 5.39062 c -1.65365,0.625 -3.30729,1.09375 -4.96094,1.40625 -1.65365,0.32553 -3.30729,0.48829 -4.96094,0.48829 -3.95833,0 -7.03776,-1.00261 -9.23828,-3.00782 -2.1875,-2.01823 -3.28125,-4.84375 -3.28125,-8.47656 0,-3.56771 1.07422,-6.3737 3.22266,-8.41797 2.16145,-2.04427 5.1302,-3.0664 8.90625,-3.0664 3.4375,0 6.18489,1.03515 8.24218,3.10546 2.07031,2.07031 3.10547,4.83724 3.10547,8.30079 z m -7.1875,-2.32422 c 0,-1.32813 -0.39062,-2.39584 -1.17187,-3.20313 -0.76823,-0.82031 -1.77735,-1.23047 -3.02735,-1.23047 -1.35417,0 -2.45443,0.38412 -3.30078,1.15235 -0.84635,0.75521 -1.3737,1.84896 -1.58203,3.28125 z m -31.67969,8.80859 c 1.4974,0 2.63672,-0.54687 3.41797,-1.64062 0.79427,-1.09375 1.19141,-2.6823 1.19141,-4.76563 0,-2.08333 -0.39714,-3.67187 -1.19141,-4.76562 -0.78125,-1.09375 -1.92057,-1.64063 -3.41797,-1.64063 -1.49739,0 -2.64974,0.55339 -3.45703,1.66016 -0.79427,1.09375 -1.1914,2.67578 -1.1914,4.74609 0,2.07031 0.39713,3.65886 1.1914,4.76563 0.80729,1.09375 1.95964,1.64062 3.45703,1.64062 z m -4.64843,-14.16016 c 0.96354,-1.27604 2.03125,-2.21354 3.20312,-2.8125 1.17187,-0.61197 2.51953,-0.91796 4.04297,-0.91796 2.69531,0 4.90886,1.07422 6.64063,3.22265 1.73177,2.13542 2.59765,4.88933 2.59765,8.26172 0,3.37239 -0.86588,6.13281 -2.59765,8.28125 -1.73177,2.13542 -3.94532,3.20313 -6.64063,3.20313 -1.52344,0 -2.8711,-0.29948 -4.04297,-0.89844 -1.17187,-0.61198 -2.23958,-1.55599 -3.20312,-2.83203 v 3.16406 h -6.99219 v -30.39063 h 6.99219 z m -27.42188,5.35157 V 263.625 h -7.03125 v -2.16797 -8.02734 c 0,-1.88802 -0.0456,-3.1901 -0.13672,-3.90625 -0.0781,-0.71615 -0.22135,-1.24349 -0.42968,-1.58203 -0.27344,-0.45573 -0.64454,-0.8073 -1.11329,-1.05469 -0.46875,-0.26042 -1.0026,-0.39063 -1.60156,-0.39063 -1.45833,0 -2.60417,0.56641 -3.4375,1.69922 -0.83333,1.11979 -1.25,2.67578 -1.25,4.66797 V 263.625 h -6.99219 V 241.75 h 6.99219 v 3.20312 c 1.05469,-1.27604 2.17448,-2.21354 3.35938,-2.8125 1.18489,-0.61197 2.49349,-0.91796 3.92578,-0.91796 2.52604,0 4.4401,0.77474 5.74219,2.32421 1.3151,1.54948 1.97265,3.80209 1.97265,6.75782 z m -27.26562,2.32422 v 1.99218 h -16.34766 c 0.16927,1.64063 0.76172,2.8711 1.77734,3.69141 1.01563,0.82031 2.4349,1.23047 4.25782,1.23047 1.47135,0 2.97526,-0.21484 4.51172,-0.64453 1.54947,-0.44271 3.13801,-1.10678 4.76562,-1.99219 v 5.39062 c -1.65365,0.625 -3.30729,1.09375 -4.96094,1.40625 -1.65365,0.32553 -3.30729,0.48829 -4.96093,0.48829 -3.95833,0 -7.03776,-1.00261 -9.23829,-3.00782 -2.1875,-2.01823 -3.28125,-4.84375 -3.28125,-8.47656 0,-3.56771 1.07422,-6.3737 3.22266,-8.41797 2.16146,-2.04427 5.13021,-3.0664 8.90625,-3.0664 3.4375,0 6.1849,1.03515 8.24219,3.10546 2.07031,2.07031 3.10547,4.83724 3.10547,8.30079 z m -7.1875,-2.32422 c 0,-1.32813 -0.39063,-2.39584 -1.17188,-3.20313 -0.76823,-0.82031 -1.77734,-1.23047 -3.02734,-1.23047 -1.35417,0 -2.45443,0.38412 -3.30078,1.15235 -0.84635,0.75521 -1.3737,1.84896 -1.58203,3.28125 z m -36.09375,-4.92188 c 0.88541,-1.35417 1.93359,-2.38281 3.14453,-3.08594 1.22396,-0.71614 2.56511,-1.07421 4.02344,-1.07421 2.51302,0 4.42708,0.77474 5.74218,2.32421 1.31511,1.54948 1.97266,3.80209 1.97266,6.75782 V 263.625 h -7.03125 v -11.40625 c 0.013,-0.16927 0.0195,-0.34505 0.0195,-0.52734 0.013,-0.18229 0.0195,-0.44271 0.0195,-0.78125 0,-1.54948 -0.22786,-2.66927 -0.68359,-3.35938 -0.45573,-0.70313 -1.19141,-1.05469 -2.20703,-1.05469 -1.32813,0 -2.35677,0.54688 -3.08594,1.64063 -0.71615,1.09375 -1.08724,2.67578 -1.11328,4.74609 V 263.625 h -7.03125 v -11.40625 c 0,-2.42187 -0.20833,-3.97786 -0.625,-4.66797 -0.41667,-0.70313 -1.15885,-1.05469 -2.22656,-1.05469 -1.34115,0 -2.3763,0.55339 -3.10547,1.66016 -0.72917,1.09375 -1.09375,2.66276 -1.09375,4.70703 V 263.625 H 244.9043 V 241.75 h 7.03125 v 3.20312 c 0.85937,-1.23697 1.84245,-2.16796 2.94922,-2.79296 1.11979,-0.625 2.35025,-0.9375 3.6914,-0.9375 1.51042,0 2.84506,0.36458 4.00391,1.09375 1.15885,0.72917 2.03776,1.7513 2.63672,3.0664 z m -41.71875,0 c 0.88541,-1.35417 1.93359,-2.38281 3.14453,-3.08594 1.22396,-0.71614 2.56511,-1.07421 4.02344,-1.07421 2.51302,0 4.42708,0.77474 5.74218,2.32421 1.31511,1.54948 1.97266,3.80209 1.97266,6.75782 V 263.625 h -7.03125 v -11.40625 c 0.013,-0.16927 0.0195,-0.34505 0.0195,-0.52734 0.013,-0.18229 0.0195,-0.44271 0.0195,-0.78125 0,-1.54948 -0.22786,-2.66927 -0.68359,-3.35938 -0.45573,-0.70313 -1.19141,-1.05469 -2.20703,-1.05469 -1.32813,0 -2.35677,0.54688 -3.08594,1.64063 -0.71615,1.09375 -1.08724,2.67578 -1.11328,4.74609 V 263.625 h -7.03125 v -11.40625 c 0,-2.42187 -0.20833,-3.97786 -0.625,-4.66797 -0.41667,-0.70313 -1.15885,-1.05469 -2.22656,-1.05469 -1.34115,0 -2.3763,0.55339 -3.10547,1.66016 -0.72917,1.09375 -1.09375,2.66276 -1.09375,4.70703 V 263.625 h -7.03125 V 241.75 h 7.03125 v 3.20312 c 0.85937,-1.23697 1.84245,-2.16796 2.94922,-2.79296 1.11979,-0.625 2.35025,-0.9375 3.6914,-0.9375 1.51042,0 2.84506,0.36458 4.00391,1.09375 1.15885,0.72917 2.03776,1.7513 2.63672,3.0664 z m -37.36328,0.83985 c -1.54948,0 -2.73438,0.55989 -3.55469,1.67968 -0.80729,1.10677 -1.21094,2.70834 -1.21094,4.80469 0,2.09635 0.40365,3.70443 1.21094,4.82422 0.82031,1.10677 2.00521,1.66016 3.55469,1.66016 1.52343,0 2.6888,-0.55339 3.49609,-1.66016 0.80729,-1.11979 1.21094,-2.72787 1.21094,-4.82422 0,-2.09635 -0.40365,-3.69792 -1.21094,-4.80469 -0.80729,-1.11979 -1.97266,-1.67968 -3.49609,-1.67968 z m 0,-5 c 3.76302,0 6.69922,1.01562 8.80859,3.04687 2.12239,2.03125 3.18359,4.84375 3.18359,8.4375 0,3.59375 -1.0612,6.40625 -3.18359,8.4375 -2.10937,2.03125 -5.04557,3.04688 -8.80859,3.04688 -3.77605,0 -6.73178,-1.01563 -8.86719,-3.04688 -2.1224,-2.03125 -3.1836,-4.84375 -3.1836,-8.4375 0,-3.59375 1.0612,-6.40625 3.1836,-8.4375 2.13541,-2.03125 5.09114,-3.04687 8.86719,-3.04687 z m -35.95704,-7.98829 h 6.99219 v 16.54297 L 165.2168,241.75 h 8.125 l -10.6836,10.03906 11.52344,11.83594 h -8.47656 l -8.53516,-9.12109 v 9.12109 h -6.99219 z m -13.75,0 h 6.99219 V 263.625 h -6.99219 z m -13.75,0 h 6.99219 V 263.625 h -6.99219 z m -13.75,8.51563 h 6.99219 v 21.875 h -6.99219 z m 0,-8.51563 h 6.99219 v 5.70313 h -6.99219 z m -46.308589,1.23047 h 7.207031 l 5.039062,21.19141 5,-21.19141 h 7.246094 l 5,21.19141 5.039063,-21.19141 h 7.148439 L 97.423828,263.625 H 88.751953 L 83.458984,241.45703 78.224609,263.625 h -8.671875 z"
         inkscape:connector-curvature="0"
         sodipodi:nodetypes="ccccccccccsccssccccscscscsccscccscscscscsccscscscccccccscccscccscsccccccscsscccsccccscscscsccscccccsssccccscsccccscscsccccccsscccsssccccscsccccscscsccccccssccscscscscsscscscscscccccccccccccccccccccccccccccccccccccccccccccc" />
    </g>
  </g>
</svg>
