{
    "model_id": 96918645,
    "model_name": "Mathe-Maister",
    "deck_id": 644391095,
    "deck_description": "Optimierung 1 bei Prof Tobias Harks, SoSe 18, Uni Augsburg.\nFertigstellung hoffentlich April 2019. Nicht sehr ausführlich, nur vom Zettel abgeschrieben, den ich vorletztes Semester in die Klausur mitgenommen habe.\n\nalex.mai@posteo.net für Fragen und Änderungsvorschläge.\noder gitlab.com/CptMaister",
    "deck_name": " Mathe-Maister::Optimierung I",
    "start_note_id": 256425559,
    "start_card_id": 887170680,
    "guid_random_string": "RY3I2",
    "image_dir": "Optimierung-I"
}
