Hallo Freund der Mathematik! Willkommen zum Optimierung 3 Deck! Das ist die Vorderseite einer Karte. Drücke mal auf den Knopf ganz unten.	Das ist die Rückseite einer Karte. Jetzt, wo du beide Seiten der Karte siehst, kannst du unten auf noch mehr Informationen zugreifen. Probier's mal aus!<br>Kurzer Hinweis: dieses und andere Decks findest du kostenfrei auf https://mathe-maister.de/ oder https://gitlab.com/CptMaister/Mathe-Maister/	Was in diesem Feld steht, ist auf den Karten unsichtbar *geheim*.	Optimierung III	Anleitung	Anki kennenlernen	Hier werden auf allen folgenden Karten Formeln stehen. Hinter allen Feldern verbirgt sich meistens das, was der Name verspricht. Die Felder erscheinen jedoch nur auf deiner Karte, wenn sie nicht leer sind.	"Bis auf das Feld "Formel" dienen die extra-Felder als extra Informationen, die eher nicht als notwendig erachtet wurden fürs Auswendiglernen, sondern beim ersten Sehen der Karten beim Verständnis helfen sollen. Schau sie dir auf jeden Fall an, wenn du eine Karte zum ersten Mal siehst!"	Du kannst, am Handy wie auch am Rechner, während dem Lernen bzw jederzeit den Inhalt dieser Felder, der Vorder- und Rückseite und auch unsichtbarer Felder ändern. Auf dem Handy einfach oben rechts auf die 3 Punkte klicken -> Notiz bearbeiten	Trivia: Hier wirst du alternative Schreibweisen finden	Beispiele: alle kommenden Karten sind Beispiele für dieses Layout!	Lesehinweis: Hier findest du Erklärungen zu Mengen etc, die auf dieser Karte benutzt wurden, aber schon so lange nicht mehr benutzt wurden, dass man hier nochmal an die Bedeutung erinnern wollte.	"Extras: Dieses Feld ist selten befüllt und für dich zum Befüllen gedacht, falls du es brauchst. Diese Anleitungskarte braucht aber niemand auswendig lernen. Vielleicht möchtest du sie aber auch nicht löschen. In dem Fall solltest du (auf dem Handy) oben rechts auf die 3 Punkte gehen und dort auf "Notiz Aussetzen" (oder gleich "Notiz Löschen" (aber wenn du sie löschst, taucht sie wieder als neue Karte auf, wenn du danach irgendwann eine neue Version von diesem Deck runterlädtst!)). Ausgesetzte Karten erscheinen nicht mehr, können aber am Computer wieder angesehen und auch wieder nicht-ausgesetzt gemacht werden."		Hier kannst du dir die Übersetzung des Begriffs in deiner gewünschten Sprache notieren. Bei manchen Notizen wird hier die Übersetzung angezeigt, die namensgebend für die Abkürzung ist (wie etwa im Lineare Algebra I Deck bei GL(n, K) für General Linear Group).			testbild.svg	DOZENT VORLESUNG SEMESTER AUTOR UNI	0	K1	1
#Name	Beschreibung	X Notizen	Vorlesung	Typ	Themenbereich	Formel	Interpretation	FunFacts	Trivia	Beispiele	Lesehinweis	Extras	Literaturhinweis	Übersetzung	X Lernhinweis (F)	X Lernhinweis (B)	Illustration	Tags	ID	einseitig	Priorität
#\(K\)-Vektorraum	\((V, +, \cdot)\) mit \((V, +)\) abelsche Gruppe und Skalarmultiplikation \(K \times V \to V,\ (\lambda, x) \mapsto \lambda \cdot x\) mit den Eigenschaften<br/>\(\bullet\) Distributivität: \(\lambda \cdot (x + y) = (\lambda \cdot x) + (\lambda \cdot y)\) und \((\lambda + \mu) \cdot x = (\lambda \cdot x) + (\mu \cdot x)\)<br/>\(\bullet\) gemischte Assoziativität: \((\lambda \cdot \mu) \cdot x = \lambda \cdot (\mu \cdot x)\)<br/>\(\bullet\) Neutralität des \(1\)-Elements aus \(K\): \(1_K \cdot x = x\)<br/>\(\forall \lambda , \mu \in K,\ \forall x, y \in V\)		Lineare Algebra I	Definition	Vektorräume		"Ein \(K\)-Vektorraum ist eine Menge \(V ,\) auf der eine "Addition" von je zwei Elementen aus \(V\) und eine "Multiplikation" von Elementen aus \(K\) mit Elementen aus \(V\) mit gewissen Eigenschaften wohldefiniert und abgeschlossen sind."		Die Elemente eines Vektorraums \(V\) heißen <b>Vektoren</b>, die Elemente von \(K\) <b>Skalare</b>, und \(K\) heißt <b>Skalarenkörper</b>.<br/>Häufig abgekürzt als <b>Vektorraum</b>, <b>KVR</b> oder <b>VR</b>.	\(K^n\) ist ein \(n\)-dim \(K\)-Vektorraum.<br/>\(\mathbb{R}^n\) ist ein unendlichdimensionaler \(\mathbb{Q}\)-Vektorraum, selbst für \(n = 1\)<br/>\(\mathbb{C}^n\) ist ein \(2n\)-dimensionaler \(\mathbb{R}\)-Vektorraum.	\(K\) ist ein beliebiger Körper.							WolfgangSchneider Algebra LineareAlgebra1 WiSe18/19 AlexanderMai UniAugsburg	3005		
#																					
Digraph	Graph mit gerichteten Kanten		Optimierung III	Definition	Maximale Flüsse in Netzwerken				Auch bekannt als <b>Gerichteter Graph</b>.		In diesem und folgenden Kapiteln sind alle Graphen \( G \) Digraphen, wenn nicht anders geschrieben.							MiriamDür Optimierung Optimierung3 SoSe20 AlexanderMai UniAugsburg	1001		
Flussnetzwerk	Tupel \( G, u, s, t \) bestehend aus Digraph \( G = ( V, E ) \), Kantenkapazitäten \( u(e) \ge 0, e \in E(G) \) und 2 ausgezeichneten Knoten Quelle \( s \) und Senke \( t \)		Optimierung III	Definition	Maximale Flüsse in Netzwerken													MiriamDür Optimierung Optimierung3 SoSe20 AlexanderMai UniAugsburg	1002		
Fluss bzgl \( G, u \)	Kantenbewertung \( f(e) \in \mathbb{R}, e \in E(G), \) mit Kapazitätseinhaltung		Optimierung III	Definition	Maximale Flüsse in Netzwerken						<b>Kapazitätseinhaltung</b> heißt, dass \( f(e) \in [ 0, u(e) ] . \)<br>Digraph \( G \), Kantenkapazität \( u. \)							MiriamDür Optimierung Optimierung3 SoSe20 AlexanderMai UniAugsburg	1003		
Flusserhaltung in Knoten \( v \in V(G) \)	Ausfluss aus \( v \) gleich Einfluss in \( v \) bzgl einer Kantenbewertung \( f \)		Optimierung III	Definition	Maximale Flüsse in Netzwerken	\( \sum \limits_{e \in \delta^+ (v)} f(e) = \sum \limits_{e \in \delta^- (v)} f(e) \)	In dem Knoten kommt nichts dazu und geht nichts verloren.											MiriamDür Optimierung Optimierung3 SoSe20 AlexanderMai UniAugsburg	1004		
Strömung in \( G \)	Kantenbewertung \( f(e) \in \mathbb{R}, e \in E(G), \) mit Flusserhaltung in jedem Knoten		Optimierung III	Definition	Maximale Flüsse in Netzwerken				Auch bekannt als <b>Zirkulation</b>.		Ohne Kapazitätseinhaltung, also auch negative Werte möglich.					Nicht notwendigerweise mit Kapazitätseinhaltung		MiriamDür Optimierung Optimierung3 SoSe20 AlexanderMai UniAugsburg	1005		
\( s, t \)-Fluss im Netzwerk \( G, u, s, t \)	Fluss \( f, \) der in allen Knoten \( v \neq s, t \) Flusserhaltung erfüllt		Optimierung III	Definition	Maximale Flüsse in Netzwerken													MiriamDür Optimierung Optimierung3 SoSe20 AlexanderMai UniAugsburg	1006		
\( v(f) \) von \( s, t \)-Fluss \( f \)	Nettoausfluss \( \sum \limits_{e \in \delta^+ (s)} f(e) - \sum \limits_{e \in \delta^- (s)} f(e) \) in \( s, t \)-Fluss aus Quelle \( s \)		Optimierung III	Definition	Maximale Flüsse in Netzwerken													MiriamDür Optimierung Optimierung3 SoSe20 AlexanderMai UniAugsburg	1007		
Ungerichteter elementarer Kreis \( C \) in \( G \)				Definition	Maximale Flüsse in Netzwerken													MiriamDür Optimierung Optimierung3 SoSe20 AlexanderMai UniAugsburg	1008		
Inzidenzvektor von ungerichtetem elementarem Kreis \( C \)				Definition	Maximale Flüsse in Netzwerken													MiriamDür Optimierung Optimierung3 SoSe20 AlexanderMai UniAugsburg	1009		
Zykelraum von \( G \)				Definition	Maximale Flüsse in Netzwerken													MiriamDür Optimierung Optimierung3 SoSe20 AlexanderMai UniAugsburg	1010		
Lemma zu Strömungen und Zykelraum in \( G \)				Lemma	Maximale Flüsse in Netzwerken													MiriamDür Optimierung Optimierung3 SoSe20 AlexanderMai UniAugsburg	1011	K1	
Dekompositionssatz für \( s, t \)-Flüsse	Sei \( f \neq 0 \) ein \( s, t \)-Fluss in \( G, u, s, t \), dann gilt:<br>\( \bullet \) \( f \) ist positive Linearkombination von (Inzidenzvektoren) von gerichteten \( s, t \)-Wegen und gerichteten Kreisen<br>\( \bullet \) Die Anzahl der Wege kann auf höchstens \( m \) berschränkt werden<br>\( \bullet \) ist \( f \) ganzzahlig, so können die Koeffizienten in der Linearkombination ganzzahlig gewählt werden		Optimierung III	Satz	Maximale Flüsse in Netzwerken								Nach Ford-Fulkerson (1962)					MiriamDür Optimierung Optimierung3 SoSe20 AlexanderMai UniAugsburg	1012		
Maximum Flow Problem	Instanz: Netzwerk \( G, u, s, t \)<br>Aufgabe: Finde \( s, t \)-Fluss mit maximalem Wert \( v(f) \)		Optimierung III	Problem	Maximale Flüsse in Netzwerken			Hat immer eine optimale Lösung.										MiriamDür Optimierung Optimierung3 SoSe20 AlexanderMai UniAugsburg	1013	K1	
\( s, t \)-Schnitt				Definition	Maximale Flüsse in Netzwerken													MiriamDür Optimierung Optimierung3 SoSe20 AlexanderMai UniAugsburg	1014		
Vorwärtskanten eines Schnittes				Definition	Maximale Flüsse in Netzwerken													MiriamDür Optimierung Optimierung3 SoSe20 AlexanderMai UniAugsburg	1015		
Kapazität eines \( s, t \)-Schnittes				Definition	Maximale Flüsse in Netzwerken													MiriamDür Optimierung Optimierung3 SoSe20 AlexanderMai UniAugsburg	1016		
Minimaler \( s, t \)-Schnitt	\( s, t \)-Schnitt mit minimaler Kapazität bzgl \( u \)		Optimierung III	Definition	Maximale Flüsse in Netzwerken													MiriamDür Optimierung Optimierung3 SoSe20 AlexanderMai UniAugsburg	1017		
Lemma zu \( s, t \)-Schnitten und \( s, t \)-Flüssen				Lemma	Maximale Flüsse in Netzwerken													MiriamDür Optimierung Optimierung3 SoSe20 AlexanderMai UniAugsburg	1018		
Residualgraph zu \( G, u, f \)				Definition	Maximale Flüsse in Netzwerken													MiriamDür Optimierung Optimierung3 SoSe20 AlexanderMai UniAugsburg	1019		
Augmentieren eines Flusses \( f \) entlang eines Weges oder Zykels \( W \) in Residualgraph \( G_f \) um Wert \( \gamma \)				Definition	Maximale Flüsse in Netzwerken													MiriamDür Optimierung Optimierung3 SoSe20 AlexanderMai UniAugsburg	1020		
Ford-Fulkerson-Algorithmus	alg-ford-fulkerson.svg		Optimierung III	Algorithmus	Maximale Flüsse in Netzwerken												alg-ford-fulkerson.svg	MiriamDür Optimierung Optimierung3 SoSe20 AlexanderMai UniAugsburg	1021		
Optimalitätskriterium für maximale Flüsse				Satz	Maximale Flüsse in Netzwerken													MiriamDür Optimierung Optimierung3 SoSe20 AlexanderMai UniAugsburg	1022		
Max-Flow Min-Cut Satz				Satz	Maximale Flüsse in Netzwerken													MiriamDür Optimierung Optimierung3 SoSe20 AlexanderMai UniAugsburg	1023		
Satz von Menger, Kantenversion				Satz	Maximale Flüsse in Netzwerken													MiriamDür Optimierung Optimierung3 SoSe20 AlexanderMai UniAugsburg	1024		
Satz von Menger, Knotenversion				Satz	Maximale Flüsse in Netzwerken													MiriamDür Optimierung Optimierung3 SoSe20 AlexanderMai UniAugsburg	1025		
Algorithmus von Edmonds und Karp	Wie Ford-Fulkerson-Algorithmus, aber spezifiziere Wahl der \( f \)-augmentierenden Wege:<br>\( \bullet \) Wähle kürzesten \( f \)-augmentierenden Weg bzgl Anzahl der Kanten<br>\( \bullet \) erreichbar durch BFS im Residualgraphen \( G_f \)		Optimierung III	Algorithmus	Maximale Flüsse in Netzwerken			Laufzeit von \( \mathcal{O} (m^2 n) . \)										MiriamDür Optimierung Optimierung3 SoSe20 AlexanderMai UniAugsburg	1026		
Digraph \( G \) heißt eulersch	Digraph \( G, \) mit \( | \delta^+ (v) | = | \delta^- (v) |, \forall v \in V(G) \)		Optimierung III	Definition	Maximale Flüsse in Netzwerken													MiriamDür Optimierung Optimierung3 SoSe20 AlexanderMai UniAugsburg	1027		
Satz zu Zusammensetzung von eulerschen Digraphen	Ein eulerscher Digraph ist kantendisjunkte Vereinigung von gerichteten elementaren Kreisen		Optimierung III	Satz	Maximale Flüsse in Netzwerken													MiriamDür Optimierung Optimierung3 SoSe20 AlexanderMai UniAugsburg	1028		
Levelgraph	Graph aller bzgl Kantenzahl kürzesten gerichteten \( s, t \)-Wege im Residualgraph \( G_f \)		Optimierung III	Definition	Maximale Flüsse in Netzwerken				Auch bekannt als <b>Schichtgraph</b>.									MiriamDür Optimierung Optimierung3 SoSe20 AlexanderMai UniAugsburg	1029		
Blockierender \( s, t \)-Fluss in Levelgraph \( LG_f \)	\( s, t \)-Fluss \( f', \) der auf jedem \( s, t \)-Weg eine Kante sättigt		Optimierung III	Definition	Maximale Flüsse in Netzwerken				Eine Kante \( e \) heißt gesättigt, wenn \( f(e) = u(e) . \)									MiriamDür Optimierung Optimierung3 SoSe20 AlexanderMai UniAugsburg	1030		
Algorithmus von Dinic	alg-dinic.svg		Optimierung III	Algorithmus	Maximale Flüsse in Netzwerken			Terminiert nach maximal \( n - 1 \) Iterationen und gibt einen maximalen Fluss aus.									alg-dinic.svg	MiriamDür Optimierung Optimierung3 SoSe20 AlexanderMai UniAugsburg	1031		
Algorithmus für blockierenden Fluss	alg-blockierender-fluss.svg		Optimierung III	Algorithmus	Maximale Flüsse in Netzwerken			Dabei nutzen wir drei Manöver:<br>\( \bullet \) increase: Flusserhöhung bei \( v = t \)<br>\( \bullet \) explore: \( v \neq t \) und es gibt noch unbesuchte Kanten \( ( v, w ) \)<br>\( \bullet \) retreat: \( v \neq t \) und es gibt keine ausgehende Kante von \( v, \) lösche also letzte durchlaufene Kante \( ( u, v ) \)<br>jeweils maximal \( m, m \) und \( | \mathrm{retreat} | + n \cdot | \mathrm{increase} | \) mal.									alg-blockierender-fluss.svg	MiriamDür Optimierung Optimierung3 SoSe20 AlexanderMai UniAugsburg	1032		
Konzept bei Push-Relabel-Algorithmen	Algorithmen, die Kapazitätseinhaltung und Maximalität erfüllen und dann am Ende Flusserhaltung herstellen.		Optimierung III	Algorithmus	Maximale Flüsse in Netzwerken			Starte mit einem Präfluss und einer Distanzbewertung und führe dann in beliebiger Reiehenfolge Operationen aus:<br>\( \bullet \) Push: Präfluss aktualisieren<br>\( \bullet \) Relabel: Distanzbewertung aktualisieren<br><br>Im Gegensatz dazu wird bei einem Augmentierende-Wege-Algorithmus Kapazitätseinhaltung und Flusserhaltung erfüllt und am Ende Maximalität hergestellt.										MiriamDür Optimierung Optimierung3 SoSe20 AlexanderMai UniAugsburg	1033		
\( s, t \)-Präfluss in Flussnetzwerk	Kantenbewertung \( f(e) \in \mathbb{R}, e \in E(G), \) mit Kapazitätseinhaltung		Optimierung III	Definition	Maximale Flüsse in Netzwerken		In einem Präfluss gilt nicht Flusserhaltung, sondern in jeden Knoten (außer \( s \) und \( t ) \) fließt mindestens so viel ein, wie wieder rausfließt. D.h. es ist denkbar, dass so etwas existiert: an manchen Stellen quillt das Wasser wieder raus (an den Knoten, an denen der Exzess größer \( \ge 0 \) ist). Aber es "entsteht" an keinem Knoten Wasser. Außerdem werden Kapazitäten eingehalten.											MiriamDür Optimierung Optimierung3 SoSe20 AlexanderMai UniAugsburg	1034		
Exzess in Knoten \( v \) in Präfluss	\( ex_f (v) := \sum \limits_{e \in \delta^- (v)} f(e) - \sum \limits_{e \in \delta^+ (v)} f(e) \ge 0, \forall v \neq s, t \)		Optimierung III	Definition	Maximale Flüsse in Netzwerken													MiriamDür Optimierung Optimierung3 SoSe20 AlexanderMai UniAugsburg	1035		
Knoten heißt aktiv in Präfluss	Knoten mit Exzess \( \ge 0 \)		Optimierung III	Definition	Maximale Flüsse in Netzwerken													MiriamDür Optimierung Optimierung3 SoSe20 AlexanderMai UniAugsburg	1036		
Distanzbewertung bzgl \( s, t \)-Präfluss	\( \Psi (v), v \in V(G), \) mit \( \Psi (s) = n, \Psi (t) = 0, \Psi (v) \le \Psi (w) + 1, \forall e = (v, w) \in E(G_f) \)		Optimierung III	Definition	Maximale Flüsse in Netzwerken			Es werden Kanten im Residualgraphen betrachtet, nicht im ursprünglichen Graphen.										MiriamDür Optimierung Optimierung3 SoSe20 AlexanderMai UniAugsburg	1037		
Kante \( e = (v, w) \in E( G^\leftrightarrow) \) zulässig bzgl Distanzbewertung \( \Psi \)	Kante \( (v, w) \in E(G_f) \) mit Distanzbewertung \( \Psi (v) = \Psi (w) + 1 \)		Optimierung III	Definition	Maximale Flüsse in Netzwerken													MiriamDür Optimierung Optimierung3 SoSe20 AlexanderMai UniAugsburg	1038		
Lemma zu Distanzbewertung und Weglängen in \( G_f \)	Sei \( \Psi \) eine Distanzbewertung und \( v \neq s , \) dann: \( \Psi (v) \le \) Länge kürzester Weg nugl Kantenzahl von \( v \) nach \( t \) in \( G_f \)		Optimierung III	Lemma	Maximale Flüsse in Netzwerken													MiriamDür Optimierung Optimierung3 SoSe20 AlexanderMai UniAugsburg	1039	K1	
Generischer Push-Relabel-Algorithmus	alg-generischer-push-relabel.svg		Optimierung III	Algorithmus	Maximale Flüsse in Netzwerken			Wenn der Push-Relabel-Algorithmus terminiert, so ist \( f \) ein maximaler \( s, t \)-Fluss.<br>In jedem Schritt sind die konstruierten \( f \) und \( \Psi \) jeweils gültige \( s, t \)-Präflüsse und Distanzbewertungen.				Terminiert in \( =(n^2 m) \) bei beliebiger Schrittwahl. Schneller zB mit Goldberg-Tarjan in \( O(n^3) \).					alg-generischer-push-relabel.svg	MiriamDür Optimierung Optimierung3 SoSe20 AlexanderMai UniAugsburg	1040		
Goldberg-Tarjan-Algorithmus	alg-goldberg-tarjan.svg		Optimierung III	Algorithmus	Maximale Flüsse in Netzwerken												alg-goldberg-tarjan.svg	MiriamDür Optimierung Optimierung3 SoSe20 AlexanderMai UniAugsburg	1041		
#																					
#																					
#Name	Beschreibung	X Notizen	Vorlesung	Typ	Themenbereich	Formel	Interpretation	FunFacts	Trivia	Beispiele	Lesehinweis	Extras	Literaturhinweis	Übersetzung	X Lernhinweis (F)	X Lernhinweis (B)	Illustration	Tags	ID	einseitig	Priorität
#\(K\)-Vektorraum	\((V, +, \cdot)\) mit \((V, +)\) abelsche Gruppe und Skalarmultiplikation \(K \times V \to V,\ (\lambda, x) \mapsto \lambda \cdot x\) mit den Eigenschaften<br/>\(\bullet\) Distributivität: \(\lambda \cdot (x + y) = (\lambda \cdot x) + (\lambda \cdot y)\) und \((\lambda + \mu) \cdot x = (\lambda \cdot x) + (\mu \cdot x)\)<br/>\(\bullet\) gemischte Assoziativität: \((\lambda \cdot \mu) \cdot x = \lambda \cdot (\mu \cdot x)\)<br/>\(\bullet\) Neutralität des \(1\)-Elements aus \(K\): \(1_K \cdot x = x\)<br/>\(\forall \lambda , \mu \in K,\ \forall x, y \in V\)		Lineare Algebra I	Definition	Vektorräume		"Ein \(K\)-Vektorraum ist eine Menge \(V ,\) auf der eine "Addition" von je zwei Elementen aus \(V\) und eine "Multiplikation" von Elementen aus \(K\) mit Elementen aus \(V\) mit gewissen Eigenschaften wohldefiniert und abgeschlossen sind."		Die Elemente eines Vektorraums \(V\) heißen <b>Vektoren</b>, die Elemente von \(K\) <b>Skalare</b>, und \(K\) heißt <b>Skalarenkörper</b>.<br/>Häufig abgekürzt als <b>Vektorraum</b>, <b>KVR</b> oder <b>VR</b>.	\(K^n\) ist ein \(n\)-dim \(K\)-Vektorraum.<br/>\(\mathbb{R}^n\) ist ein unendlichdimensionaler \(\mathbb{Q}\)-Vektorraum, selbst für \(n = 1\)<br/>\(\mathbb{C}^n\) ist ein \(2n\)-dimensionaler \(\mathbb{R}\)-Vektorraum.	\(K\) ist ein beliebiger Körper.							WolfgangSchneider Algebra LineareAlgebra1 WiSe18/19 AlexanderMai UniAugsburg	3005		
#																					
Kosten einer Kante bzgl Fluss \( f \)	\( f (e) \cdot c (e) , \) mit Kante \( e , \) Kantenkosten \( c , \) Fluss \( f \)		Optimierung III	Definition	Kostenminimale Flüsse													MiriamDür Optimierung Optimierung3 SoSe20 AlexanderMai UniAugsburg	2001		
Gesamtkosten eines Flusses \( f \)	\( c (f) , \) mit Kantenkosten \( c , \) Fluss \( f \)		Optimierung III	Definition	Kostenminimale Flüsse	\( := \sum \limits_{ e \in E(G) } f (e) \cdot c (e) \)												MiriamDür Optimierung Optimierung3 SoSe20 AlexanderMai UniAugsburg	2002		
Balance eines Knotens	Knotenbewertung \( b(v), v \in V(G) , \) mit \( \sum \limits_{v \in V(G)} b(v) = 0 \)		Optimierung III	Definition	Kostenminimale Flüsse													MiriamDür Optimierung Optimierung3 SoSe20 AlexanderMai UniAugsburg	2003		
\( b \)-Fluss in \( (G, u) \)	Kantenbewertung \( f(e) \in \mathbb{R}, e \in E(G), \) mit Kapazitätseinhaltung und \sum \limits_{e \in \delta^+ (v) } f(e) - \sum \limits_{e \in \delta^- (v) } f(e) = b (v), \forall v \in V(G) \)		Optimierung III	Definition	Kostenminimale Flüsse		\( b \)-Flüsse modellieren Transportaufgaben für ein Gut. Das Angebot soll zur Nachfrage transportiert werden.											MiriamDür Optimierung Optimierung3 SoSe20 AlexanderMai UniAugsburg	2004		
Quelle in einem \( b \)-Fluss	Knoten in \( b \)-Fluss mit \( b(v) &gt; 0 \)		Optimierung III	Definition	Kostenminimale Flüsse				Auch bekannt als <b>Angebotsknoten</b>. \( b (v) \) heißt dann das <b>Angebot</b> in \( v . \)									MiriamDür Optimierung Optimierung3 SoSe20 AlexanderMai UniAugsburg	2005		
Senke in einem \( b \)-Fluss	Knoten in \( b \)-Fluss mit \( b(v) &lt; 0 \)		Optimierung III	Definition	Kostenminimale Flüsse				Auch bekannt als <b>Nachfrageknoten</b>. \( b (v) \) heißt dann die <b>Nachfrage</b> in \( v . \)									MiriamDür Optimierung Optimierung3 SoSe20 AlexanderMai UniAugsburg	2006		
Durchflussknoten in einem \( b \)-Fluss	Knoten in \( b \)-Fluss mit \( b(v) = 0 \)		Optimierung III	Definition	Kostenminimale Flüsse													MiriamDür Optimierung Optimierung3 SoSe20 AlexanderMai UniAugsburg	2007		
Lemma zur Existenz von \( b \)-Flüssen	Es gibt genau dann einen \( b \)-Fluss in \( (G, u, b) , \) wenn maximaler Flusswert in \( (G', u, s, t) = \sum \limits_{v \in V(G) \, | \, b(v) > 0} b(v) \) (Gesamtangebot)		Optimierung III	Lemma	Kostenminimale Flüsse		\( G' \) entsteht aus \( G \) mit Extraknoten \( s, t , \) welche jeweils mit Angebotskanten und Nachfragekanten verbunden werden. Definiere dann \( u(s, v) := b(v), u(v, t) := -b(v) \) 											MiriamDür Optimierung Optimierung3 SoSe20 AlexanderMai UniAugsburg	2008	K1	
Minimum Cost Flow Problem	Finde \( b \)-Fluss \( f \) mit minimalen Kosten. Oder entscheide, dass keiner existiert		Optimierung III	Problem	Kostenminimale Flüsse						Instanz besteht aus Digraph \( G \), Kapazitäten \( u \), Balancen \( b \) und Kosten \( c . \)							MiriamDür Optimierung Optimierung3 SoSe20 AlexanderMai UniAugsburg	2009		
Transshipment Problem	Wie Minimum Cost Flow Problem, aber mit \( u(e) := \infty , \forall e \in E(G) \)		Optimierung III	Problem	Kostenminimale Flüsse													MiriamDür Optimierung Optimierung3 SoSe20 AlexanderMai UniAugsburg	2010		
Hitchcock Problem	Wie Minimum Cost Flow Problem, aber mit \( G \) bipartit		Optimierung III	Problem	Kostenminimale Flüsse				Auch bekannt als <b>Transportproblem</b>.									MiriamDür Optimierung Optimierung3 SoSe20 AlexanderMai UniAugsburg	2011		
Kosten für Kanten \( e \in E (G^\leftrightarrow ) \)	\( c (e) := c (e) , e \in E(G) \) und \( c (e^\leftarrow ) := - c(e) , e^\leftarrow \) Rückwärtskante zu \( e \in E(G) \)		Optimierung III	Definition	Kostenminimale Flüsse													MiriamDür Optimierung Optimierung3 SoSe20 AlexanderMai UniAugsburg	2012		
\( f \)-augmentierender Zykel	Gerichteter Kreis in \( G_f \)		Optimierung III	Definition	Kostenminimale Flüsse			Augmentierung eines \( b \)-Flusses \( f \) entlang eines \( f \)-augmentierenden Zykels ergibt wieder einen \( b \)-Fluss, denn: Augmentierung erhält Einfluss - Ausfluss in jedem Knoten.										MiriamDür Optimierung Optimierung3 SoSe20 AlexanderMai UniAugsburg	2013		
Proposition zu zwei \( b \)-Flüssen	\( f \) und \( f' \) seien \( b \)-Flüsse in \( (G, u, b) . \) Dann gelten folgende Eigenschaften:<br>\( \bullet \) \( g : E(G^\leftrightarrow ) \to \mathbb{R}_+ \) mit \( g(e) := \max \{ 0, f'(e) - f(e) \} , \) falls \( e \) VK, \( g(e) := \max \{ 0, f(e) - f'(e) \} , \) falls \( e \) RK, ist eine Strömung in \( G^\leftrightarrow \)<br>\( \bullet \) \( g(e) = 0 \) für alle Kanten \( e \notin E(G_f) \)<br>\( \bullet \) \( c(g) = c(f') - c(f) \)		Optimierung III	Proposition	Kostenminimale Flüsse				Schreibe \( g = f' \triangle f\)									MiriamDür Optimierung Optimierung3 SoSe20 AlexanderMai UniAugsburg	2014	K1	
Optimalitätskriterium für MCFP	\( b \)-Fluss in \( (G, u, b, c) \) hat minimale Kosten \( \Leftrightarrow \) es gibt keinen \( f \)-augmentierenden Zykel mit negativen Kosten \( \Leftrightarrow \exists \) zulässiges Potential in \( (G_f, c) \)		Optimierung III	Satz	Kostenminimale Flüsse													MiriamDür Optimierung Optimierung3 SoSe20 AlexanderMai UniAugsburg	2015		
Potential	Knotenbewertung \( \pi (v) \in \mathbb{R} , v \in V(G) \)		Optimierung III	Definition	Kostenminimale Flüsse													MiriamDür Optimierung Optimierung3 SoSe20 AlexanderMai UniAugsburg	2016	K1	
Reduzierte Kosten einer Kante	\( c_\pi (x, y) := c (x, y) - ( \pi (y) - \pi (x) ) , \) mit \( \pi \) Potenzial, \( c \) Kosten und \( (x, y) \in E(G) \)		Optimierung III	Definition	Kostenminimale Flüsse		Reduzierte Kosten \( = \) Kosten \( - \) Potentialdifferenz											MiriamDür Optimierung Optimierung3 SoSe20 AlexanderMai UniAugsburg	2017		
Potential zulässig bzgl \( c \)	Potenzial \( \pi , \) mit \( c_\pi (x, y) \ge 0 , \forall (x, y) \in E(G) \)		Optimierung III	Definition	Kostenminimale Flüsse													MiriamDür Optimierung Optimierung3 SoSe20 AlexanderMai UniAugsburg	2018		
Cycle Canceling Algorithmus	alg-cycle-canceling.svg		Optimierung III	Algorithmus	Kostenminimale Flüsse												alg-cycle-canceling.svg	MiriamDür Optimierung Optimierung3 SoSe20 AlexanderMai UniAugsburg	2019		
# S.44					Kostenminimale Flüsse													MiriamDür Optimierung Optimierung3 SoSe20 AlexanderMai UniAugsburg	2020		
#					Kostenminimale Flüsse													MiriamDür Optimierung Optimierung3 SoSe20 AlexanderMai UniAugsburg	2021		
#					Kostenminimale Flüsse													MiriamDür Optimierung Optimierung3 SoSe20 AlexanderMai UniAugsburg	2022		
#					Kostenminimale Flüsse													MiriamDür Optimierung Optimierung3 SoSe20 AlexanderMai UniAugsburg	2023		
#					Kostenminimale Flüsse													MiriamDür Optimierung Optimierung3 SoSe20 AlexanderMai UniAugsburg	2024		
#					Kostenminimale Flüsse													MiriamDür Optimierung Optimierung3 SoSe20 AlexanderMai UniAugsburg	2025		
#					Kostenminimale Flüsse													MiriamDür Optimierung Optimierung3 SoSe20 AlexanderMai UniAugsburg	2026		
#					Kostenminimale Flüsse													MiriamDür Optimierung Optimierung3 SoSe20 AlexanderMai UniAugsburg	2027		
#																					
#																					
#Name	Beschreibung	X Notizen	Vorlesung	Typ	Themenbereich	Formel	Interpretation	FunFacts	Trivia	Beispiele	Lesehinweis	Extras	Literaturhinweis	Übersetzung	X Lernhinweis (F)	X Lernhinweis (B)	Illustration	Tags	ID	einseitig	Priorität
#\(K\)-Vektorraum	\((V, +, \cdot)\) mit \((V, +)\) abelsche Gruppe und Skalarmultiplikation \(K \times V \to V,\ (\lambda, x) \mapsto \lambda \cdot x\) mit den Eigenschaften<br/>\(\bullet\) Distributivität: \(\lambda \cdot (x + y) = (\lambda \cdot x) + (\lambda \cdot y)\) und \((\lambda + \mu) \cdot x = (\lambda \cdot x) + (\mu \cdot x)\)<br/>\(\bullet\) gemischte Assoziativität: \((\lambda \cdot \mu) \cdot x = \lambda \cdot (\mu \cdot x)\)<br/>\(\bullet\) Neutralität des \(1\)-Elements aus \(K\): \(1_K \cdot x = x\)<br/>\(\forall \lambda , \mu \in K,\ \forall x, y \in V\)		Lineare Algebra I	Definition	Vektorräume		"Ein \(K\)-Vektorraum ist eine Menge \(V ,\) auf der eine "Addition" von je zwei Elementen aus \(V\) und eine "Multiplikation" von Elementen aus \(K\) mit Elementen aus \(V\) mit gewissen Eigenschaften wohldefiniert und abgeschlossen sind."		Die Elemente eines Vektorraums \(V\) heißen <b>Vektoren</b>, die Elemente von \(K\) <b>Skalare</b>, und \(K\) heißt <b>Skalarenkörper</b>.<br/>Häufig abgekürzt als <b>Vektorraum</b>, <b>KVR</b> oder <b>VR</b>.	\(K^n\) ist ein \(n\)-dim \(K\)-Vektorraum.<br/>\(\mathbb{R}^n\) ist ein unendlichdimensionaler \(\mathbb{Q}\)-Vektorraum, selbst für \(n = 1\)<br/>\(\mathbb{C}^n\) ist ein \(2n\)-dimensionaler \(\mathbb{R}\)-Vektorraum.	\(K\) ist ein beliebiger Körper.							WolfgangSchneider Algebra LineareAlgebra1 WiSe18/19 AlexanderMai UniAugsburg	3005		
#																					
Matching					Matchings													MiriamDür Optimierung Optimierung3 SoSe20 AlexanderMai UniAugsburg	3001		
Knoten überdeckt	Knoten \( v \in V(G) , \exists e = \{ v, w \} \in \) Matching \( M \)		Optimierung III	Definition	Matchings													MiriamDür Optimierung Optimierung3 SoSe20 AlexanderMai UniAugsburg	3002		
Partner von Knoten in einem Matching	Knoten \( w \) bzgl Knoten \( v , \) mit \( \{ v, w \} \in M \)		Optimierung III	Definition	Matchings													MiriamDür Optimierung Optimierung3 SoSe20 AlexanderMai UniAugsburg	3003		
Knoten exponiert	Knoten nicht überdeckt		Optimierung III	Definition	Matchings													MiriamDür Optimierung Optimierung3 SoSe20 AlexanderMai UniAugsburg	3004		
Matching nicht erweiterbar	Matching \( M , \) mit \( \forall e \in E(G) - M : M + e \) ist kein Matching		Optimierung III	Definition	Matchings			\( M \) ist perfekt \( \Rightarrow M \) ist maximal \( \Rightarrow M \) ist nicht erweiterbar										MiriamDür Optimierung Optimierung3 SoSe20 AlexanderMai UniAugsburg	3005		
Matching maximal	Matching \( M , \) mit \( \forall M' : |M| \ge | M' | \)		Optimierung III	Definition	Matchings			\( M \) ist perfekt \( \Rightarrow M \) ist maximal \( \Rightarrow M \) ist nicht erweiterbar	Bezeichne \( |M| \) in diesem Fall als \( \nu (G) . \)									MiriamDür Optimierung Optimierung3 SoSe20 AlexanderMai UniAugsburg	3006		
Matching perfekt	Matching \( M , \) mit jeder Knoten ist mit einer Kante aus \( M \) inzident.		Optimierung III	Definition	Matchings			\( M \) ist perfekt \( \Rightarrow M \) ist maximal \( \Rightarrow M \) ist nicht erweiterbar	Bezeichne \( |M| \) in diesem Fall als \( \nu (G) . \)									MiriamDür Optimierung Optimierung3 SoSe20 AlexanderMai UniAugsburg	3007		
Chinese Postman Problem	Tour durch Graphen, die jede Kante mindestens einmal durchläuft und minimale Kosten hat unter allen solchen Touren.		Optimierung III	Problem	Matchings													MiriamDür Optimierung Optimierung3 SoSe20 AlexanderMai UniAugsburg	3008		
Chinese Postman Algorithmus	alg-chinese-postman.svg		Optimierung III	Algorithmus	Matchings					alg-chinese-postman-bsp.svg							alg-chinese-postman.svg	MiriamDür Optimierung Optimierung3 SoSe20 AlexanderMai UniAugsburg	3009		
Knotenüberdeckung	Teilmenge \( D \subseteq V(G) , ) mit \( \forall e \in E(G) : e \cap D \neq \emptyset \)		Optimierung III	Definition	Matchings				Auch bekannt als <b>Überdeckende Knotenmenge</b>.					Vertex Cover				MiriamDür Optimierung Optimierung3 SoSe20 AlexanderMai UniAugsburg	3010		
Knotenüberdeckung nicht verkleinerbar	Knotenüberdeckung \( D , \) mit \( \forall v \in V(G) : D - v \) ist keine Knotenüberdeckung		Optimierung III	Definition	Matchings													MiriamDür Optimierung Optimierung3 SoSe20 AlexanderMai UniAugsburg	3011		
Minimale Knotenüberdeckung	Knotenüberdeckung \( D , \) mit \( \forall D' : |D| \le | D' | \)		Optimierung III	Definition	Matchings				Bezeichne \( |MD \) in diesem Fall als \( \tau (G) . \)									MiriamDür Optimierung Optimierung3 SoSe20 AlexanderMai UniAugsburg	3012		
Sätze zum Verhältnis \( \nu (G) \) und \( \tau (G) \)	\( \nu ( G ) \le \tau (G) \le 2 \cdot \nu (G) \)		Optimierung III	Satz	Matchings													MiriamDür Optimierung Optimierung3 SoSe20 AlexanderMai UniAugsburg	3013	K1	
Satz von König	In jedem bipartiten Graphen \( G \) gilt \( \nu (G) = \tau (G) \)		Optimierung III	Satz	Matchings													MiriamDür Optimierung Optimierung3 SoSe20 AlexanderMai UniAugsburg	3014		
Partnermenge von \( X \subseteq V(G) \)	\( \{ v \in V(G) \setminux X \; | \; \exists w \in X : \{ v, w \} \in E(G) \} , \) mit \( X \subseteq V(G) \)		Optimierung III	Definition	Matchings				Oft bezeichnet als \( \Gamma (X) . \)									MiriamDür Optimierung Optimierung3 SoSe20 AlexanderMai UniAugsburg	3015		
Hall-Bedingung	Bipartiter Graph \( G = ( A \cup B , E ) , \) mit \( \forall X \subseteq A : | \Gamma (X) | \ge |X| \)		Optimierung III	Definition	Matchings						\( \Gamma (X) = \{ v \in V(G) \setminux X \; | \; \exists w \in X : \{ v, w \} \in E(G) \} \)							MiriamDür Optimierung Optimierung3 SoSe20 AlexanderMai UniAugsburg	3016		
Satz von Hall	Sei \( G = ( A \cup B , E ) \) bipartiter Graph, dann sind äquivalent:<br>\( \bullet \) \( G \) hat ein Matching, das \( A \) überdeckt<br>\( \bullet \) Für \( A \) gilt die Hall-Bedingung		Optimierung III	Satz	Matchings													MiriamDür Optimierung Optimierung3 SoSe20 AlexanderMai UniAugsburg	3017		
Korollar zu regulärem bipartiten Graph	Jeder regulärer bipartiter Graph besitzt ein perfektes Matching		Optimierung III	Korollar	Matchings													MiriamDür Optimierung Optimierung3 SoSe20 AlexanderMai UniAugsburg	3018	K1	
Satz zu gemeinsamen Matchings in bipartiten Graphen	Für \( G = (A \cup B , E) \) ein bipartiter Graph mit \( X \subseteq A \) und \( Y \subseteq B : \exists M_X \) \( X \)-überdeckendes Matching und \( \exists M_Y \) \( Y \)-überdeckendes Matching, dann \( \exists \) Matching \( M , \) welches \( X \cup Y \) überdeckt		Optimierung III	Satz	Matchings													MiriamDür Optimierung Optimierung3 SoSe20 AlexanderMai UniAugsburg	3019	K1	
Ungerade Komponente	Zusammenhangskomponente eines Graphen mit Anzahl ungerader Komponenten		Optimierung III	Definition	Matchings													MiriamDür Optimierung Optimierung3 SoSe20 AlexanderMai UniAugsburg	3020		
Defizit von \( S \subseteq V(G) \)	\( o(S) - |S| , \) mit \( S \subseteq V(G) , o(S) \) Anzahl ungerader Komponenten von \( G - S \)		Optimierung III	Definition	Matchings			Ein Graph hat genau dann ein perfekts Matching, wenn \( d(S) \le 0 , \) für alle \( S \subseteq V(G) \)	Oft bezeichnet als \( d(S) . \)									MiriamDür Optimierung Optimierung3 SoSe20 AlexanderMai UniAugsburg	3021		
Berge-Tutte-Formel	Anzahl exponierter Knoten \( d = \max \{ d(S) \: | \: S \subseteq V(G) \} \)		Optimierung III	Satz	Matchings	bzw anders ausgedrückt: \( \nu (G) = \frac{1}{2} (n - d) = \max \{ o(S) - |S| \: | \: S \subseteq V(G) \} \)												MiriamDür Optimierung Optimierung3 SoSe20 AlexanderMai UniAugsburg	3022		
Gallai-Edmonds-Zerlegung von Graph \( G \)				Definition	Matchings													MiriamDür Optimierung Optimierung3 SoSe20 AlexanderMai UniAugsburg	3023		
Satz zu Gallai-Edmonds-Zerlegung und exponierten Knoten				Satz	Matchings													MiriamDür Optimierung Optimierung3 SoSe20 AlexanderMai UniAugsburg	3024	K1	
\( M \)-alternierender Weg, mit Matching \( M \)	Elementarer Weg \( P \) in \( G , \) für den \( E(P) - M \) ein Matching ist, d.h. \( O \) enthält alternierend Matching und nicht-Matching Kanten		Optimierung III	Definition	Matchings													MiriamDür Optimierung Optimierung3 SoSe20 AlexanderMai UniAugsburg	3025		
\( M \)-augmentierender Weg, mit Matching \( M \)	\( M \)-alternierender Weg \( P , \) mit beide Endpunkte von \( P \) sind exponiert		Optimierung III	Definition	Matchings			Dann ist \( | E(P) | \) ungerade.										MiriamDür Optimierung Optimierung3 SoSe20 AlexanderMai UniAugsburg	3026		
Satz zur Maximalität von Matchings	Ein Matching \( M \) ist genau dann maximal, wenn es keinen \( M \)-augmentierenden Weg gibt		Optimierung III	Satz	Matchings													MiriamDür Optimierung Optimierung3 SoSe20 AlexanderMai UniAugsburg	3027	K1	
\( M \)-alternierender Baum, mit Matching \( M \)	Baum mit exponierter Wurzel, dessen Wege von der Wurzel bis zu den Blättern \( M \)-alternierende Wege sind. Knoten bekommen entlang dieser Wege abwechselnd das Label S oder T, die Wurzel bekommt S		Optimierung III	Definition	Matchings													MiriamDür Optimierung Optimierung3 SoSe20 AlexanderMai UniAugsburg	3028		
Algorithmus von Edmonds (bipartit)	alg-edmonds-bipartit.svg		Optimierung III	Algorithmus	Matchings			Laufzeit \( \mathcal{O} (mn) . \)		alg-edmonds-bipartit-bsp.svg							alg-edmonds-bipartit.svg	MiriamDür Optimierung Optimierung3 SoSe20 AlexanderMai UniAugsburg	3029		
Blüte bzgl \( M \)-alternierendem Baum	Elementarer Kreis, der in einem \( M \)-alternierenden Baum entsteht, durch eine Kante aus \( E(G) - M \) zwischen zwei S-Knoten oder einer Kante aus \( M \) zwischen zwei T-Knoten		Optimierung III	Definition	Matchings			Für eine Blüte \( B \) gilt:<br>\( \bullet \) \( B \) hat ungerade Knotenzahl \( 2r + 1 \) und \( r \) Matching kanten<br>\( \bullet \) von der Basis aus gibt es innerhalb von \( B \) zu jedem anderen Knoten aus \( B \) alternierende Wege in beide Richtungen										MiriamDür Optimierung Optimierung3 SoSe20 AlexanderMai UniAugsburg	3030		
Basis einer Blüte	Einziger exponierter Knoten von \( G [B] , \) mit Blüte \( B \)		Optimierung III	Definition	Matchings			Dieser Knoten hat Label S										MiriamDür Optimierung Optimierung3 SoSe20 AlexanderMai UniAugsburg	3031		
Stengel einer Blüte				Definition	Matchings													MiriamDür Optimierung Optimierung3 SoSe20 AlexanderMai UniAugsburg	3032		
Kontraktion einer Blüte				Definition	Matchings													MiriamDür Optimierung Optimierung3 SoSe20 AlexanderMai UniAugsburg	3033		
Pseudoknoten \( \nu _B \)	...... in Trivia noch \( G^c B \)			Definition	Matchings													MiriamDür Optimierung Optimierung3 SoSe20 AlexanderMai UniAugsburg	3034		
Ungarischer Baum bzgl \( M \)				Definition	Matchings													MiriamDür Optimierung Optimierung3 SoSe20 AlexanderMai UniAugsburg	3035		
Edmonds Matching Algorithmus	alg-edmonds-matching.svg		Optimierung III	Algorithmus	Matchings			Laufzeit \( \mathcal{O} (n^3) . \)									alg-edmonds-matching.svg	MiriamDür Optimierung Optimierung3 SoSe20 AlexanderMai UniAugsburg	3036		
Odd Set Cover				Definition	Matchings													MiriamDür Optimierung Optimierung3 SoSe20 AlexanderMai UniAugsburg	3037		
Kapazität eines OSC				Definition	Matchings										OSC = Odd Set Cover			MiriamDür Optimierung Optimierung3 SoSe20 AlexanderMai UniAugsburg	3038		
\(G\) ungerichtet, dann: \( \max \{ | M | : M \rm{ ist Matching in } G \} = \ldots \)	\( \ldots = \min \{ c(\mathcal{V} : \mathcal{V} \mathrm{ ist OSC in } G \} \)		Optimierung III	Satz	Matchings													MiriamDür Optimierung Optimierung3 SoSe20 AlexanderMai UniAugsburg	3039		
#																					
#																					
#Name	Beschreibung	X Notizen	Vorlesung	Typ	Themenbereich	Formel	Interpretation	FunFacts	Trivia	Beispiele	Lesehinweis	Extras	Literaturhinweis	Übersetzung	X Lernhinweis (F)	X Lernhinweis (B)	Illustration	Tags	ID	einseitig	Priorität
#\(K\)-Vektorraum	\((V, +, \cdot)\) mit \((V, +)\) abelsche Gruppe und Skalarmultiplikation \(K \times V \to V,\ (\lambda, x) \mapsto \lambda \cdot x\) mit den Eigenschaften<br/>\(\bullet\) Distributivität: \(\lambda \cdot (x + y) = (\lambda \cdot x) + (\lambda \cdot y)\) und \((\lambda + \mu) \cdot x = (\lambda \cdot x) + (\mu \cdot x)\)<br/>\(\bullet\) gemischte Assoziativität: \((\lambda \cdot \mu) \cdot x = \lambda \cdot (\mu \cdot x)\)<br/>\(\bullet\) Neutralität des \(1\)-Elements aus \(K\): \(1_K \cdot x = x\)<br/>\(\forall \lambda , \mu \in K,\ \forall x, y \in V\)		Lineare Algebra I	Definition	Vektorräume		"Ein \(K\)-Vektorraum ist eine Menge \(V ,\) auf der eine "Addition" von je zwei Elementen aus \(V\) und eine "Multiplikation" von Elementen aus \(K\) mit Elementen aus \(V\) mit gewissen Eigenschaften wohldefiniert und abgeschlossen sind."		Die Elemente eines Vektorraums \(V\) heißen <b>Vektoren</b>, die Elemente von \(K\) <b>Skalare</b>, und \(K\) heißt <b>Skalarenkörper</b>.<br/>Häufig abgekürzt als <b>Vektorraum</b>, <b>KVR</b> oder <b>VR</b>.	\(K^n\) ist ein \(n\)-dim \(K\)-Vektorraum.<br/>\(\mathbb{R}^n\) ist ein unendlichdimensionaler \(\mathbb{Q}\)-Vektorraum, selbst für \(n = 1\)<br/>\(\mathbb{C}^n\) ist ein \(2n\)-dimensionaler \(\mathbb{R}\)-Vektorraum.	\(K\) ist ein beliebiger Körper.							WolfgangSchneider Algebra LineareAlgebra1 WiSe18/19 AlexanderMai UniAugsburg	3005		
#																					
effizienter Algorithmus	Algorithmus, dessen Worst Case Laufzeit durch ein Polynom in der Länge des Inputs beschränkt ist			Definition	Komplexitätsklassen P und NP					\( \mathcal{O} ( |V(G)| + |E(G)| ) \)<br>Zusammenhang \( \mathcal{O} (n + m) \)<br>Kürzeste Wege \( \mathcal{O} (n m) \)<br>Max Fluss \( \mathcal{O} (n^3) \)								MiriamDür Optimierung Optimierung3 SoSe20 AlexanderMai UniAugsburg	4001		
Kodierung				Definition	Komplexitätsklassen P und NP													MiriamDür Optimierung Optimierung3 SoSe20 AlexanderMai UniAugsburg	4002		
Länge einer Kodierung von \( I \) mittels \( C \)				Definition	Komplexitätsklassen P und NP						\( I \) Instanz einer Problemklasse, \( C \) Kodierung							MiriamDür Optimierung Optimierung3 SoSe20 AlexanderMai UniAugsburg	4003		
Kodierungen \( C_1, C_2 \) heißen bzgl einer Problemklasse polynomial äquivalent	\( \exists \) Polynome \( p_1, p_2 : \mathbb{N} \to \mathbb{N} \) mit \( \forall \) Instanzen \( I \) der Problemklasse gilt \( \langle C_2 (I) \rangle \le p_1 ( \langle C_1 (I) \rangle \) und \( \langle C_1 (I) \rangle \le p_2 ( \langle C_2 (I) \rangle \)		Optimierung III	Definition	Komplexitätsklassen P und NP					Kodierung einfacher Graphen als Adjazenzmatrix oder Adjazenzlisten, ist polynomial äquivalent.								MiriamDür Optimierung Optimierung3 SoSe20 AlexanderMai UniAugsburg	4004		
Kodierung binär ganze Zahl \( n \)	\( \langle n \rangle = \lceil \log_k ( |n| + 1 ) \rceil + 1 \)		Optimierung III	Beispiel	Komplexitätsklassen P und NP			Unäre Kodierung ist nicht polynomial äquivalent zu binärer Kodierung, da Kodierungslänge unär ist \( \langle n \rangle = n. \)										MiriamDür Optimierung Optimierung3 SoSe20 AlexanderMai UniAugsburg	4005		
Laufzeit \( T_A (I) \) eines Algorithmus \( A \) angewandt auf eine Instanz \( I \) bzgl eines Rechnermodells	Summe der Kosten aller Schritte in \( A \) bei Input \( I \)		Optimierung III	Definition	Komplexitätsklassen P und NP													MiriamDür Optimierung Optimierung3 SoSe20 AlexanderMai UniAugsburg	4006	K1	
Äquivalenzthese für Rechnermodelle	Für alle vernünftigen Rechnermodelle \( i, k \) gilt: Ist \( T_i \) die Laufzeit für Rechnermodell \( i, \) dann unterscheiden sich, abhängig von der gleichen Inputlänge, die Zeiten für Rechenoperationen nur um ein Polynom und der benötigte Speicher um einen konstanten Faktor.		Optimierung III	Definition	Komplexitätsklassen P und NP		„Um ein Polynom unterscheiden“: ist \( T_i \) die Laufzeit auf Rechnermodell \( i, i = 1, 2, \) so existieren Polynome \( p_1, p_2 \) mit<br>\( T_1 (I) \le p_2 ( T_2 (I) ) \) für alle Inputs \( I \) und<br>\( T_2 (I) \le p_1 ( T_1 (I) ) \) für alle Inputs \( I \)											MiriamDür Optimierung Optimierung3 SoSe20 AlexanderMai UniAugsburg	4007		
Zusammenhang Optimierungs- und Entscheidungsproblem	Wenn wir effizient entscheiden können, können wir auch effizient optimieren (binäre Suche)		Optimierung III	Problem	Komplexitätsklassen P und NP													MiriamDür Optimierung Optimierung3 SoSe20 AlexanderMai UniAugsburg	4008	K1	
Komplexitätsklasse P	Menge aller Entscheidungsprobleme \( \Pi , \) für die jeweils mindestens ein Algorithmus \( A \) existiert, der jede Instanz \( I \in \Pi \) in polynomieller Zeit in der Größe der Instanz \( \langle I \rangle \) löst.		Optimierung III	Definition	Komplexitätsklassen P und NP		Also \( T_A (I) \le p ( \langle I \rangle ) , \forall I \in \Pi \)			Kürzeste Wege Problem: Laufzeit \( = | E | + | V | \log (| V |) \le p ( | E | + | V | ) = (|E| + |V|)^2 \)<br>Minimaler Spannbaum: Laufzeit \( = |V|^2 \le p ( |E| + |V| ) = |V|^2 \)	P steht für <b>polynomial time</b>.							MiriamDür Optimierung Optimierung3 SoSe20 AlexanderMai UniAugsburg	4009		
Komplexitätsklasse NP	Menge aller Entscheidungsprobleme \( \Pi , \) für die JA-Instanzen in polynomieller Zeit auf Richtigkeit überprüft werden können.		Optimierung III	Definition	Komplexitätsklassen P und NP			P \( \subseteq \) NP. Konstruiere Zertifikat durch Anwendung eines polynomiellen Algorithmus.<br>Das Vorgehen zur Überprüfung einer JA-Instanz wird <b>Zertifikat</b> genannt.		Hamiltonkreis, Travelling Salesman Problem (TSP)	NP steht für <b>non-deterministic polynomial time</b>.							MiriamDür Optimierung Optimierung3 SoSe20 AlexanderMai UniAugsburg	4010		
Entscheidungsproblem \( \Pi_1 \) heißt polynomiell reduzierbar auf \( \Pi_2 \) 	\( \exists f : \Pi_1 \to \Pi_2 \) Transformation, mit:<br>\( \bullet \) \( \forall I \in \Pi_1 : f(I) \in \Pi_2 \) in polynomieller Zeit konstruierbar<br>\( \bullet \) \( I \) ist JA-Instanz von \( Pi_1 \Leftrightarrow f (I) \) ist JA-Instanz von \( \Pi_2 \)		Optimierung III	Definition	Komplexitätsklassen P und NP			Schreibe \( \Pi_1 \le \Pi_2 \)		Hamiltonkreis ist auf TSP reduzierbar: \( G \) hat Hamiltonkreis \( \Leftrightarrow f (G) = (G', c) \) besitzt Tour mit Länge \( \le |V| . \) Transformation durch Graph unverändert, mit Kosten für jede Kante gleich \( 1 . \)								MiriamDür Optimierung Optimierung3 SoSe20 AlexanderMai UniAugsburg	4011	K1	
Hamiltonkreis Problem	Graph \( G , \) existiert Kreis, der jeden Knoten von \( G \) genau einmal durchläuft?		Optimierung III	Problem	Komplexitätsklassen P und NP													MiriamDür Optimierung Optimierung3 SoSe20 AlexanderMai UniAugsburg	4012		
Travelling Salesman Problem (TSP)	Graph \( G , \) Kosten \( c , \) existiert Tour durch alle Knoten mit bestimmten Höchstkosten?		Optimierung III	Problem	Komplexitätsklassen P und NP													MiriamDür Optimierung Optimierung3 SoSe20 AlexanderMai UniAugsburg	4013		
Problemklasse heißt NP-vollständig	Problemklasse \( \Pi \in \) NP, mit \( A \le \Pi , \forall \A \in \) NP		Optimierung III	Definition	Komplexitätsklassen P und NP						\( \le \) steht für „polynomiell reduzierbar zu“.							MiriamDür Optimierung Optimierung3 SoSe20 AlexanderMai UniAugsburg	4014		
Problemklasse NPC	Menge aller NP-vollständigen Probleme		Optimierung III	Definition	Komplexitätsklassen P und NP						NPC steht für <b>NP-complete</b>.							MiriamDür Optimierung Optimierung3 SoSe20 AlexanderMai UniAugsburg	4015		
#					Komplexitätsklassen P und NP													MiriamDür Optimierung Optimierung3 SoSe20 AlexanderMai UniAugsburg	4016		
#					Komplexitätsklassen P und NP													MiriamDür Optimierung Optimierung3 SoSe20 AlexanderMai UniAugsburg	4017		
#					Komplexitätsklassen P und NP													MiriamDür Optimierung Optimierung3 SoSe20 AlexanderMai UniAugsburg	4018		
#					Komplexitätsklassen P und NP													MiriamDür Optimierung Optimierung3 SoSe20 AlexanderMai UniAugsburg	4019		
#					Komplexitätsklassen P und NP													MiriamDür Optimierung Optimierung3 SoSe20 AlexanderMai UniAugsburg	4020		
#					Komplexitätsklassen P und NP													MiriamDür Optimierung Optimierung3 SoSe20 AlexanderMai UniAugsburg	4021		
Algorithmus pseudopolynomiell					Komplexitätsklassen P und NP													MiriamDür Optimierung Optimierung3 SoSe20 AlexanderMai UniAugsburg	4022		
#					Komplexitätsklassen P und NP													MiriamDür Optimierung Optimierung3 SoSe20 AlexanderMai UniAugsburg	4023		
Problemklasse heißt stark NP-vollständig																		MiriamDür Optimierung Optimierung3 SoSe20 AlexanderMai UniAugsburg	4024		
#																		MiriamDür Optimierung Optimierung3 SoSe20 AlexanderMai UniAugsburg	4025		
#																		MiriamDür Optimierung Optimierung3 SoSe20 AlexanderMai UniAugsburg	4026		
#																					
#Name	Beschreibung	X Notizen	Vorlesung	Typ	Themenbereich	Formel	Interpretation	FunFacts	Trivia	Beispiele	Lesehinweis	Extras	Literaturhinweis	Übersetzung	X Lernhinweis (F)	X Lernhinweis (B)	Illustration	Tags	ID	einseitig	Priorität
#\(K\)-Vektorraum	\((V, +, \cdot)\) mit \((V, +)\) abelsche Gruppe und Skalarmultiplikation \(K \times V \to V,\ (\lambda, x) \mapsto \lambda \cdot x\) mit den Eigenschaften<br/>\(\bullet\) Distributivität: \(\lambda \cdot (x + y) = (\lambda \cdot x) + (\lambda \cdot y)\) und \((\lambda + \mu) \cdot x = (\lambda \cdot x) + (\mu \cdot x)\)<br/>\(\bullet\) gemischte Assoziativität: \((\lambda \cdot \mu) \cdot x = \lambda \cdot (\mu \cdot x)\)<br/>\(\bullet\) Neutralität des \(1\)-Elements aus \(K\): \(1_K \cdot x = x\)<br/>\(\forall \lambda , \mu \in K,\ \forall x, y \in V\)		Lineare Algebra I	Definition	Vektorräume		"Ein \(K\)-Vektorraum ist eine Menge \(V ,\) auf der eine "Addition" von je zwei Elementen aus \(V\) und eine "Multiplikation" von Elementen aus \(K\) mit Elementen aus \(V\) mit gewissen Eigenschaften wohldefiniert und abgeschlossen sind."		Die Elemente eines Vektorraums \(V\) heißen <b>Vektoren</b>, die Elemente von \(K\) <b>Skalare</b>, und \(K\) heißt <b>Skalarenkörper</b>.<br/>Häufig abgekürzt als <b>Vektorraum</b>, <b>KVR</b> oder <b>VR</b>.	\(K^n\) ist ein \(n\)-dim \(K\)-Vektorraum.<br/>\(\mathbb{R}^n\) ist ein unendlichdimensionaler \(\mathbb{Q}\)-Vektorraum, selbst für \(n = 1\)<br/>\(\mathbb{C}^n\) ist ein \(2n\)-dimensionaler \(\mathbb{R}\)-Vektorraum.	\(K\) ist ein beliebiger Körper.							WolfgangSchneider Algebra LineareAlgebra1 WiSe18/19 AlexanderMai UniAugsburg	3005		
#																					
Approximationsalgorithmus				Definition	Approximationsalgorithmen			Es gibt auch absolute Approximationsalgorithmen. Diese haben einen absoluten Fehler, wie z.B. der Satz von Vinzig, der einen absoluten Fehler von \( 1 \) hat.										MiriamDür Optimierung Optimierung3 SoSe20 AlexanderMai UniAugsburg	5001		
Gütegarantie eines Approximationsalgorithmus				Definition	Approximationsalgorithmen													MiriamDür Optimierung Optimierung3 SoSe20 AlexanderMai UniAugsburg	5002		
Metrisches TSP				Problem	Approximationsalgorithmen													MiriamDür Optimierung Optimierung3 SoSe20 AlexanderMai UniAugsburg	5003		
Doppelbaum-Algorithmus	alg-doppelbaum.svg		Optimierung III	Algorithmus	Approximationsalgorithmen			Der Doppelbaumalgorithmus ist eine \( 2 \)-Approximation.									alg-doppelbaum.svg	MiriamDür Optimierung Optimierung3 SoSe20 AlexanderMai UniAugsburg	5004		
Christofides Algorithmus	alg-christofide.svg		Optimierung III	Algorithmus	Approximationsalgorithmen			Christofides Algorithmus ist ein polynomieller \( 3 / 2 \)-Approximationsalgorithmus.									alg-christofide.svg	MiriamDür Optimierung Optimierung3 SoSe20 AlexanderMai UniAugsburg	5005		
Kantenfärbung				Definition	Approximationsalgorithmen													MiriamDür Optimierung Optimierung3 SoSe20 AlexanderMai UniAugsburg	5006		
Kanten-chromatische Zahl eines Graphen \( G \)				Definition	Approximationsalgorithmen													MiriamDür Optimierung Optimierung3 SoSe20 AlexanderMai UniAugsburg	5007		
Einfacher ungerichteter Graph \( G \) mit Maximalgrad \( d \) hat \( \ldots \)	\( \ldots \) eine Kantenfärbung mit maximal \( d + 1 \) Farben. Ist in polynomialer Zeit konstruierbar.		Optimierung III	Satz	Approximationsalgorithmen													MiriamDür Optimierung Optimierung3 SoSe20 AlexanderMai UniAugsburg	5008	K1	
Approximationsschema für eine Problemklasse \( P \)				Definition	Approximationsalgorithmen													MiriamDür Optimierung Optimierung3 SoSe20 AlexanderMai UniAugsburg	5009		
Approximationsschema heißt voll polynomial				Definition	Approximationsalgorithmen													MiriamDür Optimierung Optimierung3 SoSe20 AlexanderMai UniAugsburg	5010		
Knapsack-Problem				Problem	Approximationsalgorithmen			Ist schwach NP-vollständig.										MiriamDür Optimierung Optimierung3 SoSe20 AlexanderMai UniAugsburg	5011		
Dynamisches-Programm für Knapsack	alg-dynamisches-programm.svg		Optimierung III	Algorithmus	Approximationsalgorithmen			Laufzeit \( \mathcal{O} (n \cdot W) . \)									alg-dynamisches-programm.svg	MiriamDür Optimierung Optimierung3 SoSe20 AlexanderMai UniAugsburg	5012		
