<?xml version="1.0" encoding="UTF-8" standalone="no"?>
<!-- Created with Inkscape (http://www.inkscape.org/) -->

<svg
   xmlns:dc="http://purl.org/dc/elements/1.1/"
   xmlns:cc="http://creativecommons.org/ns#"
   xmlns:rdf="http://www.w3.org/1999/02/22-rdf-syntax-ns#"
   xmlns:svg="http://www.w3.org/2000/svg"
   xmlns="http://www.w3.org/2000/svg"
   xmlns:sodipodi="http://sodipodi.sourceforge.net/DTD/sodipodi-0.dtd"
   xmlns:inkscape="http://www.inkscape.org/namespaces/inkscape"
   width="196.68271mm"
   height="168.96274mm"
   viewBox="0 0 196.68271 168.96274"
   version="1.1"
   id="svg8"
   inkscape:version="0.92.3 (2405546, 2018-03-11)"
   sodipodi:docname="geo-cylinder-fundamental-region.svg">
  <defs
     id="defs2" />
  <sodipodi:namedview
     id="base"
     pagecolor="#ffffff"
     bordercolor="#666666"
     borderopacity="1.0"
     inkscape:pageopacity="0.0"
     inkscape:pageshadow="2"
     inkscape:zoom="0.70710678"
     inkscape:cx="438.82605"
     inkscape:cy="289.55786"
     inkscape:document-units="mm"
     inkscape:current-layer="layer1"
     showgrid="false"
     inkscape:window-width="1600"
     inkscape:window-height="833"
     inkscape:window-x="0"
     inkscape:window-y="0"
     inkscape:window-maximized="1"
     fit-margin-top="15"
     fit-margin-bottom="15"
     fit-margin-right="15"
     fit-margin-left="15" />
  <metadata
     id="metadata5">
    <rdf:RDF>
      <cc:Work
         rdf:about="">
        <dc:format>image/svg+xml</dc:format>
        <dc:type
           rdf:resource="http://purl.org/dc/dcmitype/StillImage" />
        <dc:title></dc:title>
      </cc:Work>
    </rdf:RDF>
  </metadata>
  <g
     inkscape:label="Ebene 1"
     inkscape:groupmode="layer"
     id="layer1"
     transform="translate(0.10983431,-33.34242)">
    <path
       style="stroke-width:0.22146103;fill:#00ffff;fill-opacity:0.49803922"
       d="m 83.986323,38.415655 v 113.328995 44.5823 l 6.688998,-2.61535 5.481836,2.61535 5.762953,-2.61535 5.87871,2.61535 5.8291,-2.61535 6.7474,2.61535 V 151.74465 38.415655 l -6.7474,2.614828 -5.8291,-2.614828 -5.87871,2.614828 -5.762953,-2.614828 -5.481836,2.614828 z"
       id="rect50"
       inkscape:connector-curvature="0" />
    <path
       style="fill:none;stroke:#505050;stroke-width:0.68585896;stroke-linecap:round;stroke-linejoin:round;stroke-miterlimit:4;stroke-dasharray:2.74343592, 2.74343592;stroke-dashoffset:0;stroke-opacity:1"
       d="M 83.922631,48.690235 V 186.95733"
       id="path4566"
       inkscape:connector-curvature="0" />
    <path
       style="fill:none;stroke:#505050;stroke-width:0.68585896;stroke-linecap:round;stroke-linejoin:round;stroke-miterlimit:4;stroke-dasharray:2.74343596, 2.74343596;stroke-dashoffset:0;stroke-opacity:1"
       d="M 47.478397,48.690234 V 186.95733"
       id="path4566-3"
       inkscape:connector-curvature="0" />
    <path
       style="fill:none;stroke:#000000;stroke-width:0.692384;stroke-linecap:round;stroke-linejoin:round;stroke-miterlimit:4;stroke-dasharray:none;stroke-opacity:1"
       d="M 23.798108,150.26903 H 178.59744"
       id="path3713"
       inkscape:connector-curvature="0" />
    <path
       style="fill:none;stroke:#000000;stroke-width:0.69999999;stroke-linecap:round;stroke-linejoin:round;stroke-miterlimit:4;stroke-dasharray:none;stroke-opacity:1"
       d="m 171.64076,144.3891 6.949,5.87993"
       id="path3715"
       inkscape:connector-curvature="0" />
    <path
       style="fill:none;stroke:#000000;stroke-width:0.69999999;stroke-linecap:round;stroke-linejoin:round;stroke-miterlimit:4;stroke-dasharray:none;stroke-opacity:1"
       d="m 171.64076,156.14896 6.949,-5.87993"
       id="path3715-3"
       inkscape:connector-curvature="0" />
    <path
       style="fill:none;stroke:#000000;stroke-width:0.69999999;stroke-linecap:round;stroke-linejoin:round;stroke-miterlimit:4;stroke-dasharray:none;stroke-opacity:1"
       d="M 47.486035,172.71967 V 55.922889"
       id="path3713-6"
       inkscape:connector-curvature="0" />
    <path
       style="fill:none;stroke:#000000;stroke-width:0.69999999;stroke-linecap:round;stroke-linejoin:round;stroke-miterlimit:4;stroke-dasharray:none;stroke-opacity:1"
       d="m 41.651312,62.871889 5.87993,-6.949"
       id="path3715-7"
       inkscape:connector-curvature="0" />
    <path
       style="fill:none;stroke:#000000;stroke-width:0.69999999;stroke-linecap:round;stroke-linejoin:round;stroke-miterlimit:4;stroke-dasharray:none;stroke-opacity:1"
       d="m 53.411172,62.871889 -5.87993,-6.949"
       id="path3715-3-5"
       inkscape:connector-curvature="0" />
    <g
       id="g4589"
       transform="matrix(1.2519953,0,0,1,-11.975696,2.2678571)">
      <path
         inkscape:connector-curvature="0"
         id="path4570"
         d="m 47.531242,172.71967 c 0,0 -0.378712,2.4775 4.157001,2.57199 4.535715,0.0945 10.394346,-0.94494 10.394346,2.17337"
         style="fill:none;stroke:#000000;stroke-width:0.26458332px;stroke-linecap:butt;stroke-linejoin:miter;stroke-opacity:1" />
      <path
         inkscape:connector-curvature="0"
         id="path4570-3"
         d="m 76.633937,172.71967 c 0,0 0.378712,2.4775 -4.157001,2.57199 -4.535715,0.0945 -10.394347,-0.94494 -10.394347,2.17337"
         style="fill:none;stroke:#000000;stroke-width:0.26458332px;stroke-linecap:butt;stroke-linejoin:miter;stroke-opacity:1" />
    </g>
    <text
       xml:space="preserve"
       style="font-style:normal;font-weight:normal;font-size:8.09067249px;line-height:1.25;font-family:sans-serif;letter-spacing:0px;word-spacing:0px;fill:#000000;fill-opacity:1;stroke:none;stroke-width:0.2022668"
       x="62.763729"
       y="186.91917"
       id="text4593"><tspan
         sodipodi:role="line"
         id="tspan4591"
         x="62.763729"
         y="186.91917"
         style="stroke-width:0.2022668">α</tspan></text>
    <circle
       style="fill:#00ba00;fill-opacity:1;stroke:none;stroke-width:0.56345522;stroke-linecap:round;stroke-linejoin:round;stroke-miterlimit:4;stroke-dasharray:2.25382086, 2.25382086;stroke-dashoffset:0;stroke-opacity:1"
       id="path4675"
       cx="52.870659"
       cy="138.68481"
       r="1.5440518" />
    <circle
       style="fill:#ff00ff;fill-opacity:1;stroke:none;stroke-width:0.56345522;stroke-linecap:round;stroke-linejoin:round;stroke-miterlimit:4;stroke-dasharray:2.25382089, 2.25382089;stroke-dashoffset:0;stroke-opacity:1"
       id="path4675-2"
       cx="70.719513"
       cy="96.628036"
       r="1.5440518" />
    <path
       style="fill:none;stroke:#505050;stroke-width:0.68585896;stroke-linecap:round;stroke-linejoin:round;stroke-miterlimit:4;stroke-dasharray:2.74343596, 2.74343596;stroke-dashoffset:0;stroke-opacity:1"
       d="M 120.36687,48.690234 V 186.95734"
       id="path4566-2"
       inkscape:connector-curvature="0" />
    <circle
       style="fill:#00ba00;fill-opacity:1;stroke:none;stroke-width:0.56345522;stroke-linecap:round;stroke-linejoin:round;stroke-miterlimit:4;stroke-dasharray:2.25382089, 2.25382089;stroke-dashoffset:0;stroke-opacity:1"
       id="path4675-1"
       cx="89.307098"
       cy="138.68481"
       r="1.5440518" />
    <circle
       style="fill:#ff00ff;fill-opacity:1;stroke:none;stroke-width:0.56345522;stroke-linecap:round;stroke-linejoin:round;stroke-miterlimit:4;stroke-dasharray:2.25382091, 2.25382091;stroke-dashoffset:0;stroke-opacity:1"
       id="path4675-2-2"
       cx="107.15595"
       cy="96.628036"
       r="1.5440518" />
    <circle
       style="fill:#00ba00;fill-opacity:1;stroke:none;stroke-width:0.56345522;stroke-linecap:round;stroke-linejoin:round;stroke-miterlimit:4;stroke-dasharray:2.25382089, 2.25382089;stroke-dashoffset:0;stroke-opacity:1"
       id="path4675-8"
       cx="125.74353"
       cy="138.68481"
       r="1.5440518" />
    <circle
       style="fill:#ff00ff;fill-opacity:1;stroke:none;stroke-width:0.56345522;stroke-linecap:round;stroke-linejoin:round;stroke-miterlimit:4;stroke-dasharray:2.25382091, 2.25382091;stroke-dashoffset:0;stroke-opacity:1"
       id="path4675-2-4"
       cx="143.59239"
       cy="96.628036"
       r="1.5440518" />
    <circle
       style="fill:#00ba00;fill-opacity:1;stroke:none;stroke-width:0.56345522;stroke-linecap:round;stroke-linejoin:round;stroke-miterlimit:4;stroke-dasharray:2.25382089, 2.25382089;stroke-dashoffset:0;stroke-opacity:1"
       id="path4675-20"
       cx="162.17998"
       cy="138.68481"
       r="1.5440518" />
    <circle
       style="fill:#ff00ff;fill-opacity:1;stroke:none;stroke-width:0.56345522;stroke-linecap:round;stroke-linejoin:round;stroke-miterlimit:4;stroke-dasharray:2.25382091, 2.25382091;stroke-dashoffset:0;stroke-opacity:1"
       id="path4675-2-6"
       cx="180.02882"
       cy="96.628036"
       r="1.5440518" />
    <circle
       style="fill:#00ba00;fill-opacity:1;stroke:none;stroke-width:0.56345522;stroke-linecap:round;stroke-linejoin:round;stroke-miterlimit:4;stroke-dasharray:2.25382089, 2.25382089;stroke-dashoffset:0;stroke-opacity:1"
       id="path4675-4"
       cx="16.434217"
       cy="138.68481"
       r="1.5440518" />
    <circle
       style="fill:#ff00ff;fill-opacity:1;stroke:none;stroke-width:0.56345522;stroke-linecap:round;stroke-linejoin:round;stroke-miterlimit:4;stroke-dasharray:2.25382091, 2.25382091;stroke-dashoffset:0;stroke-opacity:1"
       id="path4675-2-7"
       cx="34.283077"
       cy="96.628044"
       r="1.5440518" />
    <text
       xml:space="preserve"
       style="font-style:normal;font-weight:normal;font-size:7.05555534px;line-height:1000;font-family:sans-serif;letter-spacing:0px;word-spacing:0px;fill:#00ba00;fill-opacity:1;stroke:none;stroke-width:0.26458332"
       x="53.507359"
       y="146.76781"
       id="text4830"><tspan
         sodipodi:role="line"
         x="53.507359"
         y="146.76781"
         style="font-size:7.05555534px;line-height:1000;fill:#00ba00;fill-opacity:1;stroke-width:0.26458332"
         id="tspan4832">Q</tspan></text>
    <text
       xml:space="preserve"
       style="font-style:normal;font-weight:normal;font-size:10.58333302px;line-height:1000;font-family:sans-serif;letter-spacing:0px;word-spacing:0px;fill:#000000;fill-opacity:1;stroke:none;stroke-width:0.26458332"
       x="60.803814"
       y="121.51083"
       id="text4838"><tspan
         sodipodi:role="line"
         id="tspan4836"
         x="60.803814"
         y="5415.9268"
         style="stroke-width:0.26458332" /></text>
    <text
       xml:space="preserve"
       style="font-style:normal;font-weight:normal;font-size:7.05555534px;line-height:1000;font-family:sans-serif;letter-spacing:0px;word-spacing:0px;fill:#00ba00;fill-opacity:1;stroke:none;stroke-width:0.26458332"
       x="89.45797"
       y="146.31207"
       id="text4830-1"><tspan
         sodipodi:role="line"
         x="89.45797"
         y="146.31207"
         style="font-size:7.05555534px;line-height:1000;fill:#00ba00;fill-opacity:1;stroke-width:0.26458332"
         id="tspan4832-4">tQ</tspan></text>
    <text
       xml:space="preserve"
       style="font-style:normal;font-weight:normal;font-size:7.05555534px;line-height:1000;font-family:sans-serif;letter-spacing:0px;word-spacing:0px;fill:#00ba00;fill-opacity:1;stroke:none;stroke-width:0.26458332"
       x="126.31444"
       y="146.49916"
       id="text4830-9"><tspan
         sodipodi:role="line"
         x="126.31444"
         y="146.49916"
         style="font-size:7.05555534px;line-height:1000;fill:#00ba00;fill-opacity:1;stroke-width:0.26458332"
         id="tspan4832-2">t<tspan
   style="font-size:64.99999762%;baseline-shift:super"
   id="tspan4912">2</tspan>Q</tspan></text>
    <text
       xml:space="preserve"
       style="font-style:normal;font-weight:normal;font-size:7.05555534px;line-height:1000;font-family:sans-serif;letter-spacing:0px;word-spacing:0px;fill:#ff00ff;fill-opacity:1;stroke:none;stroke-width:0.26458332"
       x="64.919762"
       y="93.260437"
       id="text4868"><tspan
         sodipodi:role="line"
         id="tspan4866"
         x="64.919762"
         y="93.260437"
         style="font-size:7.05555534px;fill:#ff00ff;fill-opacity:1;stroke-width:0.26458332">P</tspan></text>
    <text
       xml:space="preserve"
       style="font-style:normal;font-weight:normal;font-size:7.05555534px;line-height:1000;font-family:sans-serif;letter-spacing:0px;word-spacing:0px;fill:#ff00ff;fill-opacity:1;stroke:none;stroke-width:0.26458332"
       x="28.703718"
       y="93.400047"
       id="text4868-0"><tspan
         sodipodi:role="line"
         id="tspan4866-6"
         x="28.703718"
         y="93.400047"
         style="font-size:7.05555534px;fill:#ff00ff;fill-opacity:1;stroke-width:0.26458332">t<tspan
   style="font-size:64.99999762%;baseline-shift:super"
   id="tspan4908">-1</tspan>P</tspan></text>
    <text
       xml:space="preserve"
       style="font-style:normal;font-weight:normal;font-size:7.05555534px;line-height:1000;font-family:sans-serif;letter-spacing:0px;word-spacing:0px;fill:#ff00ff;fill-opacity:1;stroke:none;stroke-width:0.26458332"
       x="101.6683"
       y="93.212959"
       id="text4868-8"><tspan
         sodipodi:role="line"
         id="tspan4866-9"
         x="101.6683"
         y="93.212959"
         style="font-size:7.05555534px;fill:#ff00ff;fill-opacity:1;stroke-width:0.26458332">tP</tspan></text>
    <text
       xml:space="preserve"
       style="font-style:normal;font-weight:normal;font-size:7.05555534px;line-height:1000;font-family:sans-serif;letter-spacing:0px;word-spacing:0px;fill:#ff00ff;fill-opacity:1;stroke:none;stroke-width:0.26458332"
       x="138.33768"
       y="93.400047"
       id="text4868-2"><tspan
         sodipodi:role="line"
         id="tspan4866-66"
         x="138.33768"
         y="93.400047"
         style="font-size:7.05555534px;fill:#ff00ff;fill-opacity:1;stroke-width:0.26458332">t<tspan
   style="font-size:64.99999762%;baseline-shift:super"
   id="tspan4910">2</tspan>P</tspan></text>
  </g>
</svg>
