<?xml version="1.0" encoding="UTF-8" standalone="no"?>
<!-- Created with Inkscape (http://www.inkscape.org/) -->

<svg
   xmlns:dc="http://purl.org/dc/elements/1.1/"
   xmlns:cc="http://creativecommons.org/ns#"
   xmlns:rdf="http://www.w3.org/1999/02/22-rdf-syntax-ns#"
   xmlns:svg="http://www.w3.org/2000/svg"
   xmlns="http://www.w3.org/2000/svg"
   xmlns:xlink="http://www.w3.org/1999/xlink"
   xmlns:sodipodi="http://sodipodi.sourceforge.net/DTD/sodipodi-0.dtd"
   xmlns:inkscape="http://www.inkscape.org/namespaces/inkscape"
   sodipodi:docname="patch-notes-logo.svg"
   inkscape:version="0.92.3 (2405546, 2018-03-11)"
   id="svg8"
   version="1.1"
   viewBox="0 0 200 100"
   height="100mm"
   width="200mm">
  <sodipodi:namedview
     inkscape:window-maximized="1"
     inkscape:window-y="0"
     inkscape:window-x="0"
     inkscape:window-height="1015"
     inkscape:window-width="1920"
     inkscape:snap-global="false"
     showgrid="false"
     inkscape:current-layer="layer6"
     inkscape:document-units="mm"
     inkscape:cy="155.88994"
     inkscape:cx="435.72587"
     inkscape:zoom="0.98994949"
     inkscape:pageshadow="2"
     inkscape:pageopacity="0.0"
     borderopacity="1.0"
     bordercolor="#666666"
     pagecolor="#ffffff"
     id="base" />
  <defs
     id="defs2">
    <linearGradient
       inkscape:collect="always"
       id="linearGradient937">
      <stop
         style="stop-color:#ffffff;stop-opacity:1;"
         offset="0"
         id="stop933" />
      <stop
         style="stop-color:#ffffff;stop-opacity:0;"
         offset="1"
         id="stop935" />
    </linearGradient>
    <inkscape:perspective
       sodipodi:type="inkscape:persp3d"
       inkscape:vp_x="0 : 15.999999 : 1"
       inkscape:vp_y="0 : 999.99997 : 0"
       inkscape:vp_z="31.999998 : 15.999999 : 1"
       inkscape:persp3d-origin="15.999999 : 10.666667 : 1"
       id="perspective125" />
    <linearGradient
       id="linearGradient4843">
      <stop
         style="stop-color:white;stop-opacity:0.49411765;"
         offset="0"
         id="stop4845" />
      <stop
         style="stop-color:white;stop-opacity:0.25098041;"
         offset="1"
         id="stop4847" />
    </linearGradient>
    <linearGradient
       id="linearGradient4825">
      <stop
         id="stop4827"
         offset="0"
         style="stop-color:#0084dd;stop-opacity:1" />
      <stop
         id="stop4829"
         offset="1"
         style="stop-color:white;stop-opacity:1" />
    </linearGradient>
    <clipPath
       clipPathUnits="userSpaceOnUse"
       id="clipPath2815">
      <rect
         style="opacity:1;fill:#d533e4;fill-opacity:0.54098361;stroke:none;stroke-width:1;stroke-miterlimit:4;stroke-dasharray:none;stroke-opacity:1"
         id="rect1913"
         width="23"
         height="30"
         x="5"
         y="1"
         ry="4.6187186"
         rx="4.6187186" />
    </clipPath>
    <clipPath
       clipPathUnits="userSpaceOnUse"
       id="clipPath2868">
      <rect
         style="opacity:1;fill:none;fill-opacity:1;stroke:#000000;stroke-width:1;stroke-miterlimit:4;stroke-dasharray:none;stroke-opacity:1"
         id="rect1950"
         width="41"
         height="28"
         x="19.880381"
         y="16.849239"
         ry="4"
         rx="4" />
    </clipPath>
    <clipPath
       clipPathUnits="userSpaceOnUse"
       id="clipPath4004">
      <rect
         rx="4.6187186"
         ry="4.6187186"
         y="1"
         x="5"
         height="30"
         width="45"
         id="rect4000"
         style="opacity:1;fill:#d533e4;fill-opacity:0.54098361;stroke:none;stroke-width:1;stroke-miterlimit:4;stroke-dasharray:none;stroke-opacity:1" />
    </clipPath>
    <clipPath
       clipPathUnits="userSpaceOnUse"
       id="clipPath4011">
      <rect
         rx="4"
         ry="4"
         y="16.849239"
         x="19.880381"
         height="28"
         width="43"
         id="rect4002"
         style="opacity:1;fill:#e51be8;fill-opacity:0.53551911;stroke:none;stroke-width:1;stroke-miterlimit:4;stroke-dasharray:none;stroke-opacity:1" />
    </clipPath>
    <clipPath
       clipPathUnits="userSpaceOnUse"
       id="clipPath2868-3">
      <rect
         style="opacity:1;fill:none;fill-opacity:1;stroke:#000000;stroke-width:1;stroke-miterlimit:4;stroke-dasharray:none;stroke-opacity:1"
         id="rect1950-5"
         width="41"
         height="28"
         x="19.880381"
         y="16.849239"
         ry="4"
         rx="4" />
    </clipPath>
    <linearGradient
       gradientUnits="userSpaceOnUse"
       y2="451.32477"
       x2="321.93466"
       y1="451.32477"
       x1="128.32144"
       id="linearGradient1404"
       xlink:href="#linearGradient4825"
       inkscape:collect="always" />
    <clipPath
       clipPathUnits="userSpaceOnUse"
       id="clipPath2868-5">
      <rect
         style="opacity:1;fill:none;fill-opacity:1;stroke:#000000;stroke-width:1;stroke-miterlimit:4;stroke-dasharray:none;stroke-opacity:1"
         id="rect1950-0"
         width="41"
         height="28"
         x="19.880381"
         y="16.849239"
         ry="4"
         rx="4" />
    </clipPath>
    <linearGradient
       y2="542.33295"
       x2="188.00023"
       y1="412.82977"
       x1="253.74718"
       gradientUnits="userSpaceOnUse"
       id="linearGradient1302-1-6"
       xlink:href="#linearGradient4825"
       inkscape:collect="always" />
    <linearGradient
       y2="282.36218"
       x2="292"
       y1="441.86218"
       x1="247"
       gradientTransform="matrix(0.60112084,0,0,0.12278382,-38.390693,20.176469)"
       gradientUnits="userSpaceOnUse"
       id="linearGradient1304-4-6"
       xlink:href="#linearGradient4843"
       inkscape:collect="always" />
    <inkscape:perspective
       sodipodi:type="inkscape:persp3d"
       inkscape:vp_x="0 : 15.999999 : 1"
       inkscape:vp_y="0 : 999.99997 : 0"
       inkscape:vp_z="31.999998 : 15.999999 : 1"
       inkscape:persp3d-origin="15.999999 : 10.666667 : 1"
       id="perspective125-9" />
    <linearGradient
       id="linearGradient2878"
       inkscape:collect="always">
      <stop
         id="stop2880"
         offset="0"
         style="stop-color:black;stop-opacity:1" />
      <stop
         id="stop2882"
         offset="1"
         style="stop-color:#898989;stop-opacity:1" />
    </linearGradient>
    <clipPath
       clipPathUnits="userSpaceOnUse"
       id="clipPath2815-2">
      <rect
         style="opacity:1;fill:#d533e4;fill-opacity:0.54098361;stroke:none;stroke-width:1;stroke-miterlimit:4;stroke-dasharray:none;stroke-opacity:1"
         id="rect1913-6"
         width="23"
         height="30"
         x="5"
         y="1"
         ry="4.6187186"
         rx="4.6187186" />
    </clipPath>
    <clipPath
       clipPathUnits="userSpaceOnUse"
       id="clipPath2868-1">
      <rect
         style="opacity:1;fill:none;fill-opacity:1;stroke:#000000;stroke-width:1;stroke-miterlimit:4;stroke-dasharray:none;stroke-opacity:1"
         id="rect1950-8"
         width="41"
         height="28"
         x="19.880381"
         y="16.849239"
         ry="4"
         rx="4" />
    </clipPath>
    <clipPath
       clipPathUnits="userSpaceOnUse"
       id="clipPath4004-7">
      <rect
         rx="4.6187186"
         ry="4.6187186"
         y="1"
         x="5"
         height="30"
         width="45"
         id="rect4000-9"
         style="opacity:1;fill:#d533e4;fill-opacity:0.54098361;stroke:none;stroke-width:1;stroke-miterlimit:4;stroke-dasharray:none;stroke-opacity:1" />
    </clipPath>
    <clipPath
       clipPathUnits="userSpaceOnUse"
       id="clipPath4011-2">
      <rect
         rx="4"
         ry="4"
         y="16.849239"
         x="19.880381"
         height="28"
         width="43"
         id="rect4002-0"
         style="opacity:1;fill:#e51be8;fill-opacity:0.53551911;stroke:none;stroke-width:1;stroke-miterlimit:4;stroke-dasharray:none;stroke-opacity:1" />
    </clipPath>
    <clipPath
       clipPathUnits="userSpaceOnUse"
       id="clipPath2868-3-2">
      <rect
         style="opacity:1;fill:none;fill-opacity:1;stroke:#000000;stroke-width:1;stroke-miterlimit:4;stroke-dasharray:none;stroke-opacity:1"
         id="rect1950-5-3"
         width="41"
         height="28"
         x="19.880381"
         y="16.849239"
         ry="4"
         rx="4" />
    </clipPath>
    <clipPath
       clipPathUnits="userSpaceOnUse"
       id="clipPath2868-5-7">
      <rect
         style="opacity:1;fill:none;fill-opacity:1;stroke:#000000;stroke-width:1;stroke-miterlimit:4;stroke-dasharray:none;stroke-opacity:1"
         id="rect1950-0-5"
         width="41"
         height="28"
         x="19.880381"
         y="16.849239"
         ry="4"
         rx="4" />
    </clipPath>
    <linearGradient
       y2="542.33295"
       x2="188.00023"
       y1="412.82977"
       x1="253.74718"
       gradientUnits="userSpaceOnUse"
       id="linearGradient1302-1"
       xlink:href="#linearGradient2878"
       inkscape:collect="always" />
    <linearGradient
       inkscape:collect="always"
       xlink:href="#linearGradient4843"
       id="linearGradient5095"
       gradientUnits="userSpaceOnUse"
       gradientTransform="matrix(0.60112084,0,0,0.12278382,-38.390693,20.176469)"
       x1="247"
       y1="441.86218"
       x2="292"
       y2="282.36218" />
    <linearGradient
       inkscape:collect="always"
       xlink:href="#linearGradient937"
       id="linearGradient939"
       x1="95.061012"
       y1="95.464287"
       x2="99.596725"
       y2="15.900296"
       gradientUnits="userSpaceOnUse"
       gradientTransform="translate(-3.4745039,-2.9399648)" />
    <linearGradient
       id="linearGradient965">
      <stop
         style="stop-color:#0389d2;stop-opacity:1"
         offset="0"
         id="stop961" />
      <stop
         style="stop-color:#f7ffff;stop-opacity:1"
         offset="1"
         id="stop963" />
    </linearGradient>
    <linearGradient
       id="linearGradient4825-7">
      <stop
         style="stop-color:#048ad2;stop-opacity:1"
         offset="0"
         id="stop956" />
      <stop
         style="stop-color:#2bace8;stop-opacity:1"
         offset="1"
         id="stop958" />
    </linearGradient>
    <inkscape:perspective
       sodipodi:type="inkscape:persp3d"
       inkscape:vp_x="0 : 16 : 1"
       inkscape:vp_y="0 : 1000 : 0"
       inkscape:vp_z="32 : 16 : 1"
       inkscape:persp3d-origin="16 : 10.666668 : 1"
       id="perspective125-5" />
    <clipPath
       clipPathUnits="userSpaceOnUse"
       id="clipPath2815-9">
      <rect
         style="opacity:1;fill:#d533e4;fill-opacity:0.54098361;stroke:none;stroke-width:1;stroke-miterlimit:4;stroke-dasharray:none;stroke-opacity:1"
         id="rect1913-1"
         width="23"
         height="30"
         x="5"
         y="1"
         ry="4.6187186"
         rx="4.6187186" />
    </clipPath>
    <clipPath
       clipPathUnits="userSpaceOnUse"
       id="clipPath2868-2">
      <rect
         style="opacity:1;fill:none;fill-opacity:1;stroke:#000000;stroke-width:1;stroke-miterlimit:4;stroke-dasharray:none;stroke-opacity:1"
         id="rect1950-7"
         width="41"
         height="28"
         x="19.880381"
         y="16.849239"
         ry="4"
         rx="4" />
    </clipPath>
    <clipPath
       clipPathUnits="userSpaceOnUse"
       id="clipPath4004-0">
      <rect
         rx="4.6187186"
         ry="4.6187186"
         y="1"
         x="5"
         height="30"
         width="45"
         id="rect4000-93"
         style="opacity:1;fill:#d533e4;fill-opacity:0.54098361;stroke:none;stroke-width:1;stroke-miterlimit:4;stroke-dasharray:none;stroke-opacity:1" />
    </clipPath>
    <clipPath
       clipPathUnits="userSpaceOnUse"
       id="clipPath4011-6">
      <rect
         rx="4"
         ry="4"
         y="16.849239"
         x="19.880381"
         height="28"
         width="43"
         id="rect4002-06"
         style="opacity:1;fill:#e51be8;fill-opacity:0.53551911;stroke:none;stroke-width:1;stroke-miterlimit:4;stroke-dasharray:none;stroke-opacity:1" />
    </clipPath>
    <clipPath
       clipPathUnits="userSpaceOnUse"
       id="clipPath2868-3-26">
      <rect
         style="opacity:1;fill:none;fill-opacity:1;stroke:#000000;stroke-width:1;stroke-miterlimit:4;stroke-dasharray:none;stroke-opacity:1"
         id="rect1950-5-1"
         width="41"
         height="28"
         x="19.880381"
         y="16.849239"
         ry="4"
         rx="4" />
    </clipPath>
    <clipPath
       clipPathUnits="userSpaceOnUse"
       id="clipPath2868-5-8">
      <rect
         style="opacity:1;fill:none;fill-opacity:1;stroke:#000000;stroke-width:1;stroke-miterlimit:4;stroke-dasharray:none;stroke-opacity:1"
         id="rect1950-0-7"
         width="41"
         height="28"
         x="19.880381"
         y="16.849239"
         ry="4"
         rx="4" />
    </clipPath>
    <linearGradient
       inkscape:collect="always"
       xlink:href="#linearGradient4825"
       id="linearGradient1224"
       gradientUnits="userSpaceOnUse"
       x1="253.74718"
       y1="412.82977"
       x2="188.00023"
       y2="542.33295" />
    <linearGradient
       inkscape:collect="always"
       xlink:href="#linearGradient4843"
       id="linearGradient1226"
       gradientUnits="userSpaceOnUse"
       gradientTransform="matrix(0.60112084,0,0,0.12278382,-38.390693,20.176469)"
       x1="247"
       y1="441.86218"
       x2="292"
       y2="282.36218" />
  </defs>
  <metadata
     id="metadata5">
    <rdf:RDF>
      <cc:Work
         rdf:about="">
        <dc:format>image/svg+xml</dc:format>
        <dc:type
           rdf:resource="http://purl.org/dc/dcmitype/StillImage" />
        <dc:title></dc:title>
      </cc:Work>
    </rdf:RDF>
  </metadata>
  <g
     inkscape:label="Layer 1"
     inkscape:groupmode="layer"
     id="layer1"
     transform="translate(0,-197)"
     style="display:inline">
    <g
       transform="matrix(0.26458333,0,0,0.26458333,112.52754,189.56748)"
       style="display:none"
       inkscape:label="Guillotine"
       id="layer4">
      <rect
         inkscape:export-ydpi="1038.48"
         inkscape:export-xdpi="1038.48"
         inkscape:export-filename="/home/alex/Projects/phatcore/portfolio/images/thumbs/Anki_Main.png"
         y="40.374142"
         x="36.972717"
         height="15.340489"
         width="23.010735"
         id="rect3342"
         style="fill:#0000ff;fill-opacity:0.75;fill-rule:evenodd;stroke:none;stroke-width:1px;stroke-linecap:butt;stroke-linejoin:miter;stroke-opacity:1" />
    </g>
    <g
       id="layer3"
       inkscape:label="safe"
       style="display:none"
       transform="translate(113.84963,178.42711)">
      <path
         sodipodi:type="star"
         style="fill:url(#linearGradient1302-1-6);fill-opacity:1;stroke:#ffffff;stroke-width:15.98369503;stroke-miterlimit:4;stroke-dasharray:none;stroke-opacity:1"
         id="path1920-0-0"
         sodipodi:sides="5"
         sodipodi:cx="229"
         sodipodi:cy="456"
         sodipodi:r1="94"
         sodipodi:r2="52"
         sodipodi:arg1="0.80032243"
         sodipodi:arg2="1.428641"
         inkscape:flatsided="false"
         inkscape:rounded="0.21"
         inkscape:randomized="0"
         d="m 294.46869,523.45259 c -9.08043,8.81335 -45.57491,-17.76993 -58.10148,-15.97712 -12.52658,1.79282 -40.09949,37.54547 -51.28749,31.63294 -11.18801,-5.91252 2.81678,-48.83551 -2.75921,-60.19499 -5.57599,-11.35947 -48.09928,-26.53469 -45.93342,-39.00218 2.16586,-12.46749 47.31577,-12.41208 56.39619,-21.22544 9.08043,-8.81335 10.3725,-53.9448 22.89908,-55.73762 12.52657,-1.79281 26.42597,41.16443 37.61397,47.07695 11.188,5.91252 54.50984,-6.80503 60.08583,4.55445 5.57599,11.35947 -30.98363,37.85309 -33.14948,50.32059 -2.16586,12.46749 23.31643,49.73906 14.23601,58.55242 z"
         transform="matrix(0.2386658,-0.04516563,0.04516563,0.2386658,-33.930276,-23.847846)" />
      <path
         inkscape:connector-curvature="0"
         sodipodi:nodetypes="ccccc"
         id="path1924-4-8"
         d="M 15.710161,54.845973 H 195.44536 L 190.03525,81.35116 C 166.75969,76.19424 81.841887,68.24553 21.930183,68.24553 Z"
         style="display:inline;opacity:1;fill:url(#linearGradient1304-4-6);fill-opacity:1;stroke:none;stroke-width:8.81977177;stroke-miterlimit:4;stroke-opacity:1" />
    </g>
    <g
       transform="matrix(0.26458333,0,0,0.26458333,162.41357,144.05021)"
       style="display:none"
       inkscape:label="Guillotine"
       id="layer4-9">
      <rect
         inkscape:export-ydpi="1038.48"
         inkscape:export-xdpi="1038.48"
         inkscape:export-filename="/home/alex/Projects/phatcore/portfolio/images/thumbs/Anki_Main.png"
         y="40.374142"
         x="36.972717"
         height="15.340489"
         width="23.010735"
         id="rect3342-7"
         style="fill:#0000ff;fill-opacity:0.75;fill-rule:evenodd;stroke:none;stroke-width:1px;stroke-linecap:butt;stroke-linejoin:miter;stroke-opacity:1" />
    </g>
    <g
       id="layer3-3"
       inkscape:label="safe"
       style="display:none"
       transform="translate(135.76573,124.43867)">
      <path
         sodipodi:type="star"
         style="fill:url(#linearGradient1302-1);fill-opacity:1;stroke:#ffffff;stroke-width:15.98369503;stroke-miterlimit:4;stroke-dasharray:none;stroke-opacity:1"
         id="path1920-0-0-6"
         sodipodi:sides="5"
         sodipodi:cx="229"
         sodipodi:cy="456"
         sodipodi:r1="94"
         sodipodi:r2="52"
         sodipodi:arg1="0.80032243"
         sodipodi:arg2="1.428641"
         inkscape:flatsided="false"
         inkscape:rounded="0.21"
         inkscape:randomized="0"
         d="m 294.46869,523.45259 c -9.08043,8.81335 -45.57491,-17.76993 -58.10148,-15.97712 -12.52658,1.79282 -40.09949,37.54547 -51.28749,31.63294 -11.18801,-5.91252 2.81678,-48.83551 -2.75921,-60.19499 -5.57599,-11.35947 -48.09928,-26.53469 -45.93342,-39.00218 2.16586,-12.46749 47.31577,-12.41208 56.39619,-21.22544 9.08043,-8.81335 10.3725,-53.9448 22.89908,-55.73762 12.52657,-1.79281 26.42597,41.16443 37.61397,47.07695 11.188,5.91252 54.50984,-6.80503 60.08583,4.55445 5.57599,11.35947 -30.98363,37.85309 -33.14948,50.32059 -2.16586,12.46749 23.31643,49.73906 14.23601,58.55242 z"
         transform="matrix(0.2386658,-0.04516563,0.04516563,0.2386658,-33.930276,-23.847846)" />
      <path
         inkscape:connector-curvature="0"
         sodipodi:nodetypes="ccccc"
         id="path1924-4-8-1"
         d="M 15.710161,54.845973 H 195.44536 L 190.03525,81.35116 C 166.75969,76.19424 81.841887,68.24553 21.930183,68.24553 Z"
         style="display:inline;opacity:1;fill:url(#linearGradient5095);fill-opacity:1;stroke:none;stroke-width:8.81977177;stroke-miterlimit:4;stroke-opacity:1" />
    </g>
  </g>
  <g
     inkscape:groupmode="layer"
     id="layer5"
     inkscape:label="back box"
     style="display:inline">
    <path
       style="fill:#0c91d6;fill-opacity:1;stroke:none;stroke-width:0.26458332px;stroke-linecap:butt;stroke-linejoin:miter;stroke-opacity:1"
       d="m 101.69941,66.182295 14.36239,-20.7721 39.15498,10.22306 -10.20588,15.78972 -15.44476,3.90321 z"
       id="path911"
       inkscape:connector-curvature="0"
       sodipodi:nodetypes="cccccc" />
    <path
       style="fill:#0c91d6;fill-opacity:1;stroke:none;stroke-width:0.26458332px;stroke-linecap:butt;stroke-linejoin:miter;stroke-opacity:1"
       d="m 44.166288,55.700075 5.187067,8.37698 20.911532,8.84423 30.846023,-6.75856 -11.575618,-18.21347 z"
       id="path913"
       inkscape:connector-curvature="0"
       sodipodi:nodetypes="cccccc" />
    <path
       style="fill:#0c91d6;fill-opacity:1;stroke:none;stroke-width:0.26458332px;stroke-linecap:butt;stroke-linejoin:miter;stroke-opacity:1"
       d="m 101.36664,66.514834 27.925,9.163639 -20.44613,5.245165 L 91.706857,92.85054 71.795276,73.740768 70.592564,73.306454 Z"
       id="path943"
       inkscape:connector-curvature="0"
       sodipodi:nodetypes="ccccccc" />
  </g>
  <g
     inkscape:groupmode="layer"
     id="layer6"
     inkscape:label="shine"
     style="display:inline">
    <path
       style="display:inline;fill:url(#linearGradient939);fill-opacity:1;stroke:none;stroke-width:0.26458332px;stroke-linecap:butt;stroke-linejoin:miter;stroke-opacity:1"
       d="M 56.434721,76.507577 34.425953,-10.647165 168.24617,-10.916854 140.15645,79.956612 137.35638,119.0866 91.917237,135.6136 59.024072,114.96579 Z"
       id="path923"
       inkscape:connector-curvature="0"
       sodipodi:nodetypes="cccccccc" />
  </g>
  <g
     inkscape:groupmode="layer"
     id="layer7"
     inkscape:label="stars">
    <path
       transform="matrix(0.10150228,-0.09205734,0.09205734,0.10150228,22.934345,52.480427)"
       d="m 294.46869,523.45259 c -9.08043,8.81335 -45.57491,-17.76993 -58.10148,-15.97712 -12.52658,1.79282 -40.09949,37.54547 -51.28749,31.63294 -11.18801,-5.91252 2.81678,-48.83551 -2.75921,-60.19499 -5.57599,-11.35947 -48.09928,-26.53469 -45.93342,-39.00218 2.16586,-12.46749 47.31577,-12.41208 56.39619,-21.22544 9.08043,-8.81335 10.3725,-53.9448 22.89908,-55.73762 12.52657,-1.79281 26.42597,41.16443 37.61397,47.07695 11.188,5.91252 54.50984,-6.80503 60.08583,4.55445 5.57599,11.35947 -30.98363,37.85309 -33.14948,50.32059 -2.16586,12.46749 23.31643,49.73906 14.23601,58.55242 z"
       inkscape:randomized="0"
       inkscape:rounded="0.21"
       inkscape:flatsided="false"
       sodipodi:arg2="1.428641"
       sodipodi:arg1="0.80032243"
       sodipodi:r2="52"
       sodipodi:r1="94"
       sodipodi:cy="456"
       sodipodi:cx="229"
       sodipodi:sides="5"
       id="path1920-0-9"
       style="display:inline;fill:#ffae00;fill-opacity:1;stroke:#ffffff;stroke-width:11.86487579;stroke-miterlimit:4;stroke-dasharray:none;stroke-opacity:1;paint-order:normal"
       sodipodi:type="star" />
    <path
       transform="matrix(0.24482086,-0.03991749,0.03991749,0.24482086,84.258193,-50.61988)"
       d="m 294.46869,523.45259 c -9.08043,8.81335 -45.57491,-17.76993 -58.10148,-15.97712 -12.52658,1.79282 -40.09949,37.54547 -51.28749,31.63294 -11.18801,-5.91252 2.81678,-48.83551 -2.75921,-60.19499 -5.57599,-11.35947 -48.09928,-26.53469 -45.93342,-39.00218 2.16586,-12.46749 47.31577,-12.41208 56.39619,-21.22544 9.08043,-8.81335 10.3725,-53.9448 22.89908,-55.73762 12.52657,-1.79281 26.42597,41.16443 37.61397,47.07695 11.188,5.91252 54.50984,-6.80503 60.08583,4.55445 5.57599,11.35947 -30.98363,37.85309 -33.14948,50.32059 -2.16586,12.46749 23.31643,49.73906 14.23601,58.55242 z"
       inkscape:randomized="0"
       inkscape:rounded="0.21"
       inkscape:flatsided="false"
       sodipodi:arg2="1.428641"
       sodipodi:arg1="0.80032243"
       sodipodi:r2="52"
       sodipodi:r1="94"
       sodipodi:cy="456"
       sodipodi:cx="229"
       sodipodi:sides="5"
       id="path1920-0-9-6"
       style="display:inline;fill:#08ae00;fill-opacity:1;stroke:#ffffff;stroke-width:11.86487579;stroke-miterlimit:4;stroke-dasharray:none;stroke-opacity:1;paint-order:normal"
       sodipodi:type="star" />
    <path
       transform="matrix(0.15890238,0.08944032,-0.08944032,0.15890238,37.725503,-65.627116)"
       d="m 294.46869,523.45259 c -9.08043,8.81335 -45.57491,-17.76993 -58.10148,-15.97712 -12.52658,1.79282 -40.09949,37.54547 -51.28749,31.63294 -11.18801,-5.91252 2.81678,-48.83551 -2.75921,-60.19499 -5.57599,-11.35947 -48.09928,-26.53469 -45.93342,-39.00218 2.16586,-12.46749 47.31577,-12.41208 56.39619,-21.22544 9.08043,-8.81335 10.3725,-53.9448 22.89908,-55.73762 12.52657,-1.79281 26.42597,41.16443 37.61397,47.07695 11.188,5.91252 54.50984,-6.80503 60.08583,4.55445 5.57599,11.35947 -30.98363,37.85309 -33.14948,50.32059 -2.16586,12.46749 23.31643,49.73906 14.23601,58.55242 z"
       inkscape:randomized="0"
       inkscape:rounded="0.21"
       inkscape:flatsided="false"
       sodipodi:arg2="1.428641"
       sodipodi:arg1="0.80032243"
       sodipodi:r2="52"
       sodipodi:r1="94"
       sodipodi:cy="456"
       sodipodi:cx="229"
       sodipodi:sides="5"
       id="path1920-0-9-6-1"
       style="display:inline;fill:#f44211;fill-opacity:1;stroke:#ffffff;stroke-width:11.86487579;stroke-miterlimit:4;stroke-dasharray:none;stroke-opacity:1;paint-order:normal"
       sodipodi:type="star" />
    <path
       transform="matrix(0.30425337,-0.02800053,0.02800053,0.30425337,19.303732,-102.18006)"
       d="m 294.46869,523.45259 c -9.08043,8.81335 -45.57491,-17.76993 -58.10148,-15.97712 -12.52658,1.79282 -40.09949,37.54547 -51.28749,31.63294 -11.18801,-5.91252 2.81678,-48.83551 -2.75921,-60.19499 -5.57599,-11.35947 -48.09928,-26.53469 -45.93342,-39.00218 2.16586,-12.46749 47.31577,-12.41208 56.39619,-21.22544 9.08043,-8.81335 10.3725,-53.9448 22.89908,-55.73762 12.52657,-1.79281 26.42597,41.16443 37.61397,47.07695 11.188,5.91252 54.50984,-6.80503 60.08583,4.55445 5.57599,11.35947 -30.98363,37.85309 -33.14948,50.32059 -2.16586,12.46749 23.31643,49.73906 14.23601,58.55242 z"
       inkscape:randomized="0"
       inkscape:rounded="0.21"
       inkscape:flatsided="false"
       sodipodi:arg2="1.428641"
       sodipodi:arg1="0.80032243"
       sodipodi:r2="52"
       sodipodi:r1="94"
       sodipodi:cy="456"
       sodipodi:cx="229"
       sodipodi:sides="5"
       id="path1920-0-9-6-1-2"
       style="display:inline;fill:#3520ad;fill-opacity:1;stroke:#ffffff;stroke-width:11.86487579;stroke-miterlimit:4;stroke-dasharray:none;stroke-opacity:1;paint-order:normal"
       sodipodi:type="star" />
    <path
       sodipodi:type="star"
       style="opacity:1;fill:#3520ad;fill-opacity:1;stroke:#ffffff;stroke-width:2.88199997;stroke-linecap:round;stroke-linejoin:round;stroke-miterlimit:4;stroke-dasharray:none;stroke-dashoffset:0;stroke-opacity:1;paint-order:fill markers stroke"
       id="path1357"
       sodipodi:sides="4"
       sodipodi:cx="301.0791"
       sodipodi:cy="52.960564"
       sodipodi:r1="17.493908"
       sodipodi:r2="0.17493908"
       sodipodi:arg1="0.82321796"
       sodipodi:arg2="1.6086161"
       inkscape:flatsided="false"
       inkscape:rounded="0.21"
       inkscape:randomized="0"
       d="m 312.9726,65.789501 c -2.6751,2.480035 -8.25489,-12.516196 -11.90011,-12.654123 -3.64523,-0.137928 -10.34229,14.393774 -12.82233,11.718679 -2.48003,-2.675094 12.5162,-8.25488 12.65413,-11.900108 0.13793,-3.645227 -14.39378,-10.342287 -11.71868,-12.822322 2.67509,-2.480036 8.25488,12.516195 11.90011,12.654123 3.64522,0.137927 10.34228,-14.393775 12.82232,-11.71868 2.48003,2.675095 -12.5162,8.254881 -12.65412,11.900108 -0.13793,3.645228 14.39377,10.342287 11.71868,12.822323 z"
       inkscape:transform-center-x="3.7931227e-06" />
  </g>
  <g
     inkscape:groupmode="layer"
     id="layer2"
     inkscape:label="front box"
     style="display:inline">
    <path
       style="fill:#0c91d6;fill-opacity:1;stroke:none;stroke-width:0.26458332px;stroke-linecap:butt;stroke-linejoin:miter;stroke-opacity:1"
       d="M 92.141167,93.785985 V 136.41548 L 137.84426,119.5775 139.98242,80.622955 Z"
       id="path903"
       inkscape:connector-curvature="0" />
    <path
       style="fill:#0c91d6;fill-opacity:1;stroke:none;stroke-width:0.26458332px;stroke-linecap:butt;stroke-linejoin:miter;stroke-opacity:1"
       d="M 91.184908,93.823615 91.573221,136.29855 58.598843,115.30118 56.529217,77.358025 Z"
       id="path905"
       inkscape:connector-curvature="0" />
    <path
       style="fill:#0c91d6;fill-opacity:1;stroke:none;stroke-width:0.26458332px;stroke-linecap:butt;stroke-linejoin:miter;stroke-opacity:1"
       d="m 92.177095,92.996785 48.829805,-13.22916 18.33184,-11.29204 -50.27083,12.80394 z"
       id="path907"
       inkscape:connector-curvature="0" />
    <path
       style="fill:#0c91d6;fill-opacity:1;stroke:none;stroke-width:0.26458332px;stroke-linecap:butt;stroke-linejoin:miter;stroke-opacity:1"
       d="m 91.20853,93.044035 -35.010042,-16.5837 -18.757069,-16.63096 34.11235,14.31585 z"
       id="path909"
       inkscape:connector-curvature="0" />
    <g
       transform="matrix(0.26458333,0,0,0.26458333,-34.859489,-17.081345)"
       style="display:none"
       inkscape:label="Guillotine"
       id="layer4-7">
      <rect
         inkscape:export-ydpi="1038.48"
         inkscape:export-xdpi="1038.48"
         inkscape:export-filename="/home/alex/Projects/phatcore/portfolio/images/thumbs/Anki_Main.png"
         y="40.374142"
         x="36.972717"
         height="15.340489"
         width="23.010735"
         id="rect3342-5"
         style="fill:#0000ff;fill-opacity:0.75;fill-rule:evenodd;stroke:none;stroke-width:1px;stroke-linecap:butt;stroke-linejoin:miter;stroke-opacity:1" />
    </g>
    <g
       id="layer3-8"
       inkscape:label="safe"
       style="display:none"
       transform="translate(-126.14125,-95.279197)">
      <path
         sodipodi:type="star"
         style="fill:url(#linearGradient1224);fill-opacity:1;stroke:#ffffff;stroke-width:15.98369503;stroke-miterlimit:4;stroke-dasharray:none;stroke-opacity:1"
         id="path1920-0-0-9"
         sodipodi:sides="5"
         sodipodi:cx="229"
         sodipodi:cy="456"
         sodipodi:r1="94"
         sodipodi:r2="52"
         sodipodi:arg1="0.80032243"
         sodipodi:arg2="1.428641"
         inkscape:flatsided="false"
         inkscape:rounded="0.21"
         inkscape:randomized="0"
         d="m 294.46869,523.45259 c -9.08043,8.81335 -45.57491,-17.76993 -58.10148,-15.97712 -12.52658,1.79282 -40.09949,37.54547 -51.28749,31.63294 -11.18801,-5.91252 2.81678,-48.83551 -2.75921,-60.19499 -5.57599,-11.35947 -48.09928,-26.53469 -45.93342,-39.00218 2.16586,-12.46749 47.31577,-12.41208 56.39619,-21.22544 9.08043,-8.81335 10.3725,-53.9448 22.89908,-55.73762 12.52657,-1.79281 26.42597,41.16443 37.61397,47.07695 11.188,5.91252 54.50984,-6.80503 60.08583,4.55445 5.57599,11.35947 -30.98363,37.85309 -33.14948,50.32059 -2.16586,12.46749 23.31643,49.73906 14.23601,58.55242 z"
         transform="matrix(0.2386658,-0.04516563,0.04516563,0.2386658,-33.930276,-23.847846)" />
      <path
         inkscape:connector-curvature="0"
         sodipodi:nodetypes="ccccc"
         id="path1924-4-8-7"
         d="M 15.710161,54.845973 H 195.44536 L 190.03525,81.35116 C 166.75969,76.19424 81.841887,68.24553 21.930183,68.24553 Z"
         style="display:inline;opacity:1;fill:url(#linearGradient1226);fill-opacity:1;stroke:none;stroke-width:8.81977177;stroke-miterlimit:4;stroke-opacity:1" />
    </g>
  </g>
</svg>
